Name,BodyweightKg,State,Best3SquatKg,Best3BenchKg,Best3DeadliftKg,TotalKg,Event,Sex,Equipment,WeightClassKg,Division,Place
Laura Fagin,120.66,KY,102.06,47.63,142.88,292.57,SBD,F,Wraps,90+,Sub-Masters,1
Tania Traylor,99.52,KY,124.74,74.84,149.69,349.27,SBD,F,Wraps,90+,Masters 40-44,1
Don Millrany,90.9,TN,235.87,149.69,272.16,657.71,SBD,M,Wraps,100,Open,1
Daniel Rushing,99.79,KY,149.69,111.13,190.51,451.32,SBD,M,Wraps,100,Open,2
Chris Ewing,112.85,KY,226.8,181.44,272.16,680.39,SBD,M,Wraps,118,Open,1
Jacob Shelton,139.16,KY,233.6,188.24,294.84,716.68,SBD,M,Wraps,140,Open,1
Eric Farmer,126.46,OH,283.5,206.38,306.17,796.05,SBD,M,Multi-ply,140,Open,1
Jared Brown,80.92,KY,,117.93,219.99,337.93,BD,M,Raw,82.5,Open,1
Chris Phillips,124.01,IN,,190.51,,190.51,B,M,Raw,125,Masters 45-49,1
