Name,Sex,BodyweightKg,Team,Bench1Kg,Bench2Kg,Bench3Kg,Best3BenchKg,Bench4Kg,TotalKg,WeightClassKg,Event,Equipment,Tested,Deadlift1Kg,Deadlift2Kg,Deadlift3Kg,Best3DeadliftKg,Deadlift4Kg,Squat1Kg,Squat2Kg,Squat3Kg,Best3SquatKg,Squat4Kg,Division,Age,Place
Anna Kolesnikova,F,65.3,Russia,100,110,115,115,,115,67.5,B,Single-ply,No,,,,,,,,,,,Pro Open,19,1
Elena Prokopova,F,65.9,Russia,90,95,97.5,97.5,,97.5,67.5,B,Single-ply,No,,,,,,,,,,,Pro Masters 50-54,51,1
Yuliya Umerenkova,F,72.6,Russia,115,120,130,130,,130,75,B,Single-ply,No,,,,,,,,,,,Pro Open,37,1
Olga Baklykova,F,73.9,Russia,125,130,140,140,,140,75,B,Single-ply,No,,,,,,,,,,,Pro Masters 50-54,53,2
Kostas Telidis,M,75,Russia,220,240,-250,240,,240,75,B,Single-ply,No,,,,,,,,,,,Pro Open,28,1
Konstantin Semenov,M,75,Russia,170,-180,,170,,170,75,B,Single-ply,No,,,,,,,,,,,Pro Open,53,3
Konstantin Semenov,M,75,Russia,170,-180,,170,,170,75,B,Single-ply,No,,,,,,,,,,,Pro Masters 50-54,53,1
Erkhembayar Erdenetuya,M,78,Mongolia,130,150,-170,150,,150,82.5,B,Single-ply,No,,,,,,,,,,,Pro Juniors 20-23,21,2
Mushfig Aliyev,M,76,Azerbaidzhan,-130,130,170,170,,170,82.5,B,Single-ply,No,,,,,,,,,,,Pro Open,40,2
Boris Ryazanov,M,82.1,Russia,135,150,,150,,150,82.5,B,Single-ply,No,,,,,,,,,,,Pro Masters 60-64,63,1
Kamil Gafarov,M,88.1,Azerbaidjan,240,-260,,240,,240,90,B,Single-ply,No,,,,,,,,,,,Pro Open,33,1
Andrey Gabuev,M,98.5,Russia,205,215,-220,215,,215,100,B,Single-ply,No,,,,,,,,,,,Pro Juniors 20-23,21,1
Amarzaya Taivantumur,M,93.5,Mongolia,230,250,-270,250,,250,100,B,Single-ply,No,,,,,,,,,,,Pro Open,30,3
Valeriy Akentyev,M,99,Russia,220,225,,225,,225,100,B,Single-ply,No,,,,,,,,,,,Pro Masters 55-59,59,1
Mihail Prokopov,M,100,Russia,200,205,210,210,,210,100,B,Single-ply,No,,,,,,,,,,,Pro Masters 60-64,61,1
Alexandr Tsvetkov,M,97.4,Russia,150,165,-175,165,,165,100,B,Single-ply,No,,,,,,,,,,,Pro Masters 60-64,60,2
Vasiliy Synkov,M,105.3,Russia,310,-330,335,335,,335,110,B,Single-ply,No,,,,,,,,,,,Pro Open,45,1
Aleksey Pavlikov,M,108.8,Russia,290,-305,307.5,307.5,,307.5,110,B,Single-ply,No,,,,,,,,,,,Pro Open,35,3
Mustafa Ahmadov,M,104.1,Azerbaidjan,250,292.5,-310,292.5,,292.5,110,B,Single-ply,No,,,,,,,,,,,Pro Open,37,4
Vasiliy Synkov,M,105.3,Russia,310,-330,335,335,,335,110,B,Single-ply,No,,,,,,,,,,,Pro Masters 45-49,45,1
Mikhail Chusovskoy,M,108.9,Russia,240,-250,-250,240,,240,110,B,Single-ply,No,,,,,,,,,,,Pro Masters 45-49,45,2
Arbi Israilov,M,108,Russia,145,165,-170,165,,165,110,B,Single-ply,No,,,,,,,,,,,Pro Masters 45-49,49,3
Igor Kurotchenko,M,108.6,Russia,180,200,-220,200,,200,110,B,Single-ply,No,,,,,,,,,,,Pro Masters 55-59,55,1
Vaginakovich Grachik,M,106.4,Russia,230,240,-250,240,,240,110,B,Single-ply,No,,,,,,,,,,,Pro Masters 65-69,65,1
Ivan Listopad,M,114.6,Russia,180,190,200,200,,200,125,B,Single-ply,No,,,,,,,,,,,Pro Juniors 20-23,22,1
Zaur Jafarov,M,112.2,Azerbaidjan,230,,,230,,230,125,B,Single-ply,No,,,,,,,,,,,Pro Open,37,5
Sergey Kolesnichenko,M,134.2,Russia,310,322.5,330,330,,330,140,B,Single-ply,No,,,,,,,,,,,Pro Open,38,1
Sergey Lazarev,M,151.3,Russia,190,200,210,210,,210,140+,B,Single-ply,No,,,,,,,,,,,Pro Masters 55-59,57,1
Yuliya Kuznetsova,F,59.8,Russia,125,132.5,-135,132.5,,132.5,60,B,Single-ply,No,,,,,,,,,,,Pro Open,44,1
Olga Baklykova,F,73.9,Russia,135,140,145,145,-150,145,75,B,Single-ply,No,,,,,,,,,,,Pro Masters 50-54,53,1
Emma Ylitalo-James,F,81,United Kingdom,195,-205,205,205,-210,205,82.5,B,Single-ply,No,,,,,,,,,,,Pro Open,48,1
Stanislav Trubin,M,50.4,Russia,105,112.5,120,120,,120,52,B,Single-ply,No,,,,,,,,,,,Pro Juniors 20-23,22,1
Kostas Telidis,M,75,Russia,220,232.5,-240,232.5,,232.5,75,B,Single-ply,No,,,,,,,,,,,Pro Open,28,2
Vincent Eldin,M,74.3,France,-170,170,-187.5,170,,170,75,B,Single-ply,No,,,,,,,,,,,Pro Masters 45-49,45,1
Saleh Delbasteh,M,81.3,Iran,-190,190,-205,190,,190,82.5,B,Single-ply,No,,,,,,,,,,,Pro Juniors 20-23,21,1
Arttu Wahlström,M,81.2,Finland,210,222.5,230,230,,230,82.5,B,Single-ply,No,,,,,,,,,,,Pro Open,31,1
Stanislav Bulgarevich,M,77.6,Russia,95,105,110,110,,110,82.5,B,Single-ply,No,,,,,,,,,,,Pro Open,31,3
Sergey Kandaurov,M,82.4,Russia,185,-195,,185,,185,82.5,B,Single-ply,No,,,,,,,,,,,Pro Masters 40-44,43,1
Evgeniy Emelin,M,75.2,Russia,145,150,155,155,,155,82.5,B,Single-ply,No,,,,,,,,,,,Pro Masters 50-54,53,1
Nikolay Krasnov,M,82,Russia,205,212.5,-215,212.5,,212.5,82.5,B,Single-ply,No,,,,,,,,,,,Pro Masters 55-59,57,1
Sergey Nikiforov,M,79.4,Russia,145,-155,-155,145,,145,82.5,B,Single-ply,No,,,,,,,,,,,Pro Masters 70-74,70,1
Peter Herrmann,M,79,Switzerland,107.5,110,112.5,112.5,,112.5,82.5,B,Single-ply,No,,,,,,,,,,,Pro Masters,75,1
Segey Yakush,M,88.3,Russia,,,,,,,90,B,Single-ply,No,,,,,,,,,,,Pro Juniors 20-23,22,DQ
Ilya Uglichin,M,89.4,Russia,232.5,-237.5,-237.5,232.5,,232.5,90,B,Single-ply,No,,,,,,,,,,,Pro Open,30,2
Kanan Hajiyev,M,85.5,Azerbaidjan,220,-232.5,-237.5,220,,220,90,B,Single-ply,No,,,,,,,,,,,Pro Open,28,3
Maksim Volkov,M,85.7,Russia,-220,-230,-230,,,,90,B,Single-ply,No,,,,,,,,,,,Pro Open,33,DQ
Segey Yakush,M,88.3,Russia,,,,,,,90,B,Single-ply,No,,,,,,,,,,,Pro Open,22,DQ
Javad Saghaei,M,98.9,Iran,252.5,267.5,281,281,-290,281,100,B,Single-ply,No,,,,,,,,,,,Pro Open,41,1
Amarzaya Taivantumur,M,93.5,Mongolia,-250,265,-275,265,,265,100,B,Single-ply,No,,,,,,,,,,,Pro Open,30,2
Ivan Solntsev,M,99.4,Russia,-240,240,-260,240,,240,100,B,Single-ply,No,,,,,,,,,,,Pro Open,43,4
Denis Karpov,M,98.9,Russia,-222.5,-222.5,-222.5,,,,100,B,Single-ply,No,,,,,,,,,,,Pro Open,36,DQ
Javad Saghaei,M,98.9,Iran,252.5,267.5,281,281,-290,281,100,B,Single-ply,No,,,,,,,,,,,Pro Masters 40-44,41,1
Ivan Solntsev,M,99.4,Russia,-240,240,-260,240,,240,100,B,Single-ply,No,,,,,,,,,,,Pro Masters 40-44,43,2
Mikhail Shirokov,M,109.9,Russia,220,227.5,-237.5,227.5,,227.5,110,B,Single-ply,No,,,,,,,,,,,Pro Teen 18-19,18,1
Nikolay Alyshev,M,108.3,Russia,307.5,315,323,323,,323,110,B,Single-ply,No,,,,,,,,,,,Pro Open,32,2
Oleg Nagaytsev,M,102.1,Russia,240,-250,250,250,,250,110,B,Single-ply,No,,,,,,,,,,,Pro Open,30,5
Ali Aliyev,M,109.3,Azerbaidjan,-210,-220,-220,,,,110,B,Single-ply,No,,,,,,,,,,,Pro Open,23,DQ
Vladimir Peshko,M,106.8,Russia,-240,-240,,,,,110,B,Single-ply,No,,,,,,,,,,,Pro Masters 45-49,47,DQ
Vyacheslav Frank,M,100.3,Russia,162.5,170,-180,170,,170,110,B,Single-ply,No,,,,,,,,,,,Pro Masters 55-59,55,2
Vitaliy Ponomarev,M,102.9,Russia,225,230,235,235,240,235,110,B,Single-ply,No,,,,,,,,,,,Pro Masters 60-64,60,1
Eduard Abdyushev,M,107.7,Russia,-220,-220,220,220,,220,110,B,Single-ply,No,,,,,,,,,,,Pro Masters 60-64,62,2
Hans-Urlich Vetter,M,105.4,Germany,180,190,-200,190,,190,110,B,Single-ply,No,,,,,,,,,,,Pro Masters 65-69,65,2
Roberts William,M,102.1,USA,85,,,85,,85,110,B,Single-ply,No,,,,,,,,,,,Pro Masters,75,1
Henrik Hosio,M,118,Finland,280,-290,,280,,280,125,B,Single-ply,No,,,,,,,,,,,Pro Open,38,1
Dmitriy Shishlyannikov,M,122.8,Russia,240,-250,255,255,,255,125,B,Single-ply,No,,,,,,,,,,,Pro Open,37,2
Zaur Jafarov,M,112.2,Azerbaidjan,240,250,252.5,252.5,,252.5,125,B,Single-ply,No,,,,,,,,,,,Pro Open,37,3
Aleksey Isaev,M,115,Russia,230,240,250,250,,250,125,B,Single-ply,No,,,,,,,,,,,Pro Open,42,4
Anton Begalko,M,120.8,Russia,-360,-360,-360,,,,125,B,Single-ply,No,,,,,,,,,,,Pro Open,31,DQ
Aleksey Isaev,M,115,Russia,230,240,250,250,,250,125,B,Single-ply,No,,,,,,,,,,,Pro Masters 40-44,42,1
Dmitriy Gorbachev,M,114.7,Russia,-280,,,,,,125,B,Single-ply,No,,,,,,,,,,,Pro Masters 45-49,47,DQ
Bahman Halimimamghani,M,133,Iran,300,,,300,,300,140,B,Single-ply,No,,,,,,,,,,,Pro Open,33,2
Veijo Laine,M,125.7,Finland,-230,-230,-230,,,,140,B,Single-ply,No,,,,,,,,,,,Pro Masters 65-69,65,DQ
Danial Zamani,M,140.6,Iran,325,336,345,345,-355,345,140+,B,Single-ply,No,,,,,,,,,,,Pro Open,26,1
Oleksii Lisogor,M,166.4,Ukraine,-310,310,320,320,,320,140+,B,Single-ply,No,,,,,,,,,,,Pro Open,31,2
Grigoriy Rubin,M,73.9,Israel,-105,,,,,,75,B,Multi-ply,No,,,,,,,,,,,Pro Masters,80,DQ
Valentin Cacici,M,82.3,France,-265,270,285,285,,285,82.5,B,Multi-ply,No,,,,,,,,,,,Pro Open,28,1
Didier Theux,M,82.3,France,-185,185,200,200,,200,82.5,B,Multi-ply,No,,,,,,,,,,,Pro Open,59,2
Arttu Wahlström,M,81.2,Finland,-240,-240,-240,,,,82.5,B,Multi-ply,No,,,,,,,,,,,Pro Open,31,DQ
Didier Theux,M,82.3,France,-185,185,200,200,,200,82.5,B,Multi-ply,No,,,,,,,,,,,Pro Masters 55-59,59,1
Bayram Aliyev,M,89.3,Azerbaidjan,-240,240,260,260,,260,90,B,Multi-ply,No,,,,,,,,,,,Pro Open,32,1
Nijat Huseynov,M,89.8,Azerbaidjan,-210,,,,,,90,B,Multi-ply,No,,,,,,,,,,,Pro Open,28,DQ
Aleksandr Petrov,M,89.9,Russia,235,245,-252.5,245,,245,90,B,Multi-ply,No,,,,,,,,,,,Pro Masters 55-59,57,1
Eldar Mammadov,M,99.4,Azerbaidjan,-260,-260,260,260,,260,100,B,Multi-ply,No,,,,,,,,,,,Pro Open,39,1
Sergey Ivanov,M,103.4,Ukraine,330,-345,-350,330,,330,110,B,Multi-ply,No,,,,,,,,,,,Pro Open,27,1
Sergey Starodubskiy,M,110,Russia,270,-292.5,305,305,,305,110,B,Multi-ply,No,,,,,,,,,,,Pro Open,40,2
Mustafa Ahmadov,M,104.1,Azerbaidjan,290,-302.5,-302.5,290,,290,110,B,Multi-ply,No,,,,,,,,,,,Pro Open,37,3
Garry Barros,M,109.4,France,-250,250,-260,250,,250,110,B,Multi-ply,No,,,,,,,,,,,Pro Open,34,4
Aleksandr Terentyev,M,107,Russia,-290,-290,-300,,,,110,B,Multi-ply,No,,,,,,,,,,,Pro Open,48,DQ
Richard Riso,M,107.5,France,230,-245,-255,230,,230,110,B,Multi-ply,No,,,,,,,,,,,Pro Masters 45-49,47,2
Aleksandr Terentyev,M,107,Russia,-290,-290,-300,,,,110,B,Multi-ply,No,,,,,,,,,,,Pro Masters 45-49,48,DQ
Eric Platel,M,110,France,255,-265,-265,255,,255,110,B,Multi-ply,No,,,,,,,,,,,Pro Masters 45-49,46,1
Roberts William,M,102.1,USA,85,,,85,,85,110,B,Multi-ply,No,,,,,,,,,,,Pro Masters,75,1
Dmitriy Gorbachev,M,114.7,Russia,300,,,300,,300,125,B,Multi-ply,No,,,,,,,,,,,Pro Open,47,1
Peter Funtik,M,121.5,Slovakia,-55,55,,55,,55,125,B,Multi-ply,No,,,,,,,,,,,Pro Open,39,2
Henrik Hosio,M,118,Finland,-350,-360,-380,,,,125,B,Multi-ply,No,,,,,,,,,,,Pro Open,38,DQ
Dmitriy Gorbachev,M,114.7,Russia,300,310,320,320,-330.5,320,125,B,Multi-ply,No,,,,,,,,,,,Pro Masters 45-49,47,1
Comb La,M,124.6,USA,125,-227.5,-227.5,125,,125,125,B,Multi-ply,No,,,,,,,,,,,Pro Masters 50-54,50,1
Kalle Ylittalo-James,M,129.4,Finland,340,357.5,-365,357.5,,357.5,140,B,Multi-ply,No,,,,,,,,,,,Pro Open,34,1
Ján Šiska,M,125.8,Slovakia,210,232.5,-252.5,232.5,,232.5,140,B,Multi-ply,No,,,,,,,,,,,Pro Open,37,2
Denis Borcha,M,143.1,Slovakia,180,-190,-200,180,,180,140+,B,Multi-ply,No,,,,,,,,,,,Pro Teen 16-17,17,1
Peter Mihay,M,152,Slovakia,160,,,160,,160,140+,B,Multi-ply,No,,,,,,,,,,,Pro Masters 55-59,59,1
Tatjana Guseva,F,51.3,Latvia,72.5,77.5,-82.5,77.5,,77.5,52,B,Raw,No,,,,,,,,,,,Pro Open,35,1
Vanessa Torres,F,59,Finland,95,100,-102.5,100,,100,60,B,Raw,No,,,,,,,,,,,Pro Open,31,1
Natalia Romanovich,F,59.4,Russia,90,95,97.5,97.5,,97.5,60,B,Raw,No,,,,,,,,,,,Pro Masters 45-49,48,1
Tatiana Fedorova,F,60,Russia,55,57.5,-60,57.5,,57.5,60,B,Raw,No,,,,,,,,,,,Pro Masters 50-54,52,1
Anna Kolesnikova,F,65.3,Russia,75,80,-87.5,80,,80,67.5,B,Raw,No,,,,,,,,,,,Pro Teen 18-19,19,1
Johanna Bies,F,61.9,Finland,105,-110,-110,105,,105,67.5,B,Raw,No,,,,,,,,,,,Pro Open,45,1
Lyubov Maleeva,F,66.5,Kyrgyzstan,95,-100,102.5,102.5,,102.5,67.5,B,Raw,No,,,,,,,,,,,Pro Open,40,2
Viktoriya Blotskaya,F,67.3,Russia,80,85,87.5,87.5,,87.5,67.5,B,Raw,No,,,,,,,,,,,Pro Open,32,3
Anna Kolesnikova,F,65.3,Russia,70,80,-87.5,80,,80,67.5,B,Raw,No,,,,,,,,,,,Pro Open,19,4
Lyubov Maleeva,F,66.5,Kyrgyzstan,95,-100,102.5,102.5,,102.5,67.5,B,Raw,No,,,,,,,,,,,Pro Masters 40-44,40,1
Johanna Bies,F,61.9,Finland,105,-110,-110,105,,105,67.5,B,Raw,No,,,,,,,,,,,Pro Masters 45-49,45,1
Nelly Herrmann,F,65,Switzerland,55,-60,67.5,67.5,,67.5,67.5,B,Raw,No,,,,,,,,,,,Pro Masters 70-74,73,1
Regina Sukhanova,F,73.4,Russia,125,135,-145,135,,135,75,B,Raw,No,,,,,,,,,,,Pro Open,37,1
Alina Fadeeva,F,73.5,Russia,112.5,117.5,-125,117.5,,117.5,75,B,Raw,No,,,,,,,,,,,Pro Open,29,2
Krista Pellikka,F,74.5,Finland,100,110,-112.5,110,,110,75,B,Raw,No,,,,,,,,,,,Pro Open,30,3
Catherine Croydon,F,74.9,Ireland,102.5,-110,-110,102.5,,102.5,75,B,Raw,No,,,,,,,,,,,Pro Open,26,4
Sandrine Platel,F,74.9,France,80,90,-95,90,,90,75,B,Raw,No,,,,,,,,,,,Pro Masters 40-44,43,1
Olga Baklykova,F,73.9,Russia,105,110,-115,110,,110,75,B,Raw,No,,,,,,,,,,,Pro Masters 50-54,53,1
Maiju Hilander,F,71.9,Finland,60,67.5,73,73,-75,73,75,B,Raw,No,,,,,,,,,,,Pro Masters 60-64,60,1
Yana Kodzaeva,F,79.3,Russia,100,105,-110,105,,105,82.5,B,Raw,No,,,,,,,,,,,Pro Open,24,1
Virpi-Sisko Knuutila,F,81.4,Finland,120,-130,-130,120,,120,82.5,B,Raw,No,,,,,,,,,,,Pro Masters 50-54,50,1
Luchian Peledutse,M,49.6,Russia,35,40,-45,40,,40,52,B,Raw,No,,,,,,,,,,,Pro Teen 13-15,13,1
Richard Davalle,M,55.2,France,120,130,-138,130,,130,56,B,Raw,No,,,,,,,,,,,Pro Open,34,1
Jean-Claude Camicas,M,55.1,France,72.5,75,-77.5,75,,75,56,B,Raw,No,,,,,,,,,,,Pro Masters 70-74,74,1
Daniil Rusu,M,62.9,Russia,50,55,-60,55,,55,67.5,B,Raw,No,,,,,,,,,,,Pro Teen 13-15,14,1
Evgeniy Ryzhikh,M,62,Russia,90,95,-97.5,95,,95,67.5,B,Raw,No,,,,,,,,,,,Pro Teen 16-17,17,1
Théo Platel,M,67.1,France,80,85,-90,85,,85,67.5,B,Raw,No,,,,,,,,,,,Pro Teen 16-17,17,2
Thoma Mouroux,M,67,France,-120,120,-130,120,,120,67.5,B,Raw,No,,,,,,,,,,,Pro Juniors 20-23,21,1
Gint Raichonok,M,66.6,Latvia,-110,-115,-115,,,,67.5,B,Raw,No,,,,,,,,,,,Pro Juniors 20-23,22,DQ
José Martin,M,66.3,France,-100,100,105,105,,105,67.5,B,Raw,No,,,,,,,,,,,Pro Masters 55-59,56,1
Mikhail Rapoport,M,74.8,Latvia,135,140,-145,140,,140,75,B,Raw,No,,,,,,,,,,,Pro Teen 18-19,18,1
Kirill Pavlinov,M,71.5,Russia,110,-117.5,-117.5,110,,110,75,B,Raw,No,,,,,,,,,,,Pro Juniors 20-23,23,1
Ramin Rzayev,M,74.7,Azerbaidjan,-185,185,-192.5,185,,185,75,B,Raw,No,,,,,,,,,,,Pro Open,37,1
Ruslan Sakhbetov,M,75,Kazakhstan,165,170,,170,,170,75,B,Raw,No,,,,,,,,,,,Pro Open,30,2
Georgi Chincharauli,M,74.3,Russia,165,-172.5,-172.5,165,,165,75,B,Raw,No,,,,,,,,,,,Pro Open,26,3
Cange Kempes,M,75,France,140,160,,160,,160,75,B,Raw,No,,,,,,,,,,,Pro Open,24,4
Pavel Kungurtsev,M,75,Russia,140,-155,-155,140,,140,75,B,Raw,No,,,,,,,,,,,Pro Masters 40-44,41,1
Vincent Eldin,M,74.3,France,130,-137.5,-140,130,,130,75,B,Raw,No,,,,,,,,,,,Pro Masters 45-49,45,1
Sergei Ljadov,M,74.5,Estonia,87.5,90,-95,90,,90,75,B,Raw,No,,,,,,,,,,,Pro Masters 60-64,61,1
Boris Laishin,M,68.3,Israel,107.5,-110,-110,107.5,,107.5,75,B,Raw,No,,,,,,,,,,,Pro Masters 65-69,67,1
Arvid Sparberg,M,70.3,Latvia,75,80,-90,80,,80,75,B,Raw,No,,,,,,,,,,,Pro Masters 70-74,72,1
Kirill Terentyev,M,80.4,Russia,97.5,102.5,107.5,107.5,,107.5,82.5,B,Raw,No,,,,,,,,,,,Pro Teen 16-17,16,1
Sergey Efremenko,M,81.6,Russia,170,180,185.5,185.5,,185.5,82.5,B,Raw,No,,,,,,,,,,,Pro Teen 18-19,18,1
Saleh Delbasteh,M,81.3,Iran,170,175,-177.5,175,,175,82.5,B,Raw,No,,,,,,,,,,,Pro Juniors 20-23,21,1
Maksim Volebob,M,80.3,Russia,165,-170,-170,165,,165,82.5,B,Raw,No,,,,,,,,,,,Pro Juniors 20-23,22,2
Valentin Rohm,M,79.6,Germany,140,-145,-145,140,,140,82.5,B,Raw,No,,,,,,,,,,,Pro Juniors 20-23,22,3
Andrey Trafimov,M,77,Russia,115,-125,-140,115,,115,82.5,B,Raw,No,,,,,,,,,,,Pro Juniors 20-23,22,4
Vladimir Yugay,M,81.6,Kazakhstan,200,210,-220,210,,210,82.5,B,Raw,No,,,,,,,,,,,Pro Open,30,1
Artem Ryabov,M,81.7,Russia,132.5,140,147.5,147.5,,147.5,82.5,B,Raw,No,,,,,,,,,,,Pro Open,32,2
Fazlollah Tayebi,M,80.3,Iran,50,70,-100,70,,70,82.5,B,Raw,No,,,,,,,,,,,Pro Masters 45-49,48,1
Sergey Klatik,M,80.7,Russia,140,147.5,-152.5,147.5,,147.5,82.5,B,Raw,No,,,,,,,,,,,Pro Masters 60-64,62,1
Anatoliy Kabanchenko,M,79.8,Russia,-115,120,-125,120,,120,82.5,B,Raw,No,,,,,,,,,,,Pro Masters 60-64,64,2
Boris Ryazanov,M,82.1,Russia,-140,,,,,,82.5,B,Raw,No,,,,,,,,,,,Pro Masters 60-64,63,DQ
Francois Lambert,M,79,Switzerland,90,-95,-100,90,,90,82.5,B,Raw,No,,,,,,,,,,,Pro Masters 70-74,71,1
Peter Herrmann,M,79,Switzerland,77.5,102.5,105,105,,105,82.5,B,Raw,No,,,,,,,,,,,Pro Masters,75,1
Vladislav Sannikov,M,77.3,Russia,75,80,82.5,82.5,,82.5,82.5,B,Raw,No,,,,,,,,,,,Pro Masters,79,3
Nail Faizov,M,76.9,Russia,60,65,70,70,,70,82.5,B,Raw,No,,,,,,,,,,,Pro Masters,76,4
Grigoriy Rubin,M,75.1,Israel,85,90,92.5,92.5,,92.5,82.5,B,Raw,No,,,,,,,,,,,Pro Masters,80,2
Pavel Molotievskiy,M,89.9,Russia,130,-135,135,135,,135,90,B,Raw,No,,,,,,,,,,,Pro Teen 18-19,19,1
Sergey Timchenko,M,87.2,Russia,-210,210,-220,210,,210,90,B,Raw,No,,,,,,,,,,,Pro Open,38,1
Kamil Gafarov,M,88.1,Azerbaidjan,210,-220,-220,210,,210,90,B,Raw,No,,,,,,,,,,,Pro Open,33,2
Sergey Balandin,M,88.4,Russia,195,-197.5,197.5,197.5,,197.5,90,B,Raw,No,,,,,,,,,,,Pro Open,33,3
Roman Karpov,M,84.9,Russia,180,190,-200,190,,190,90,B,Raw,No,,,,,,,,,,,Pro Open,38,4
Sergey Kasaraev,M,86.3,Russia,180,190,-195,190,,190,90,B,Raw,No,,,,,,,,,,,Pro Open,43,5
Evgeniy Bulakhov,M,85.9,Russia,-180,185,-190,185,,185,90,B,Raw,No,,,,,,,,,,,Pro Open,32,6
Seymur Askarov,M,88.5,Azerbaidjan,185,-195,-195,185,,185,90,B,Raw,No,,,,,,,,,,,Pro Open,33,7
Ahmadi Pour,M,88.3,Iran,170,-180,-192.5,170,,170,90,B,Raw,No,,,,,,,,,,,Pro Open,30,8
Kent Spires,M,89.6,USA,,,,,,,90,B,Raw,No,,,,,,,,,,,Pro Open,47,DQ
Sergey Kasaraev,M,86.3,Russia,180,190,-195,190,,190,90,B,Raw,No,,,,,,,,,,,Pro Masters 40-44,43,2
Arleksey Bartenev,M,85.7,Russia,200,-210,-210,200,,200,90,B,Raw,No,,,,,,,,,,,Pro Masters 40-44,42,1
Kent Spires,M,89.6,USA,220,227.5,233.5,233.5,237.5,233.5,90,B,Raw,No,,,,,,,,,,,Pro Masters 45-49,47,1
Eduard Savelyev,M,87.3,Russia,180,190,192.5,192.5,,192.5,90,B,Raw,No,,,,,,,,,,,Pro Masters 45-49,46,2
David Gibson,M,84.9,United Kingdom,140,147.5,-152.5,147.5,,147.5,90,B,Raw,No,,,,,,,,,,,Pro Masters 50-54,51,1
Asaf Akhmedov,M,83.6,Russia,130,-135,-135,130,,130,90,B,Raw,No,,,,,,,,,,,Pro Masters 50-54,52,2
Aleksandr Petrov,M,89.9,Russia,170,175,180,180,,180,90,B,Raw,No,,,,,,,,,,,Pro Masters 55-59,57,1
Sergey Bazanov,M,86.8,Russia,162.5,170,175,175,,175,90,B,Raw,No,,,,,,,,,,,Pro Masters 55-59,55,2
Evgeniy Khudoleev,M,84.7,Russia,100,107.5,-112.5,107.5,,107.5,90,B,Raw,No,,,,,,,,,,,Pro Masters 70-74,71,1
Egor Cherkasov,M,91.3,Kyrgyzstan,-160,-160,-170,,,,100,B,Raw,No,,,,,,,,,,,Pro Teen 18-19,19,DQ
Jani Virtanen,M,96.9,Finland,185,190,-195,190,,190,100,B,Raw,No,,,,,,,,,,,Pro Juniors 20-23,22,1
Ivan Lobov,M,99.6,Russia,210,-222.5,222.5,222.5,,222.5,100,B,Raw,No,,,,,,,,,,,Pro Open,32,1
Ivan Solntsev,M,99.4,Russia,192.5,-200,200,200,,200,100,B,Raw,No,,,,,,,,,,,Pro Open,43,2
Farid Gurbanov,M,97.8,Azerbaidjan,192.5,-200,-200,192.5,,192.5,100,B,Raw,No,,,,,,,,,,,Pro Open,29,3
Ivan Solntsev,M,99.4,Russia,192.5,-200,200,200,,200,100,B,Raw,No,,,,,,,,,,,Pro Masters 40-44,43,1
Nodar Tsutskiridze,M,97.5,Russia,160,165,170,170,,170,100,B,Raw,No,,,,,,,,,,,Pro Masters 40-44,41,2
David Pennington,M,99.9,United Kingdom,170,180,-187.5,180,,180,100,B,Raw,No,,,,,,,,,,,Pro Masters 50-54,51,1
Sergek Zheenaliev,M,97,Kyrgyzstan,-160,160,-165,160,,160,100,B,Raw,No,,,,,,,,,,,Pro Masters 50-54,53,2
Mikhail Egorov,M,91.9,Russia,-125,-135,145,145,,145,100,B,Raw,No,,,,,,,,,,,Pro Masters 50-54,50,3
Aslambek Abayev,M,96.1,Russia,200,210,-212.5,210,,210,100,B,Raw,No,,,,,,,,,,,Pro Masters 55-59,58,1
Valeri Matvejev,M,93.1,Estonia,135,142.5,-145,142.5,,142.5,100,B,Raw,No,,,,,,,,,,,Pro Masters 55-59,57,2
Igor Balabatko,M,92.6,Russia,100,112.5,,112.5,,112.5,100,B,Raw,No,,,,,,,,,,,Pro Masters 55-59,57,3
Peykraftar Ahmad,M,100.6,Iran,175,-180,,175,,175,110,B,Raw,No,,,,,,,,,,,Pro Juniors 20-23,23,1
Nicolae Colta,M,102,Moldova,160,175,-180,175,,175,110,B,Raw,No,,,,,,,,,,,Pro Juniors 20-23,22,2
Vasiliy Synkov,M,105.3,Russia,210,225,232.5,232.5,,232.5,110,B,Raw,No,,,,,,,,,,,Pro Open,45,1
Daniel Boss,M,108.6,Switzerland,210,220,225,225,,225,110,B,Raw,No,,,,,,,,,,,Pro Open,35,2
Igor Terentyev,M,103.6,Russia,200,207.5,212.5,212.5,,212.5,110,B,Raw,No,,,,,,,,,,,Pro Open,38,3
Anton Belov,M,106.6,Russia,205,212.5,-222.5,212.5,,212.5,110,B,Raw,No,,,,,,,,,,,Pro Open,32,4
Bakhtiyar Abdulayev,M,108,Azerbaidjan,202.5,-210,210,210,,210,110,B,Raw,No,,,,,,,,,,,Pro Open,36,5
Dmitriy Sukhov,M,106.4,Russia,-190,190,200,200,,200,110,B,Raw,No,,,,,,,,,,,Pro Open,42,6
Aleksandr Kiryanov,M,106.8,Russia,230,235,240,240,,240,110,B,Raw,No,,,,,,,,,,,Pro Masters 40-44,42,1
Alexey Kotov,M,105.8,Russia,200,210,215,215,,215,110,B,Raw,No,,,,,,,,,,,Pro Masters 40-44,43,2
Evgeniy Aleksandrov,M,107.3,Russia,190,-200,202.5,202.5,,202.5,110,B,Raw,No,,,,,,,,,,,Pro Masters 40-44,43,3
Dmitriy Sukhov,M,106.4,Russia,-190,190,200,200,,200,110,B,Raw,No,,,,,,,,,,,Pro Masters 40-44,42,4
Moosavi Valiollah,M,109.3,Iran,175,-182.5,195,195,,195,110,B,Raw,No,,,,,,,,,,,Pro Masters 40-44,44,5
Vasiliy Synkov,M,105.3,Russia,210,225,232.5,232.5,,232.5,110,B,Raw,No,,,,,,,,,,,Pro Masters 45-49,45,1
Spiroff Richard,M,106.9,USA,215,222.5,227.5,227.5,,227.5,110,B,Raw,No,,,,,,,,,,,Pro Masters 45-49,48,2
Eric Platel,M,110,France,170,185,-200,185,,185,110,B,Raw,No,,,,,,,,,,,Pro Masters 45-49,46,3
Mikhail Chusovskoy,M,108.9,Russia,155,165,-170,165,,165,110,B,Raw,No,,,,,,,,,,,Pro Masters 45-49,45,4
Dmitriy Nosov,M,103.7,Russia,-200,-200,,,,,110,B,Raw,No,,,,,,,,,,,Pro Masters 45-49,46,DQ
Evgeniy Beleckii,M,103.5,Russia,215.5,222.5,227.5,227.5,,227.5,110,B,Raw,No,,,,,,,,,,,Pro Masters 50-54,53,1
Igor Kurotchenko,M,108.6,Russia,145,155,-162.5,155,,155,110,B,Raw,No,,,,,,,,,,,Pro Masters 55-59,55,1
Sergey Dyakonov,M,102.1,Russia,155,160,-165,160,,160,110,B,Raw,No,,,,,,,,,,,Pro Masters 60-64,60,2
Vitaliy Ponomarev,M,102.9,Russia,200,-207.5,-207.5,200,,200,110,B,Raw,No,,,,,,,,,,,Pro Masters 60-64,60,1
Vaginakovich Grachik,M,106.4,Russia,160,170,-175,170,,170,110,B,Raw,No,,,,,,,,,,,Pro Masters 65-69,65,1
Roberts William,M,102.1,USA,85,,,85,,85,110,B,Raw,No,,,,,,,,,,,Pro Masters,75,1
Ivan Listopad,M,114.6,Russia,150,,,150,,150,125,B,Raw,No,,,,,,,,,,,Pro Juniors 20-23,22,1
Aleksandr Karpov,M,120.1,Russia,210,215,222.5,222.5,,222.5,125,B,Raw,No,,,,,,,,,,,Pro Open,35,1
Vadim Pronin,M,114.7,Russia,210,217.5,-222.5,217.5,,217.5,125,B,Raw,No,,,,,,,,,,,Pro Open,38,2
Victor Klimov,M,117.6,Russia,202.5,207.5,,207.5,,207.5,125,B,Raw,No,,,,,,,,,,,Pro Masters 40-44,42,1
Andrey Navarko,M,120.3,Russia,190,200,202.5,202.5,,202.5,125,B,Raw,No,,,,,,,,,,,Pro Masters 40-44,42,2
Timo Seppänen,M,112,Finland,180,200,-207.5,200,,200,125,B,Raw,No,,,,,,,,,,,Pro Masters 40-44,42,3
Anatoliy Veretennikov,M,123.3,Russia,195,-202.5,-202.5,195,,195,125,B,Raw,No,,,,,,,,,,,Pro Masters 40-44,41,4
Andrey Kaekhtin,M,120.2,Russia,190,200,210,210,,210,125,B,Raw,No,,,,,,,,,,,Pro Masters 45-49,49,1
Yakov Berman,M,118.7,Russia,190,200,207.5,207.5,,207.5,125,B,Raw,No,,,,,,,,,,,Pro Masters 45-49,45,2
Dmitriy Gorbachev,M,114.7,Russia,190,202.5,-210,202.5,,202.5,125,B,Raw,No,,,,,,,,,,,Pro Masters 45-49,47,3
Sergey Aladishev,M,124.9,Russia,160,170,177.5,177.5,,177.5,125,B,Raw,No,,,,,,,,,,,Pro Masters 45-49,46,4
Dmitriy Dorozhenko,M,110.3,Kyrgyzstan,160,170,-180,170,,170,125,B,Raw,No,,,,,,,,,,,Pro Masters 45-49,45,5
Oleg Tikhonov,M,112.1,Russia,160,170,-175,170,,170,125,B,Raw,No,,,,,,,,,,,Pro Masters 45-49,48,6
Vasiliy Chernyshenko,M,116.9,Russia,135,140,142.5,142.5,,142.5,125,B,Raw,No,,,,,,,,,,,Pro Masters 50-54,54,1
Mikhail Nikolaev,M,125,Russia,200,-210,-210,200,,200,125,B,Raw,No,,,,,,,,,,,Pro Masters 55-59,56,1
Erik Suzstay,M,132.6,Slovakia,215,225,-230,225,,225,140,B,Raw,No,,,,,,,,,,,Pro Open,45,1
Sami Salonen,M,137.8,Finland,180,190,202.5,202.5,,202.5,140,B,Raw,No,,,,,,,,,,,Pro Open,48,3
Maksim Rudenko,M,129.7,Russia,170,175,-182.5,175,,175,140,B,Raw,No,,,,,,,,,,,Pro Open,36,4
Ramig Nuruev,M,133.1,Russia,220,-227.5,-227.5,220,,220,140,B,Raw,No,,,,,,,,,,,Pro Open,33,2
Vasiliy Ostanin,M,127.5,Russia,182.5,190,195,195,,195,140,B,Raw,No,,,,,,,,,,,Pro Masters 40-44,43,1
Erik Suzstay,M,132.6,Slovakia,215,225,-230,225,,225,140,B,Raw,No,,,,,,,,,,,Pro Masters 45-49,45,1
Sami Salonen,M,137.8,Finland,180,190,202.5,202.5,,202.5,140,B,Raw,No,,,,,,,,,,,Pro Masters 45-49,48,2
Rade Savich,M,151.9,Serbia,-240,-240,-240,,,,140+,B,Raw,No,,,,,,,,,,,Pro Open,33,DQ
Oleg Barashev,M,143.6,Russia,190,192.5,197.5,197.5,,197.5,140+,B,Raw,No,,,,,,,,,,,Pro Masters 40-44,42,1
Sergey Lazarev,M,151.3,Russia,150,-160,-160,150,,150,140+,B,Raw,No,,,,,,,,,,,Pro Masters 55-59,57,1
Richard Willis,M,50.6,United Kingdom,90,95,97.5,97.5,-102.5,97.5,52,B,Raw,No,,,,,,,,,,,Pro Masters 45-49,48,1
Artemiy Miroshnikov,M,56.1,Russia,85,90,-92.5,90,,90,60,B,Raw,No,,,,,,,,,,,Pro Open,36,1
David Gibson,M,84.9,United Kingdom,140,147.5,-152.5,147.5,,147.5,90,B,Raw,No,,,,,,,,,,,Pro Open,51,9
Aysa Toksharov,M,89.6,Russia,130,135,-140,135,,135,90,B,Raw,No,,,,,,,,,,,Pro Open,37,10
Yvette Fox,F,55.8,USA,,,,,,110,56,D,Raw,No,-110,110,-115,110,,,,,,,Pro Masters 55-59,59,1
Elizaveta Chusovskaya,F,60.8,Russia,,,,,,140,67.5,D,Raw,No,125,135,140,140,,,,,,,Pro Teen 18-19,19,1
Siranush Papikyan,F,63.4,Russia,,,,,,165,67.5,D,Raw,No,165,-170,-170,165,,,,,,,Pro Juniors 20-23,23,1
Yulia Pyrsina,F,65.5,Russia,,,,,,150,67.5,D,Raw,No,140,150,-160,150,,,,,,,Pro Open,32,1
Sandrine Platel,F,74.9,France,,,,,,172.5,75,D,Raw,No,155,172.5,-182.5,172.5,,,,,,,Pro Masters 40-44,43,1
Maiju Hilander,F,71.9,Finland,,,,,,160,75,D,Raw,No,155,160,,160,,,,,,,Pro Masters 60-64,60,1
Virpi-Sisko Knuutila,F,81.4,Finland,,,,,,215,82.5,D,Raw,No,-205,215,-217.5,215,,,,,,,Pro Open,50,1
Virpi-Sisko Knuutila,F,81.4,Finland,,,,,,215,82.5,D,Raw,No,-205,215,-217.5,215,,,,,,,Pro Masters 50-54,50,1
Natalia Gadolin,F,89.4,Finland,,,,,,175,90,D,Raw,No,170,175,-180,175,,,,,,,Pro Juniors 20-23,23,1
Théo Platel,M,67.1,France,,,,,,160,67.5,D,Raw,No,140,150,160,160,,,,,,,Pro Teen 16-17,17,1
Abolfazl Sirdani,M,66.9,Iran,,,,,,180,67.5,D,Raw,No,-180,180,-190,180,,,,,,,Pro Open,30,1
Danila Garipov,M,73.8,Russia,,,,,,115,75,D,Raw,No,90,100,115,115,,,,,,,Pro Teen 13-15,12,1
Ruslan Sakhbetov,M,75,Kazakhstan,,,,,,255,75,D,Raw,No,230,255,,255,,,,,,,Pro Open,30,1
Aleksandr Shvylev,M,73.8,Russia,,,,,,242.5,75,D,Raw,No,-220,220,242.5,242.5,,,,,,,Pro Open,25,2
Petr Kucheryavyh,M,71.9,Kyrgyzstan,,,,,,240,75,D,Raw,No,240,-260,-260,240,,,,,,,Pro Open,29,3
Oleg Pavlushin,M,72.5,Russia,,,,,,170,75,D,Raw,No,165,-170,170,170,,,,,,,Pro Masters 40-44,43,1
Shekhovich Sejfo,M,70.9,Sarajevo,,,,,,225,75,D,Raw,No,210,225,-230,225,,,,,,,Pro Masters 55-59,58,1
Boris Laishin,M,68.3,Israel,,,,,,145,75,D,Raw,No,130,140,145,145,,,,,,,Pro Masters 65-69,67,1
Boris Dolmatov,M,68.9,Russia,,,,,,167.5,75,D,Raw,No,150,160,167.5,167.5,,,,,,,Pro Masters 70-74,72,1
Parvin Guliyev,M,81.7,Azerbaidjan,,,,,,255,82.5,D,Raw,No,240,255,-270,255,,,,,,,Pro Open,28,1
Roman Ahmadov,M,82.5,Azerbaidjan,,,,,,225,82.5,D,Raw,No,-210,-225,225,225,,,,,,,Pro Open,32,2
Csaba Simon,M,81.8,Hungary,,,,,,260,82.5,D,Raw,No,230,250,260,260,,,,,,,Pro Masters 45-49,49,1
Anatoliy Kabanchenko,M,79.8,Russia,,,,,,167.5,82.5,D,Raw,No,150,160,167.5,167.5,,,,,,,Pro Masters 60-64,64,1
Danila Sichko,M,86.6,Russia,,,,,,190,90,D,Raw,No,190,-200,-200,190,,,,,,,Pro Teen 18-19,18,1
Maksim Raevskiy,M,87.2,Kyrgyzstan,,,,,,220,90,D,Raw,No,200,220,,220,,,,,,,Pro Juniors 20-23,22,1
Kiamil Dursunov,M,89.9,Kyrgyzstan,,,,,,260,90,D,Raw,No,220,250,260,260,,,,,,,Pro Open,27,1
Alexandr Domanskiy,M,88.2,Russia,,,,,,227.5,90,D,Raw,No,190,215,227.5,227.5,,,,,,,Pro Open,32,2
Valeriy Poryadin,M,89,Russia,,,,,,225,90,D,Raw,No,200,225,,225,,,,,,,Pro Masters 50-54,51,1
Evgeniy Khudoleev,M,84.7,Russia,,,,,,180,90,D,Raw,No,170,180,-190,180,,,,,,,Pro Masters 70-74,71,1
Samim Mirulloev,M,99.8,Tajikistan,,,,,,230,100,D,Raw,No,190,210,230,230,,,,,,,Pro Juniors 20-23,22,1
Jordan Gusto,M,97.7,France,,,,,,325,100,D,Raw,No,-320,-325,325,325,,,,,,,Pro Open,25,1
Grégoire Ho Bing Huang,M,95,France,,,,,,320,100,D,Raw,No,320,-332.5,-332.5,320,,,,,,,Pro Open,35,2
Aleksandr Belimov,M,100,Kyrgyzstan,,,,,,270,100,D,Raw,No,260,270,-275,270,,,,,,,Pro Open,29,3
Oleg Altunin,M,94.7,Kyrgyzstan,,,,,,250,100,D,Raw,No,230,250,-257.5,250,,,,,,,Pro Open,30,4
Petr Zolotuev,M,95.5,Russia,,,,,,250,100,D,Raw,No,-220,-240,250,250,,,,,,,Pro Open,25,5
Rahmatollah Bashiri,M,96.7,Iran,,,,,,,100,D,Raw,No,-320,,,,,,,,,,Pro Open,37,DQ
Vadim Zaytsev,M,91.1,Russia,,,,,,250,100,D,Raw,No,250,-265,,250,,,,,,,Pro Masters 55-59,57,1
Petr Battakhov,M,96.1,Russia,,,,,,150,100,D,Raw,No,150,-212.5,-212.5,150,,,,,,,Pro Masters 65-69,65,1
Fahim Kamyar,M,107,Iran,,,,,,260,110,D,Raw,No,250,260,-280,260,,,,,,,Pro Teen 16-17,18,1
Mikhail Shirokov,M,109.9,Russia,,,,,,297.5,110,D,Raw,No,290,297.5,-300,297.5,,,,,,,Pro Teen 18-19,18,1
Gerard Frederic,M,108.7,France,,,,,,340,110,D,Raw,No,-340,340,,340,,,,,,,Pro Open,35,1
Naël Cetout,M,106.7,France,,,,,,290,110,D,Raw,No,290,-300,-305,290,,,,,,,Pro Open,27,2
Mikhail Koptev,M,107,Russia,,,,,,270,110,D,Raw,No,270,-300,-300,270,,,,,,,Pro Open,26,3
Marián Milý,M,105,Slovakia,,,,,,180,110,D,Raw,No,180,-200,-200,180,,,,,,,Pro Masters 40-44,44,1
Ahti Korkea,M,100.9,Finland,,,,,,235,110,D,Raw,No,220,235,,235,,,,,,,Pro Masters 45-49,48,1
Oleg Kamenev,M,102.4,Kyrgyzstan,,,,,,160,110,D,Raw,No,160,-175,-175,160,,,,,,,Pro Masters 60-64,64,1
Roberts William,M,102.1,USA,,,,,,130,110,D,Raw,No,130,,,130,,,,,,,Pro Masters,75,1
Jacub Horchichiak,M,123,Slovakia,,,,,,260,125,D,Raw,No,-260,-260,260,260,-267.5,,,,,,Pro Teen 18-19,19,1
Khayal Iskandarov,M,118.6,Azerbaidjan,,,,,,300,125,D,Raw,No,280,300,-310,300,,,,,,,Pro Juniors 20-23,22,1
Jean-Luc Leon,M,118.3,France,,,,,,322.5,125,D,Raw,No,300,322.5,-330,322.5,,,,,,,Pro Open,28,1
Victor Klimov,M,117.6,Russia,,,,,,302.5,125,D,Raw,No,-300,302.5,-307.5,302.5,,,,,,,Pro Open,42,2
David Berthet,M,121.8,France,,,,,,280,125,D,Raw,No,-280,280,-315,280,,,,,,,Pro Open,38,3
Bakhtiyar Guliyev,M,117.8,Russia,,,,,,335,125,D,Raw,No,-335,335,-360.5,335,,,,,,,Pro Masters 40-44,42,1
Victor Klimov,M,117.6,Russia,,,,,,302.5,125,D,Raw,No,-300,302.5,-307.5,302.5,,,,,,,Pro Masters 40-44,42,2
Timo Seppänen,M,112,Finland,,,,,,290,125,D,Raw,No,-280,-280,290,290,,,,,,,Pro Masters 40-44,42,3
Valeriy Bezborodov,M,115.7,Russia,,,,,,282.5,125,D,Raw,No,252.5,270,282.5,282.5,,,,,,,Pro Masters 40-44,41,4
Aleksandr Ivanov,M,122.5,Russia,,,,,,255,125,D,Raw,No,210,235,255,255,,,,,,,Pro Masters 45-49,49,1
Vitaliy Kasyanenko,M,124.6,Kyrgyzstan,,,,,,,125,D,Raw,No,-210,,,,,,,,,,Pro Masters 45-49,46,DQ
Aleksey Isakov,M,120.2,Russia,,,,,,,125,D,Raw,No,-240,-240,-240,,,,,,,,Pro Masters 50-54,54,DQ
Andrey Shishkin,M,113.2,Russia,,,,,,245,125,D,Raw,No,175,-240,245,245,,,,,,,Pro Masters 55-59,55,1
Mirjavad Jalali,M,132.4,Iran,,,,,,290,140,D,Raw,No,260,290,-300,290,,,,,,,Pro Teen 18-19,19,1
Hristo Muskov,M,125.6,Bulgaria,,,,,,335,140,D,Raw,No,-335,335,-355,335,,,,,,,Pro Open,32,1
Raghavendra Hondadakeri,M,128.7,India,,,,,,315,140,D,Raw,No,280,305,315,315,,,,,,,Pro Open,37,2
Maksim Rudenko,M,129.7,Russia,,,,,,260,140,D,Raw,No,250,260,-270,260,,,,,,,Pro Open,36,3
Vasiliy Ostanin,M,127.5,Russia,,,,,,240,140,D,Raw,No,240,-260,,240,,,,,,,Pro Masters 40-44,43,1
Nemat Jalali,M,150.7,Iran,,,,,,350,140+,D,Raw,No,350,-406,-406,350,,,,,,,Pro Open,32,1
Kostas Telidis,M,75,Russia,,,,,,265,75,D,Single-ply,No,240,265,-275.5,265,,,,,,,Pro Open,28,1
Konstantin Semenov,M,75,Russia,,,,,,205,75,D,Single-ply,No,175,190,205,205,,,,,,,Pro Open,53,2
Nikita Manuilov,M,74,Germany,,,,,,150,75,D,Single-ply,No,150,,,150,,,,,,,Pro Open,24,3
Konstantin Semenov,M,75,Russia,,,,,,205,75,D,Single-ply,No,175,190,205,205,,,,,,,Pro Masters 50-54,53,1
Otgonbaatar Batbold,M,82.2,Mongolia,,,,,,,82.5,D,Single-ply,No,-240,,,,,,,,,,Pro Juniors 20-23,21,DQ
Stanislav Bulgarevich,M,77.6,Russia,,,,,,125,82.5,D,Single-ply,No,-100,100,125,125,,,,,,,Pro Open,31,1
Sergey Kandaurov,M,82.4,Russia,,,,,,235,82.5,D,Single-ply,No,215,225,235,235,,,,,,,Pro Masters 40-44,43,1
Vladislav Sannikov,M,77.3,Russia,,,,,,120,82.5,D,Single-ply,No,112.5,120,-127.5,120,,,,,,,Pro Masters,79,1
Elshan Aghaev,M,89.8,Azerbaidzhan,,,,,,265,90,D,Single-ply,No,252.5,265,-285,265,,,,,,,Pro Open,34,1
Valeriy Poryadin,M,89,Russia,,,,,,230,90,D,Single-ply,No,200,230,,230,,,,,,,Pro Open,51,2
Alexandr Domanskiy,M,88.2,Russia,,,,,,215,90,D,Single-ply,No,180,205,215,215,,,,,,,Pro Open,32,3
Alexandr Matveev,M,88.1,Germany,,,,,,282.5,90,D,Single-ply,No,-282.5,-282.5,282.5,282.5,,,,,,,Pro Masters 40-44,43,1
Rufat Agaev,M,90,Azerbaidzhan,,,,,,,90,D,Single-ply,No,-260,-265,-285,,,,,,,,Pro Masters 40-44,42,DQ
Valeriy Poryadin,M,89,Russia,,,,,,230,90,D,Single-ply,No,200,230,,230,,,,,,,Pro Masters 50-54,51,1
Mikhail Rostovtsev,M,90,Russia,,,,,,235,90,D,Single-ply,No,215,225,235,235,,,,,,,Pro Masters 55-59,59,1
Ernő Eck,M,96.8,Hungary,,,,,,230,100,D,Single-ply,No,210,220,230,230,235,,,,,,Pro Juniors 20-23,23,1
Rahmatollah Bashiri,M,96.7,Iran,,,,,,,100,D,Single-ply,No,-320,,,,,,,,,,Pro Open,37,DQ
Ilya Luchnikov,M,108.9,Russia,,,,,,330,110,D,Single-ply,No,310,330,-340,330,,,,,,,Pro Open,43,1
Dmitriy Yuriev,M,103.6,Russia,,,,,,300,110,D,Single-ply,No,260,285,300,300,,,,,,,Pro Open,25,2
Ilya Luchnikov,M,108.9,Russia,,,,,,330,110,D,Single-ply,No,310,330,-340,330,,,,,,,Pro Masters 40-44,43,1
Arbi Israilov,M,108,Russia,,,,,,205,110,D,Single-ply,No,190,205,,205,,,,,,,Pro Masters 45-49,49,1
Roberts William,M,102.1,USA,,,,,,130,110,D,Single-ply,No,130,,,130,,,,,,,Pro Masters,75,1
Mostafa Rezai,M,117.1,Iran,,,,,,320,125,D,Single-ply,No,-300,300,320,320,,,,,,,Pro Open,33,1
Oleg Pivovarov,M,111,Russia,,,,,,247.5,125,D,Single-ply,No,210,232.5,247.5,247.5,,,,,,,Pro Masters 50-54,54,1
Peiman Maheripourehir,M,144.6,Iran,,,,,,405,140+,D,Single-ply,No,385,400,405,405,-410,,,,,,Pro Open,30,1
Yuliya Pilipchatina,F,73.1,Russia,,,,,,200,75,D,Multi-ply,No,180,190,200,200,,,,,,,Pro Open,33,1
Valeriy Stoyanov,M,73.7,Russia,,,,,,190,75,D,Multi-ply,No,150,170,190,190,,,,,,,Pro Masters 55-59,60,1
Grigoriy Rubin,M,73.9,Israel,,,,,,160,75,D,Multi-ply,No,150,155,160,160,,,,,,,Pro Masters,80,1
Otgonbaatar Batbold,M,82.2,Mongolia,,,,,,245,82.5,D,Multi-ply,No,230,245,-270,245,,,,,,,Pro Juniors 20-23,21,1
Farshad Movahedazar,M,82.5,Iran,,,,,,200,82.5,D,Multi-ply,No,160,175,200,200,,,,,,,Pro Open,25,1
Csaba Simon,M,81.8,Hungary,,,,,,260,82.5,D,Multi-ply,No,230,250,260,260,,,,,,,Pro Masters 45-49,49,1
Didier Theux,M,82.3,France,,,,,,,82.5,D,Multi-ply,No,-220,-220,,,,,,,,,Pro Masters 55-59,59,DQ
Vladimir Zhabin,M,89.2,Russia,,,,,,285,90,D,Multi-ply,No,285,-300,-300,285,,,,,,,Pro Open,37,1
László Eck,M,87.5,Hungary,,,,,,235,90,D,Multi-ply,No,215,230,235,235,,,,,,,Pro Open,39,2
Nijat Huseynov,M,89.8,Azerbaidjan,,,,,,232.5,90,D,Multi-ply,No,180,-200,232.5,232.5,,,,,,,Pro Open,28,3
Valeriy Poryadin,M,89,Russia,,,,,,230,90,D,Multi-ply,No,200,230,,230,,,,,,,Pro Open,51,4
Valeriy Poryadin,M,89,Russia,,,,,,230,90,D,Multi-ply,No,200,230,,230,,,,,,,Pro Masters 50-54,51,1
Ramil Ahmadov,M,97.4,Azerbaidzhan,,,,,,320,100,D,Multi-ply,No,300,310,320,320,,,,,,,Pro Open,29,1
Aleksandr Nosov,M,98.3,Russia,,,,,,290,100,D,Multi-ply,No,277.5,290,-302.5,290,,,,,,,Pro Open,32,2
Azamathulla Mohammed,M,95.9,India,,,,,,270,100,D,Multi-ply,No,250,260,270,270,,,,,,,Pro Open,40,3
Mehdi Ghazizadehkhosroshahi,M,109.3,Iran,,,,,,270,110,D,Multi-ply,No,270,-310,,270,,,,,,,Pro Open,32,1
Roberts William,M,102.1,USA,,,,,,130,110,D,Multi-ply,No,130,,,130,,,,,,,Pro Masters,75,1
Tohid Karimpourbakhshkandi,M,121.1,Iran,,,,,,310,125,D,Multi-ply,No,-270,270,310,310,,,,,,,Pro Open,35,1
Ondrej Hudák,M,116.3,Slovakia,,,,,,305,125,D,Multi-ply,No,270,290,305,305,,,,,,,Pro Masters 40-44,42,1
Ján Šiska,M,125.8,Slovakia,,,,,,270,140,D,Multi-ply,No,210,250,270,270,,,,,,,Pro Open,37,1
Karol Repiský,M,130.3,Slovakia,,,,,,250,140,D,Multi-ply,No,-230,230,250,250,-260,,,,,,Pro Masters 50-54,53,1
Ehsan Shirin,M,166.4,Iran,,,,,,285,140+,D,Multi-ply,No,260,-285,285,285,,,,,,,Pro Open,30,1
Rafaat Armin,M,146.4,Iran,,,,,,200,140+,D,Multi-ply,No,-200,-200,200,200,,,,,,,Pro Open,32,2
Debbie Schwartz-Damminga,F,74.1,USA,110.5,-117.5,-117.5,110.5,,353,75,SBD,Multi-ply,No,-210,-210,-210,,,227.5,-242.5,242.5,242.5,,Pro Masters 55-59,56,1
Tara O'Shaunessy,F,80.7,Ireland,,110,,110,,305,82.5,SBD,Multi-ply,No,70,,,70,,125,,,125,,Pro Masters 40-44,42,1
Grigoriy Rubin,M,73.6,Israel,105,-110,110,110,,422.5,75,SBD,Multi-ply,No,157.5,162.5,,162.5,,142.5,-150,150,150,,Pro Masters,80,1
Musayev Rustam,M,75.1,Azerbaidzhan,80,,-90,80,,535,82.5,SBD,Multi-ply,No,210,230,-245,230,,225,,,225,,Pro Open,39,1
Morteza Sadi,M,80.2,Iran,100,115,-122.5,115,,495,82.5,SBD,Multi-ply,No,150,180,200,200,,-160,-180,180,180,,Pro Open,26,2
Didier Theux,M,82,France,190,-210,,190,,570,82.5,SBD,Multi-ply,No,50,150,-250,150,,230,-250,-250,230,,Pro Masters 55-59,59,1
Elshan Aghaev,M,89.8,Azerbaidzhan,170,,,170,,612.5,90,SBD,Multi-ply,No,150,,,150,,250,270,292.5,292.5,,Pro Open,34,1
Kuderick Scott,M,89.9,USA,-175,,,,,,90,SBD,Multi-ply,No,,,,,,-300,-300,-300,,,Pro Open,43,DQ
Kai-Oskari Lehtinen,M,100,Finland,280,-302.5,,280,,960,100,SBD,Multi-ply,No,280,-300,,280,,-400,400,,400,,Pro Open,28,1
Shane Brodie,M,97.9,Ireland,170,175,180,180,,805,100,SBD,Multi-ply,No,240,260,-275,260,,-350,350,365,365,,Pro Masters 40-44,44,1
Dmitriy Chertushkin,M,91.9,Russia,,,,,,,100,SBD,Multi-ply,No,,,,,,-200,,,,,Pro Masters 50-54,52,DQ
Jafari Shaban,M,109.9,Iran,175,187.5,,187.5,,657.5,110,SBD,Multi-ply,No,220,250,-265,250,,-220,-220,220,220,,Pro Open,32,1
Mikko Matikainen,M,106.8,Finland,,,,,,,110,SBD,Multi-ply,No,,,,,,-300,-340,,,,Pro Open,27,DQ
Aleksei Kozlov,M,105.2,Russia,160,,,160,,750,110,SBD,Multi-ply,No,220,240,,240,,320,350,,350,,Pro Masters 45-49,47,1
Joseph Vayda,M,106.1,USA,,,,,,,110,SBD,Multi-ply,No,,,,,,-305,-305,-305,,,Pro Masters 45-49,47,DQ
Shahin Eyvazov,M,117.6,Azerbaidzhan,,,,,,,125,SBD,Multi-ply,No,,,,,,-300,,,,,Pro Open,35,DQ
Rufat Agaev,M,122.1,AZ. Ganca,270,280,,280,,1110,125,SBD,Multi-ply,No,340,360,,360,,-460,470,-502.5,470,,Pro Masters 40-44,42,1
Ondrej Hudák,M,115.3,Slovakia,285,-300,-300,285,,915,125,SBD,Multi-ply,No,280,-300,-300,280,,350,-380,,350,,Pro Masters 40-44,42,2
Anatoliy Prodan,M,116.5,Russia,170,-195,200,200,,740,125,SBD,Multi-ply,No,240,265,,265,,250,-275,275,275,,Pro Masters 55-59,56,1
Peter Sakala,M,129.4,Latvia,,,,,,,140,SBD,Multi-ply,No,,,,,,-400,-400,,,,Pro Juniors 20-23,21,DQ
Bahman Halimimamghani,M,134,Iran,320,345,-360,345,,1080,140,SBD,Multi-ply,No,,315,-335,315,,400,420,-470,420,,Pro Open,33,1
Andrew Cairney,M,129.3,United Kingdom,,,,,,,140,SBD,Multi-ply,No,,,,,,-370,,,,,Pro Open,38,DQ
Gregg Damminga,M,131.1,USA,,,,,,,140,SBD,Multi-ply,No,,,,,,-325,-325,-325,,,Pro Masters 55-59,55,DQ
Rafaat Armin,M,146,Iran,-175,,,,,,140+,SBD,Multi-ply,No,,,,,,-250,-250,-250,,,Pro Open,32,DQ
Mariya Kalanina,F,70.9,Russia,,115,120,120,,510,75,SBD,Single-ply,No,180,190,200,200,,190,-200,-200,190,,Pro Open,35,2
Joanne Connoly,F,81.7,United Kingdom,-122.5,127.5,-130,127.5,,545,82.5,SBD,Single-ply,No,150,170,182.5,182.5,-191,220,-235,235,235,,Pro Open,30,2
Stanislav Trubin,M,49.9,Russia,105,117.5,122.5,122.5,,475,52,SBD,Single-ply,No,140,155,162.5,162.5,,-175,180,190,190,,Pro Juniors 20-23,22,1
Pavel Kolpakov,M,66,Russia,120,125,-130,125,,515,67.5,SBD,Single-ply,No,170,180,190,190,,200,-215,-220,200,,Pro Teen 18-19,19,1
Vladimir Shatalov,M,74.9,Russia,150,160,170,170,,710,75,SBD,Single-ply,No,240,-260,260,260,,-260,260,280,280,,Pro Teen 18-19,19,1
Oleg Solonenko,M,74.6,Russia,150,,,150,,600,75,SBD,Single-ply,No,220,230,240,240,,200,-210,210,210,,Pro Open,47,1
Kostas Telidis,M,75,Russia,-227.5,-227.5,-227.5,,,,75,SBD,Single-ply,No,,,,,,275,-290,-300,275,,Pro Open,28,DQ
Oleg Solonenko,M,74.6,Russia,150,,,150,,600,75,SBD,Single-ply,No,220,230,240,240,,200,-210,210,210,,Pro Masters 45-49,47,1
Erkhembayar Erdenetuya,M,77.9,Mongolia,120,,,120,,340,82.5,SBD,Single-ply,No,-200,-200,-200,,,200,210,220,220,,Pro Juniors 20-23,21,1
Oleg Son,M,82.3,Russia,175,-185,-185,175,,740,82.5,SBD,Single-ply,No,240,260,-282.5,260,,-305,-305,305,305,,Pro Open,26,1
Carlos Pérez #1,M,89.4,Spain,185,195,-205,195,,760,90,SBD,Single-ply,No,245,255,260,260,,-290,305,-315,305,,Pro Open,33,1
Artem Tyutikov,M,89.3,Russia,175,-182.5,182.5,182.5,,732.5,90,SBD,Single-ply,No,235,245,-275,245,,-280,295,305,305,,Pro Open,35,2
Mikhail Rostovtsev,M,88.9,Russia,165,175,-185,175,,670,90,SBD,Single-ply,No,210,220,230,230,,255,265,-275,265,,Pro Masters 55-59,59,1
Mikhail Mironov,M,94.7,Russia,190,200,-210,200,,825,100,SBD,Single-ply,No,300,-320,,300,,315,325,,325,,Pro Open,23,1
Timur Akhmetov,M,99.3,Russia,-190,190,200,200,,750,100,SBD,Single-ply,No,250,260,270,270,,260,270,280,280,,Pro Open,31,2
Kiamil Dursunov,M,90.2,Kyrgyzstan,150,165,170,170,,660,100,SBD,Single-ply,No,220,240,255,255,,200,220,235,235,,Pro Open,27,3
Mikhail Shirokov,M,110,Russia,230,,,230,,865,110,SBD,Single-ply,No,302.5,312.5,-317.5,312.5,,315,322.5,,322.5,,Pro Teen 18-19,18,1
Aleksandr Muratkin,M,108.3,Russia,235,-240,240,240,,900,110,SBD,Single-ply,No,325,345,-356,345,,300,315,-325,315,,Pro Open,32,1
Ravil Amirov,M,101.2,Russia,195,205,-210,205,,680,110,SBD,Single-ply,No,260,-275,280,280,,195,-300,-310,195,,Pro Open,38,2
Arbi Israilov,M,109.6,Russia,110,120,-130,120,,515,110,SBD,Single-ply,No,190,,,190,,190,205,,205,,Pro Masters 45-49,49,1
Oleg Pivovarov,M,109.3,Russia,207.5,215,-222.5,215,,705,110,SBD,Single-ply,No,200,230,245,245,,220,240,245,245,,Pro Masters 50-54,54,1
Roberts William,M,103,USA,85,,,85,,290,110,SBD,Single-ply,No,130,,,130,,75,,,75,,Pro Masters,75,1
Benjamin Karaosman,M,121.1,United Kingdom,160,,,160,,495,125,SBD,Single-ply,No,70,,,70,,265,,,265,,Pro Juniors 20-23,21,1
Peyman Nezhadi,M,123.2,Iran,235,-245,-245,235,,865,125,SBD,Single-ply,No,285,295,-310,295,,-335,335,-350,335,,Pro Open,29,1
Artem Burim,M,122.8,Russia,200,-210,-210,200,,770,125,SBD,Single-ply,No,280,-290,,280,,280,290,-300,290,,Pro Open,37,2
Joel Kennedy,M,110.5,USA,195,205,-227.5,205,,740,125,SBD,Single-ply,No,-235,235,-245,235,,-300,300,-312.5,300,,Pro Open,33,3
Pezhman Davoodi,M,119.2,Iran,155,180,195,195,,735,125,SBD,Single-ply,No,250,275,-282.5,275,,250,265,,265,,Pro Open,31,4
Evgeny Bugrov,M,113.5,Russia,200,210,-220,210,,735,125,SBD,Single-ply,No,230,250,-260,250,,250,265,275,275,,Pro Masters 40-44,41,1
Hervé Gainche,M,119,France,170,180,,180,,625,125,SBD,Single-ply,No,180,200,,200,,245,,,245,,Pro Masters 45-49,46,1
Nikolay Emtsev,M,112.9,Russia,180,190,197.5,197.5,,757.5,125,SBD,Single-ply,No,260,270,,270,,270,-290,290,290,,Pro Masters 50-54,50,1
Julie Krastenicsová,F,52,Czech,-50,52.5,55.5,55.5,57.5,210.5,52,SBD,Raw,No,-80,80,-87.5,80,,65,70,75,75,,Pro Teen 16-17,17,1
Yuliya Filant,F,55.1,Russia,37.5,-42.5,42.5,42.5,,227.5,56,SBD,Raw,No,95,-107.5,107.5,107.5,,72.5,77.5,-82.5,77.5,,Pro Masters 50-54,50,1
Yvette Fox,F,54.2,USA,45,50,52.5,52.5,,240,56,SBD,Raw,No,107.5,117.5,-125,117.5,,62.5,-70,70,70,,Pro Masters 55-59,59,1
Zarifa Huseynova,F,60,Azerbaidzhan,65,75,-90,75,,417.5,60,SBD,Raw,No,173,190,-200,190,,145,152.5,-160,152.5,,Pro Juniors 20-23,22,1
Sevil Hasanova,F,65.9,Azerbaidzhan,80,85,-90,85,,377.5,67.5,SBD,Raw,No,160,-170,-170,160,,-122.5,125,132.5,132.5,,Pro Open,29,1
Irina Lavrukhina,F,62.4,Russia,-65,70,-75,70,,335,67.5,SBD,Raw,No,120,-130,130,130,,120,130,135,135,,Pro Open,26,2
Sandrine Platel,F,74.6,France,75,85,90,90,,400,75,SBD,Raw,No,150,160,170,170,,130,-140,140,140,,Pro Masters 40-44,43,1
Elmir Tarverdiyev,M,60,Azerbaidzhan,100,-110,,100,,495,60,SBD,Raw,No,220,-240,-240,220,,175,-195,-195,175,,Pro Open,34,1
Evgeniy Ryzhikh,M,63.1,Russia,85,90,95,95,,280,67.5,SBD,Raw,No,80,100,105,105,,-75,80,-85,80,,Pro Teen 16-17,17,1
Rustam Medzhidov,M,67.5,Russia,117.5,120,125,125,,445,67.5,SBD,Raw,No,160,-170,180,180,,140,-150,-152.5,140,,Pro Juniors 20-23,23,1
Ernest Ruzin,M,61.2,Israel,70,75,-77.5,75,,367.5,67.5,SBD,Raw,No,155,-167.5,167.5,167.5,,-122.5,-122.5,125,125,,Pro Masters,80,1
Arlan Ossipov,M,72,Kazakhstan,75,80,82.5,82.5,,367.5,75,SBD,Raw,No,150,160,170,170,,100,110,115,115,,Pro Teen 16-17,18,1
Batyrkhan Yermagambetov,M,72.2,Kazakhstan,70,75,-80,75,,385,75,SBD,Raw,No,165,185,-200,185,,110,120,125,125,,Pro Teen 18-19,18,1
Maksim Talagaev,M,73.2,Russia,115,-125,125,125,,545,75,SBD,Raw,No,210,220,230,230,,180,-190,190,190,,Pro Juniors 20-23,20,1
Rovshan Khalilov,M,74.7,Azerbaidzhan,150,162.5,-170,162.5,,632.5,75,SBD,Raw,No,230,260,-280,260,,-205,210,-220,210,,Pro Open,27,1
Mushfig Aliyev,M,73.8,Azerbaidzhan,150,-160,,150,,380,75,SBD,Raw,No,-150,-150,-150,,,230,-240,-240,230,,Pro Open,40,2
Mani Khosravi,M,74.6,Iran,105,115,-120,115,,527.5,75,SBD,Raw,No,206,220,230,230,237.5,150,170,182.5,182.5,,Pro Masters 55-59,57,1
Shekhovich Sejfo,M,72.2,Sarajevo,-100,,,,,,75,SBD,Raw,No,-210,,,,,-160,-160,-160,,,Pro Masters 55-59,58,DQ
Artur Arutyunyan,M,75.8,Russia,90,95,-100,95,,392.5,82.5,SBD,Raw,No,140,150,155,155,,125,135,142.5,142.5,,Pro Teen 16-17,17,1
Viktor Ryzhikh,M,79.7,Russia,130,140,150,150,,630,82.5,SBD,Raw,No,250,265,-280,265,,200,-215,215,215,,Pro Open,31,1
Dmitriy Kheruvimov,M,82.5,Russia,105,112.5,-120,112.5,,522.5,82.5,SBD,Raw,No,215,225,-232.5,225,,167.5,175,185,185,,Pro Open,26,2
O'Sullivan David,M,89.7,United Kingdom,150,-165,165,165,,705,90,SBD,Raw,No,300,-315,-315,300,,215,230,240,240,,Pro Open,26,1
Santos Dos,M,89.2,France,180,-190,190,190,,640,90,SBD,Raw,No,250,-270,270,270,,-180,-180,180,180,,Pro Open,24,2
Vasilij Kuzovatov,M,90,Russia,110,115,120,120,,580,90,SBD,Raw,No,200,220,240,240,,-220,-220,220,220,,Pro Masters 50-54,54,1
Dmitriy Beglov,M,98.3,Russia,150,155,-160,155,,615,100,SBD,Raw,No,-235,235,-245,235,,205,215,225,225,,Pro Teen 16-17,17,1
Vasiliy Bondarev,M,99.1,Russia,190,-200,-200,190,,410,100,SBD,Raw,No,-272.5,-272.5,-272.5,,,210,220,-225,220,,Pro Juniors 20-23,23,1
Nikita Kolpikov,M,99.4,Russia,170,180,-185,180,,395,100,SBD,Raw,No,-260,-270,-270,,,-215,215,-230,215,,Pro Juniors 20-23,23,2
Jordan Gusto,M,97.3,France,160,-170,170,170,,730,100,SBD,Raw,No,-300,310,320,320,,240,-260,,240,,Pro Open,25,1
Grégoire Ho Bing Huang,M,97.5,France,145,-150,150,150,,712.5,100,SBD,Raw,No,300,-320,322.5,322.5,,240,-260,,240,,Pro Open,35,2
Namig Mehdiyev,M,98.7,Azerbaidzhan,160,170,177.5,177.5,,712.5,100,SBD,Raw,No,280,295,-305,295,,240,,,240,,Pro Open,32,3
Andrey Selivanov,M,96.9,Russia,172.5,180,185,185,,690,100,SBD,Raw,No,255,270,280,280,,215,-225,225,225,,Pro Open,26,4
Dmitriy Grinev,M,94,Russia,150,165,170,170,,665,100,SBD,Raw,No,220,270,-290,270,,210,225,-235,225,,Pro Masters 40-44,40,1
Vyacheslav Myasnikov,M,99.3,Russia,140,147.5,150,150,,640,100,SBD,Raw,No,220,240,250,250,,220,230,240,240,,Pro Masters 45-49,47,1
Alexandr Tsvetkov,M,97.3,Russia,110,115,120,120,,545,100,SBD,Raw,No,215,230,,230,,190,195,,195,,Pro Masters 60-64,60,1
Evgeniy Loktev,M,99.7,Russia,120,127.5,-135,127.5,,520,100,SBD,Raw,No,115,225,232.5,232.5,,-150,150,160,160,,Pro Masters 60-64,60,2
Ilya Linnikov,M,109.9,Russia,220,230,,230,,835,110,SBD,Raw,No,305,325,-337.5,325,,250,270,280,280,,Pro Open,36,1
Ivan Zakharov,M,104.5,Russia,180,-187.5,-187.5,180,,820,110,SBD,Raw,No,330,345,-350,345,,-295,295,-310,295,,Pro Open,27,2
Vladimir Batig,M,101.6,Russia,-210,-210,,,,,110,SBD,Raw,No,,,,,,230,240,-250,240,,Pro Open,29,DQ
Gerard Frederic,M,108.7,France,-170,,,,,,110,SBD,Raw,No,,,,,,-300,-300,-300,,,Pro Open,35,DQ
Dmitriy Antonov,M,105.5,Russia,150,160,-165,160,,710,110,SBD,Raw,No,255,275,290,290,,245,260,-265,260,,Pro Masters 40-44,42,1
Michael Goeck,M,104.8,Germany,160,-165,-165,160,,560,110,SBD,Raw,No,180,200,210,210,,-190,190,,190,,Pro Masters 45-49,49,1
Vladimir Minin,M,101.7,Russia,130,140,,140,,640,110,SBD,Raw,No,240,,,240,,240,260,-275,260,,Pro Masters 50-54,50,1
Roberts William,M,104.1,USA,85,,,85,,272.5,110,SBD,Raw,No,-130,130,,130,,-57.5,-57.5,57.5,57.5,,Pro Masters,75,1
Razim Huseynov,M,125,Azerbaidzhan,235,245,252.5,252.5,,922.5,125,SBD,Raw,No,300,315,327.5,327.5,,-335,335,342.5,342.5,,Pro Open,42,1
Alexandr Zaytsev,M,121.5,Russia,210,225,-230,225,,865,125,SBD,Raw,No,300,320,-340,320,,300,320,-340,320,,Pro Open,37,2
Jean-Luc Leon,M,119.6,France,180,190,-200,190,,720,125,SBD,Raw,No,-300,300,-325,300,,220,230,-235,230,,Pro Open,28,3
Vüsal Mardanov,M,116.6,Azerbaidzhan,210,-220,-220,210,,490,125,SBD,Raw,No,-365,-365,-365,,,280,-300,-300,280,,Pro Open,32,4
David Berthet,M,121.9,France,-165,,,,,,125,SBD,Raw,No,,,,,,-270,-270,-270,,,Pro Open,38,DQ
Gena Svetlov,M,122.7,Russia,150,165,175,175,,505,125,SBD,Raw,No,150,175,190,190,,140,-155,-155,140,,Pro Masters 40-44,41,1
Andrey Kaekhtin,M,119.1,Russia,-200,,,,,,125,SBD,Raw,No,-292.5,,,,,-250,-250,-250,,,Pro Masters 45-49,49,DQ
Alexandr Burlakov,M,114.4,Russia,150,160,165,165,,545,125,SBD,Raw,No,170,180,195,195,,170,175,185,185,,Pro Masters 55-59,58,1
Ramig Nuruev,M,132.4,Russia,210,220,225,225,,815,140,SBD,Raw,No,300,310,-320,310,,280,-290,,280,,Pro Open,33,1
Yuriy Romanov,M,126.6,Russia,195,205,215,215,,780,140,SBD,Raw,No,280,300,-305,300,,245,260,265,265,,Pro Open,34,2
Michael Sommer,M,130.6,Germany,180,187.5,195,195,,720,140,SBD,Raw,No,260,,,260,,260,265,,265,,Pro Open,29,3
Michael Schrott,M,131.2,Germany,190,200,-205,200,,500,140,SBD,Raw,No,-300,-300,,,,300,-310,,300,,Pro Masters 45-49,45,1
Aki Tiainen,M,132.1,Finland,-140,,,,,,140,SBD,Raw,No,-220,,,,,-220,-220,-220,,,Pro Masters 45-49,46,DQ
Dmitriy Smirnov,M,141.4,Russia,165,170,175,175,,770,140+,SBD,Raw,No,280,292.5,302.5,302.5,,,290,292.5,292.5,,Pro Open,39,1
Vanessa Torres,F,55.8,Finland,90,100.5,-105,100.5,,423,56,SBD,Wraps,No,140,155,172.5,172.5,-175.5,-150,150,-162.5,150,,Pro Open,31,1
Lina O'Sullivan,F,58.2,Ireland,80,85,87.5,87.5,,460,60,SBD,Wraps,No,-167.5,175,182.5,182.5,,177.5,185,190,190,,Pro Open,37,1
Ekaterina Pogula,F,66.5,Russia,35,37.5,-40,37.5,,195,67.5,SBD,Wraps,No,70,77.5,80,80,,-70,70,77.5,77.5,,Pro Masters 45-49,45,1
Viktoriya Ablaeva,F,68.6,Russia,95,100,-102.5,100,,500,75,SBD,Wraps,No,200,210,-215,210,,180,190,-200,190,,Pro Open,34,2
Anna Khudayarov,F,74.4,Finland,120,-130,-130,120,,505,75,SBD,Wraps,No,180,195,-200,195,,170,190,-200,190,,Pro Open,29,1
Batdorj Batkhuyag,M,58.3,Mongolia,72.5,80,,80,,392.5,60,SBD,Wraps,No,-170,170,-190,170,,120,142.5,-160,142.5,,Pro Juniors 20-23,23,1
Petr Kucheryavyh,M,67.5,Kyrgyzstan,-131,-131,-131,,,220,67.5,SBD,Wraps,No,-240,,,,,200,-220,220,220,,Pro Open,29,1
Ruslan Sakhbetov,M,74.7,Kazakhstan,160,170,-175.5,170,,662.5,75,SBD,Wraps,No,245,262.5,,262.5,,230,-250,-250,230,,Pro Open,30,1
Cange Kempes,M,74.2,France,150,160,-162.5,160,,580,75,SBD,Wraps,No,200,-220,-235,200,,200,-220,220,220,,Pro Open,24,2
Klaus Leitmann,M,74.1,Germany,120,-125,-127.5,120,,520,75,SBD,Wraps,No,190,200,-210,200,,200,-210,-210,200,,Pro Open,27,3
Chakhar Tumurbaatar,M,74.8,Mongolia,140,155,162.5,162.5,,537.5,75,SBD,Wraps,No,160,185,,185,,170,190,,190,,Pro Masters 40-44,43,1
Konstantin Semenov,M,75,Russia,105,112.5,-115,112.5,,420,75,SBD,Wraps,No,125,147.5,167.5,167.5,,105,120,140,140,,Pro Masters 50-54,53,1
Luke Geary,M,81,UK,125,135,140,140,,572.5,82.5,SBD,Wraps,No,200,225,230,230,,190,200,202.5,202.5,,Pro Juniors 20-23,23,1
Otgonbaatar Batbold,M,81.8,Mongolia,105,110,115,115,,572.5,82.5,SBD,Wraps,No,215,230,237.5,237.5,-242.5,205,212.5,220,220,,Pro Juniors 20-23,21,2
David Campos,M,81.8,France,125,132.5,135,135,,557.5,82.5,SBD,Wraps,No,210,220,-235,220,,190,-202.5,202.5,202.5,,Pro Juniors 20-23,23,3
Alexander Karpenko,M,82.5,Russia,170,180,-185,180,,830,82.5,SBD,Wraps,No,320,330,340,340,,310,-330,-330,310,,Pro Open,25,1
Andris Lusis,M,81.9,Latvia,145,150,-155,150,,610,82.5,SBD,Wraps,No,260,265,270,270,,180,-190,190,190,,Pro Open,34,2
Darren Clayton,M,80.6,UK/Great Britain,140,147.5,-155,147.5,,577.5,82.5,SBD,Wraps,No,230,-245,-250,230,,-200,-200,200,200,,Pro Open,37,3
Otgonbaatar Batbold,M,81.8,Mongolia,105,110,115,115,,572.5,82.5,SBD,Wraps,No,215,230,237.5,237.5,-242.5,205,212.5,220,220,,Pro Open,21,4
Anatoliy Shnaider,M,76.2,Israel,115,120,-122.5,120,,532.5,82.5,SBD,Wraps,No,205,217.5,,217.5,,180,190,195,195,,Pro Masters 60-64,60,1
Nikolay Matannakhanov,M,80.5,Russia,60,-70,-70,60,,400,82.5,SBD,Wraps,No,150,170,-180,170,,150,160,170,170,,Pro Masters 65-69,65,1
Maksim Raevskiy,M,88.7,Kyrgyzstan,150,155,162.5,162.5,,725,90,SBD,Wraps,No,230,252.5,257.5,257.5,,270,295,305,305,,Pro Juniors 20-23,22,1
Oleksandr Shevchenko,M,89.3,Ukraine,170,180,-185,180,,845,90,SBD,Wraps,No,300,315,-325,315,,315,335,350,350,,Pro Open,27,1
Ramil Ahmadov,M,88.3,Azerbaidzhan,180,-185,-185,180,,750,90,SBD,Wraps,No,300,-315,-315,300,,200,-250,270,270,,Pro Open,29,2
Kyrylo Ostapyshyn,M,88.8,Ukraine,150,-155,-155,150,,727.5,90,SBD,Wraps,No,260,275,277.5,277.5,,285,-300,300,300,,Pro Open,32,3
Maksim Panfilov,M,89.7,Russia,-200,200,-202.5,200,,725,90,SBD,Wraps,No,-230,230,245,245,,280,-295,-295,280,,Pro Open,25,4
Oleg Altunin,M,89,Kyrgyzstan,140,150,162.5,162.5,,667.5,90,SBD,Wraps,No,240,-260,-260,240,,240,-260,265,265,,Pro Open,30,5
Ranjan Ravi,M,88.4,India,140,150,-152.5,150,,605,90,SBD,Wraps,No,200,215,225,225,,220,230,-240,230,,Pro Open,26,6
Amridin Nurov,M,82.8,Russia,-120,,,,,,90,SBD,Wraps,No,,,,,,-240,-240,-240,,,Pro Open,35,DQ
Nobre Nuno,M,85.2,Portugal,132.5,142.5,-150,142.5,,527.5,90,SBD,Wraps,No,180,195,205,205,,160,180,-200,180,,Pro Masters 40-44,40,1
James Kirwan,M,88.5,Ireland,135,145,150,150,,585,90,SBD,Wraps,No,235,-242.5,-242.5,235,,190,200,-210,200,,Pro Masters 45-49,46,1
Egor Cherkasov,M,93.9,Kyrgyzstan,165,-170,-170,165,,600,100,SBD,Wraps,No,-210,215,230,230,,-200,205,-215,205,,Pro Teen 18-19,19,1
Nicolae Colta,M,98.8,Moldova,160,170,175,175,,635,100,SBD,Wraps,No,240,250,-260,250,,-210,210,-225,210,,Pro Juniors 20-23,22,1
Samim Mirulloev,M,99.4,Tajikistan,135,145,150,150,,590,100,SBD,Wraps,No,190,210,220,220,,190,200,220,220,,Pro Juniors 20-23,22,2
Yaroslav Trubichkin,M,98.8,Krym,170,180,-182.5,180,,825,100,SBD,Wraps,No,280,290,300,300,,-325,325,345,345,,Pro Open,30,1
Aleksandr Belimov,M,92.2,Kyrgyzstan,180,190,-195,190,,770,100,SBD,Wraps,No,270,280,-295,280,,290,300,-310,300,,Pro Open,29,2
Amarzaya Taivantumur,M,94.9,Mongolia,190,200,-205,200,,770,100,SBD,Wraps,No,240,250,260,260,,280,-300,310,310,,Pro Open,30,3
Pavel Savanin,M,96.8,Russia,180,190,-195,190,,750,100,SBD,Wraps,No,280,-290,,280,,260,270,280,280,,Pro Open,29,4
Alexey Krivonogov,M,95.7,Russia,150,160,-170,160,,725,100,SBD,Wraps,No,250,260,265,265,,280,-300,300,300,,Pro Open,37,5
Marc Michalon,M,99,France,140,160,-165,160,,690,100,SBD,Wraps,No,240,260,270,270,,-230,-240,260,260,,Pro Open,39,6
Azamathulla Mohammed,M,96.8,India,140,-150,-150,140,,590,100,SBD,Wraps,No,250,-275,,250,,150,175,200,200,,Pro Open,40,7
Munkh-Erdene Zundui,M,96.9,Mongolia,160,170,-180,170,,615,100,SBD,Wraps,No,200,215,-220,215,,215,230,-250,230,,Pro Masters 40-44,41,1
Dmitriy Chertushkin,M,91.9,Russia,40,100,-130,100,,475,100,SBD,Wraps,No,170,185,-200,185,,170,180,190,190,,Pro Masters 50-54,52,1
Petr Folprecht,M,107.1,Czech,170,180,-182.5,180,,840,110,SBD,Wraps,No,320,340,-345,340,,-320,-320,320,320,,Pro Open,32,1
Naël Cetout,M,108,France,190,-200,200,200,,810,110,SBD,Wraps,No,300,320,-330,320,,260,-280,290,290,,Pro Open,27,2
Geromy Barbee,M,109.5,USA,215,-230,-230,215,,735,110,SBD,Wraps,No,272.5,-287.5,-287.5,272.5,,247.5,-265,-265,247.5,,Pro Open,39,3
Otgonmunkh Pagvaarsuren,M,106.5,Mongolia,175,185,190,190,,715,110,SBD,Wraps,No,220,255,-265,255,,220,240,270,270,,Pro Masters 40-44,44,1
Petri Salonen,M,108.4,Finland,185,-195,-195,185,,705,110,SBD,Wraps,No,250,270,-282.5,270,,230,250,-270,250,,Pro Masters 40-44,42,2
Joseph Vayda,M,106.1,USA,142.5,,,142.5,,512.5,110,SBD,Wraps,No,185,,,185,,185,,,185,,Pro Masters 45-49,47,1
David Pennington,M,102.1,United Kingdom,172.5,180,-187.5,180,,595,110,SBD,Wraps,No,-210,210,-232.5,210,,180,-205,205,205,,Pro Masters 50-54,51,1
Oleg Kamenev,M,102.4,Kyrgyzstan,100,110,-115,110,,400,110,SBD,Wraps,No,150,170,180,180,,100,-110,110,110,,Pro Masters 60-64,64,1
Roberts William,M,103,USA,85,,,85,,290,110,SBD,Wraps,No,130,,,130,,75,,,75,,Pro Masters,75,1
Nicolas Tóth,M,125,Slovakia,160,170,180,180,,780,125,SBD,Wraps,No,100,282.5,300,300,,-280,280,300,300,320,Pro Teen 18-19,19,1
Andrey Chernenko,M,116.3,Russia,210,220,227.5,227.5,,957.5,125,SBD,Wraps,No,340,355,-365,355,,350,365,375,375,,Pro Open,24,1
Vikram Phogat,M,114.1,India,180,187.5,-195,187.5,,750,125,SBD,Wraps,No,270,285,292.5,292.5,,240,255,270,270,,Pro Open,26,2
Chad Robison,M,121.5,USA,185,-195,,185,,560,125,SBD,Wraps,No,145,,,145,,230,-250,-250,230,,Pro Open,29,3
Aleksandr Ivanov,M,119.6,Russia,140,150,160,160,,670,125,SBD,Wraps,No,225,250,275,275,,210,235,-250,235,,Pro Masters 45-49,49,1
Molomjamts Pagvaarsuren,M,112.7,Mongolia,170,-185,185,185,,515,125,SBD,Wraps,No,170,,,170,,150,160,-180,160,,Pro Masters 50-54,50,1
Jacub Horchichiak,M,125.4,Slovakia,-160,,,,,,140,SBD,Wraps,No,,,,,,-280,,,,,Pro Teen 18-19,19,DQ
Zorigbaatar Erdenebat,M,136.9,Mongolia,225,-232.5,,225,,875,140,SBD,Wraps,No,275,300,,300,,-250,350,-375,350,,Pro Open,36,1
Raghavendra Hondadakeri,M,129.7,India,120,135,150,150,,760,140,SBD,Wraps,No,275,300,310,310,,-300,-300,300,300,,Pro Open,37,2
Alexey Ermakov,M,136,Russia,175,185,190,190,,725,140,SBD,Wraps,No,225,250,-260,250,,250,270,285,285,,Pro Open,44,3
Alexey Ermakov,M,136,Russia,175,185,190,190,,725,140,SBD,Wraps,No,225,250,-260,250,,250,270,285,285,,Pro Masters 40-44,44,1
Vitaliy Kasyanenko,M,126.1,Kyrgyzstan,160,170,175,175,,645,140,SBD,Wraps,No,210,250,-255,250,,-200,200,220,220,,Pro Masters 45-49,46,1
Eamonn Harford,M,149.8,Ireland,185,190,192.5,192.5,,902.5,140+,SBD,Wraps,No,350,365,-367.5,365,,315,327.5,345,345,,Pro Open,27,1
Sergey Yakovlev,M,162.7,Kazakhstan,190,200,210,210,,810,140+,SBD,Wraps,No,250,275,290,290,,270,290,310,310,,Pro Masters 40-44,45,1
Andrey Goncharov,M,67.5,Russia,125,135,145,145,,145,67.5,B,Single-ply,Yes,,,,,,,,,,,Amateur Open,33,1
Nikolay Reshetov,M,89.3,Russia,200,-210,215,215,,215,90,B,Single-ply,Yes,,,,,,,,,,,Amateur Open,58,1
Vitaliy Kasyanenko,M,89.3,Kyrgyzstan,,,,,,,90,B,Single-ply,Yes,,,,,,,,,,,Amateur Open,46,DQ
Vasiliy Leonenko,M,88.8,Krym,180,190,-200,190,,190,90,B,Single-ply,Yes,,,,,,,,,,,Amateur Masters 50-54,50,1
Nikolay Reshetov,M,89.3,Russia,200,-210,215,215,,215,90,B,Single-ply,Yes,,,,,,,,,,,Amateur Masters 55-59,58,1
Andrey Gabuev,M,98.9,Russia,200,210,-215,210,,210,100,B,Single-ply,Yes,,,,,,,,,,,Amateur Juniors 20-23,21,1
Valeriy Akentyev,M,98.5,Russia,215,225,230,230,,230,100,B,Single-ply,Yes,,,,,,,,,,,Amateur Masters 55-59,59,1
Konstantin Bayandin,M,104,Russia,240,250,260,260,,260,110,B,Single-ply,Yes,,,,,,,,,,,Amateur Masters 40-44,41,1
Andrey Samodelkin,M,100.8,Russia,150,170,-190,170,,170,110,B,Single-ply,Yes,,,,,,,,,,,Amateur Masters 40-44,43,2
Viktor Smyshlyaev,M,101.6,Russia,160,180,185,185,,185,110,B,Single-ply,Yes,,,,,,,,,,,Amateur Masters 55-59,55,1
Aleksey Rudko,M,114.8,Russia,280,300,315,315,,315,125,B,Single-ply,Yes,,,,,,,,,,,Amateur Open,44,1
Sergey Sergeev,M,117.9,Russia,235,245,260,260,,260,125,B,Single-ply,Yes,,,,,,,,,,,Amateur Open,43,2
Denis Ogloblin,M,120.1,Russia,-240,-245,245,245,,245,125,B,Single-ply,Yes,,,,,,,,,,,Amateur Open,50,3
Aleksey Rudko,M,114.8,Russia,280,300,315,315,,315,125,B,Single-ply,Yes,,,,,,,,,,,Amateur Masters 40-44,44,1
Sergey Sergeev,M,117.9,Russia,235,245,260,260,,260,125,B,Single-ply,Yes,,,,,,,,,,,Amateur Masters 40-44,43,2
Denis Ogloblin,M,120.1,Russia,-240,-245,245,245,,245,125,B,Single-ply,Yes,,,,,,,,,,,Amateur Masters 50-54,50,1
Valeriy Akentyev,M,98.5,Russia,225,230,,230,,230,100,B,Raw,Yes,,,,,,,,,,,Amateur Masters 55-59,59,1
Kirill Demyanenko,M,61.6,Russia,80,-90,-95,80,,80,67.5,B,Single-ply,Yes,,,,,,,,,,,Amateur Teen 13-15,15,1
Eldar Takutdinov,M,68.7,Kyrgyzstan,90,-102.5,-102.5,90,,90,75,B,Single-ply,Yes,,,,,,,,,,,Amateur Teen 18-19,18,1
Dmitriy Kolistratov,M,74.3,Russia,150,157.5,-170,157.5,,157.5,75,B,Single-ply,Yes,,,,,,,,,,,Amateur Masters 40-44,40,1
Dmitriy Nikitin,M,78.5,Russia,110,125,-132.5,125,,125,82.5,B,Single-ply,Yes,,,,,,,,,,,Amateur Open,29,1
Kirill Smyshlyaev,M,95.5,Russia,110,125,-140,125,,125,100,B,Single-ply,Yes,,,,,,,,,,,Amateur Juniors 20-23,21,2
Ivan Popov,M,92.15,Russia,240,247.5,255,255,,255,100,B,Single-ply,Yes,,,,,,,,,,,Amateur Open,33,1
Artur Cheremysin,M,99.1,Russia,-235,235,247.5,247.5,,247.5,100,B,Single-ply,Yes,,,,,,,,,,,Amateur Open,28,2
Natig Huseinov,M,98.7,Azerbaidzhan,140,-160,,140,,140,100,B,Single-ply,Yes,,,,,,,,,,,Amateur Open,38,3
Andrey Troshin,M,120.7,Russia,-210,-210,-210,,,,125,B,Single-ply,Yes,,,,,,,,,,,Amateur Open,33,DQ
Vyacheslav Shadrin,M,122.7,Russia,185,200,215,215,,215,125,B,Single-ply,Yes,,,,,,,,,,,Amateur Masters 45-49,49,1
Lev Bergert,M,148.3,Russia,260,280,-290,280,,280,140+,B,Single-ply,Yes,,,,,,,,,,,Amateur Masters 50-54,51,1
Sabina Mansurova,F,40,Russia,27.5,30,-32.5,30,,30,44,B,Raw,Yes,,,,,,,,,,,Amateur Teen 13-15,12,1
Viktoriya Dobriyan,F,42.3,Russia,35,-37.5,-37.5,35,,35,44,B,Raw,Yes,,,,,,,,,,,Amateur Juniors 20-23,22,1
Alena Puhach,F,47,Belarus,52.5,-55,-55,52.5,,52.5,48,B,Raw,Yes,,,,,,,,,,,Amateur Masters 40-44,42,1
Valeriya Ushakova,F,51.6,Russia,30,-35,-35,30,,30,52,B,Raw,Yes,,,,,,,,,,,Amateur Teen 13-15,13,1
Ekaterina Kozlova,F,51.8,Russia,65,70,72.5,72.5,,72.5,52,B,Raw,Yes,,,,,,,,,,,Amateur Open,29,1
Elena Evdokimova,F,50.6,Russia,42.5,45,-47.5,45,,45,52,B,Raw,Yes,,,,,,,,,,,Amateur Masters 45-49,47,1
Yuliya Makhamatullina,F,55.9,Russia,50,52.5,-55,52.5,,52.5,56,B,Raw,Yes,,,,,,,,,,,Amateur Open,28,1
Aida Gadzhieva,F,55.2,Russia,47.5,-52.5,-55,47.5,,47.5,56,B,Raw,Yes,,,,,,,,,,,Amateur Open,26,2
Natalia Potapova,F,59.1,Russia,62.5,67.5,70,70,,70,60,B,Raw,Yes,,,,,,,,,,,Amateur Open,45,1
Anna Kuznetsova,F,59.7,Russia,-60,62.5,-67.5,62.5,,62.5,60,B,Raw,Yes,,,,,,,,,,,Amateur Open,30,2
Natalia Potapova,F,59.1,Russia,62.5,67.5,,67.5,,67.5,60,B,Raw,Yes,,,,,,,,,,,Amateur Masters 45-49,45,1
Elena Luchnikova,F,61.1,Russia,45,-50,50,50,,50,67.5,B,Raw,Yes,,,,,,,,,,,Amateur Open,27,1
Polina Kuzmina,F,67.5,Russia,77.5,-82.5,-85,77.5,,77.5,67.5,B,Raw,Yes,,,,,,,,,,,Amateur Masters 40-44,41,1
Elena Nefedova,F,66.4,Russia,72.5,75,77.5,77.5,,77.5,67.5,B,Raw,Yes,,,,,,,,,,,Amateur Masters 45-49,45,1
Gleb Bogdanov,M,50.1,Estonia,32.5,35,-37.5,35,,35,52,B,Raw,Yes,,,,,,,,,,,Amateur Teen 13-15,12,1
Aleksey Kolisnichenko,M,47.7,Russia,97.5,100,-102.5,100,,100,52,B,Raw,Yes,,,,,,,,,,,Amateur Juniors 20-23,23,1
Ludmila Anisimova,F,49.8,Russia,62.5,65,67.5,67.5,,67.5,52,B,Raw,Yes,,,,,,,,,,,Amateur Masters 50-54,52,1
Yuriy Murzin,M,60,Russia,115,120,-122.5,120,,120,60,B,Raw,Yes,,,,,,,,,,,Amateur Teen 16-17,17,1
Nikolay Fokin,M,59.1,Russia,80,-85,-85,80,,80,60,B,Raw,Yes,,,,,,,,,,,Amateur Teen 18-19,19,1
Andriy Kofanov,M,59.7,Ukraine,130,135,140,140,,140,60,B,Raw,Yes,,,,,,,,,,,Amateur Open,32,1
Sergey Salosalov,M,67.3,Russia,95,100,105,105,,105,67.5,B,Raw,Yes,,,,,,,,,,,Amateur Teen 13-15,13,1
Aleksandr Yastrebov,M,64.7,Russia,65,67.5,72.5,72.5,,72.5,67.5,B,Raw,Yes,,,,,,,,,,,Amateur Teen 13-15,15,2
Ildar Valiakhmetov,M,60.6,Russia,85,90,97.5,97.5,,97.5,67.5,B,Raw,Yes,,,,,,,,,,,Amateur Teen 16-17,16,1
Vagram Mkhitaryan,M,65.5,Russia,102.5,107.5,110,110,,110,67.5,B,Raw,Yes,,,,,,,,,,,Amateur Open,25,1
Vladimir Khan,M,66.8,Russia,120,125,-130,125,,125,67.5,B,Raw,Yes,,,,,,,,,,,Amateur Masters 55-59,55,1
Artem Verzhanovskiy,M,74.3,Russia,-85,85,90,90,,90,75,B,Raw,Yes,,,,,,,,,,,Amateur Teen 13-15,15,1
Ivan Moldovanov,M,73.9,Russia,-75,77.5,82.5,82.5,,82.5,75,B,Raw,Yes,,,,,,,,,,,Amateur Teen 13-15,15,2
Danila Chekmazov,M,73.3,Russia,90,100,-105,100,,100,75,B,Raw,Yes,,,,,,,,,,,Amateur Teen 16-17,16,1
Mikhail Rapoport,M,74.6,Latvia,135,140,142.5,142.5,,142.5,75,B,Raw,Yes,,,,,,,,,,,Amateur Teen 18-19,18,1
Eldar Takutdinov,M,68.7,Kyrgyzstan,90,100,-105,100,,100,75,B,Raw,Yes,,,,,,,,,,,Amateur Teen 18-19,18,2
Ivan Los,M,73.4,Russia,100,110,-117.5,110,,110,75,B,Raw,Yes,,,,,,,,,,,Amateur Juniors 20-23,21,1
Roman Bukalov,M,73.1,Russia,105,-150,-155,105,,105,75,B,Raw,Yes,,,,,,,,,,,Amateur Juniors 20-23,23,2
Valeriy Kopichnikov,M,73.9,Russia,117.5,-122.5,-122.5,117.5,,117.5,75,B,Raw,Yes,,,,,,,,,,,Amateur Open,28,1
Pavel Kungurtsev,M,73.7,Russia,145,150,-155,150,,150,75,B,Raw,Yes,,,,,,,,,,,Amateur Masters 40-44,41,1
Maksim Afonin,M,73.6,Russia,-105,-117.5,-117.5,,,,75,B,Raw,Yes,,,,,,,,,,,Amateur Masters 40-44,42,DQ
Aleksey Shalunov,M,73.9,Russia,122.5,-127.5,-127.5,122.5,,122.5,75,B,Raw,Yes,,,,,,,,,,,Amateur Masters 45-49,48,1
Ákos Nagy,M,80.7,Hungary,162.5,165,-167.5,165,,165,82.5,B,Raw,Yes,,,,,,,,,,,Amateur Open,24,1
Igor Kozlov,M,81.8,Russia,130,135,-137.5,135,,135,82.5,B,Raw,Yes,,,,,,,,,,,Amateur Open,27,2
Sergey Vorobyov,M,81.3,Russia,115,120,-127.5,120,,120,82.5,B,Raw,Yes,,,,,,,,,,,Amateur Open,37,3
Vladislav Kharkov,M,82.1,Russia,150,155,-160,155,,155,82.5,B,Raw,Yes,,,,,,,,,,,Amateur Masters 40-44,42,1
Igor Borisov,M,79.3,Russia,-100,100,-105,100,,100,82.5,B,Raw,Yes,,,,,,,,,,,Amateur Masters 40-44,43,2
Eduard Potapov,M,81.2,Russia,-160,-160,160,160,,160,82.5,B,Raw,Yes,,,,,,,,,,,Amateur Masters 45-49,49,1
Andrey Yatskovskiy,M,78.8,Russia,102.5,107.5,-110,107.5,,107.5,82.5,B,Raw,Yes,,,,,,,,,,,Amateur Masters 45-49,48,2
Oleg Zhemchuzhnikov,M,80.3,Russia,120,-127.5,127.5,127.5,,127.5,82.5,B,Raw,Yes,,,,,,,,,,,Amateur Masters 50-54,52,1
Vladimir Fateev,M,78.9,Russia,110,115,-120,115,,115,82.5,B,Raw,Yes,,,,,,,,,,,Amateur Masters 50-54,53,2
Vladimir Kapuza,M,81.6,Russia,140,-150,150,150,,150,82.5,B,Raw,Yes,,,,,,,,,,,Amateur Masters 55-59,55,1
Salgado Riso,M,80.3,Uruguay,115,-125,-125,115,,115,82.5,B,Raw,Yes,,,,,,,,,,,Amateur Masters 65-69,65,1
Aleksandr Tkachuk,M,76.3,Russia,70,80,85,85,,85,82.5,B,Raw,Yes,,,,,,,,,,,Amateur Masters,77,1
Aleksey Evteev,M,88.5,Russia,180,-185,-187.5,180,,180,90,B,Raw,Yes,,,,,,,,,,,Amateur Juniors 20-23,23,1
Gennadiy Lapin,M,87.1,Russia,142.5,147.5,-152.5,147.5,,147.5,90,B,Raw,Yes,,,,,,,,,,,Amateur Juniors 20-23,22,2
Aleksey Kolisnichenko,M,88.5,Russia,-120,,,,,,90,B,Raw,Yes,,,,,,,,,,,Amateur Juniors 20-23,23,DQ
Andrey Galayda,M,89.4,Russia,190,197.5,202.5,202.5,,202.5,90,B,Raw,Yes,,,,,,,,,,,Amateur Open,45,1
Ramil Bekhtemirov,M,87.9,Russia,190,-195,-195,190,,190,90,B,Raw,Yes,,,,,,,,,,,Amateur Open,30,2
Khamid Suluev,M,88.8,Kyrgyzstan,155,162.5,,162.5,,162.5,90,B,Raw,Yes,,,,,,,,,,,Amateur Open,43,3
Ilya Kirin,M,87,Russia,125,132.5,137.5,137.5,,137.5,90,B,Raw,Yes,,,,,,,,,,,Amateur Open,29,4
Sergey Oleynik,M,88.4,Russia,90,120,135,135,,135,90,B,Raw,Yes,,,,,,,,,,,Amateur Open,32,5
Pavel Degtyar,M,87.6,Russia,-125,132.5,-137.5,132.5,,132.5,90,B,Raw,Yes,,,,,,,,,,,Amateur Open,25,6
Nikita Kalachev,M,88.5,Russia,120,-127.5,132.5,132.5,,132.5,90,B,Raw,Yes,,,,,,,,,,,Amateur Open,31,7
Andrey Minin,M,89.2,Russia,190,-200,-200,190,,190,90,B,Raw,Yes,,,,,,,,,,,Amateur Masters 40-44,41,1
Khamid Suluev,M,88.8,Kyrgyzstan,155,162.5,-167.5,162.5,,162.5,90,B,Raw,Yes,,,,,,,,,,,Amateur Masters 40-44,43,2
Andrey Galayda,M,89.4,Russia,190,197.5,202.5,202.5,,202.5,90,B,Raw,Yes,,,,,,,,,,,Amateur Masters 45-49,45,1
Vyacheslav Volkov,M,89.7,Russia,160,-170,170,170,,170,90,B,Raw,Yes,,,,,,,,,,,Amateur Masters 45-49,46,2
Igor Ivanov,M,89.2,Russia,125,132.5,-135,132.5,,132.5,90,B,Raw,Yes,,,,,,,,,,,Amateur Masters 45-49,48,3
Mikhail Chepurnoy,M,88.4,Russia,-160,-160,-160,,,,90,B,Raw,Yes,,,,,,,,,,,Amateur Masters 45-49,47,DQ
Vladimir Kozlov,M,85,Russia,130,140,-145,140,,140,90,B,Raw,Yes,,,,,,,,,,,Amateur Masters 60-64,63,1
Vladislav Filyaev,M,97,Russia,115,120,-125,120,,120,100,B,Raw,Yes,,,,,,,,,,,Amateur Teen 16-17,17,1
Ilya Laptev,M,97.6,Russia,-107.5,107.5,-115,107.5,,107.5,100,B,Raw,Yes,,,,,,,,,,,Amateur Teen 18-19,19,1
Andrey Gabuev,M,98.9,Russia,152.5,157.5,-162.5,157.5,,157.5,100,B,Raw,Yes,,,,,,,,,,,Amateur Juniors 20-23,21,1
Ilya Orlov,M,98.8,Russia,215,225,230,230,,230,100,B,Raw,Yes,,,,,,,,,,,Amateur Open,35,1
Vladimir Petrykin,M,98.6,Russia,185,187.5,195,195,,195,100,B,Raw,Yes,,,,,,,,,,,Amateur Open,36,2
Avetik Mardoyan,M,93.9,Russia,170,190,-195,190,,190,100,B,Raw,Yes,,,,,,,,,,,Amateur Open,25,3
Oler Sergeev,M,98.2,Russia,162.5,-167.5,-167.5,162.5,,162.5,100,B,Raw,Yes,,,,,,,,,,,Amateur Open,31,4
Natig Huseinov,M,98.7,Azerbaidzhan,150,-165,-165,150,,150,100,B,Raw,Yes,,,,,,,,,,,Amateur Open,38,5
Andrey Trubachev,M,97.4,Russia,-130,-140,-140,,,,100,B,Raw,Yes,,,,,,,,,,,Amateur Open,31,DQ
Sergey Emelyanov,M,96,Russia,160,-165,165,165,,165,100,B,Raw,Yes,,,,,,,,,,,Amateur Masters 40-44,42,1
Vadim Shabanov,M,92.6,Russia,-150,150,160,160,,160,100,B,Raw,Yes,,,,,,,,,,,Amateur Masters 45-49,45,1
Sergey Verzhanovskiy,M,99.1,Russia,165,175,-180,175,,175,100,B,Raw,Yes,,,,,,,,,,,Amateur Masters 50-54,50,1
Vladimir Alekseev,M,98.8,Russia,165,170,-177.5,170,,170,100,B,Raw,Yes,,,,,,,,,,,Amateur Masters 50-54,54,2
Valeriy Akentyev,M,98.5,Russia,140,147.5,152.5,152.5,,152.5,100,B,Raw,Yes,,,,,,,,,,,Amateur Masters 55-59,59,2
Gennadiy Sorokin,M,93.3,Russia,140,145,-150,145,,145,100,B,Raw,Yes,,,,,,,,,,,Amateur Masters 55-59,58,3
Valeri Matvejev,M,91.9,Estonia,135,-140,140,140,,140,100,B,Raw,Yes,,,,,,,,,,,Amateur Masters 55-59,57,4
Rashidi Hamid,M,107.1,Iran,200,207.5,210,210,,210,110,B,Raw,Yes,,,,,,,,,,,Amateur Open,33,1
Ruslan Shlyagun,M,102.1,Russia,170,-180,180,180,,180,110,B,Raw,Yes,,,,,,,,,,,Amateur Open,38,2
Konstantin Usynin,M,110,Russia,175,-185,-185,175,,175,110,B,Raw,Yes,,,,,,,,,,,Amateur Open,29,3
Roman Sergeev,M,108.4,Russia,152.5,162.5,-167.5,162.5,,162.5,110,B,Raw,Yes,,,,,,,,,,,Amateur Open,35,4
Sergey Lipovskiy,M,103.8,Russia,170,175,180,180,,180,110,B,Raw,Yes,,,,,,,,,,,Amateur Masters 40-44,42,1
Vadim Sazonov,M,100.9,Russia,167.5,172.5,-175,172.5,,172.5,110,B,Raw,Yes,,,,,,,,,,,Amateur Masters 40-44,42,2
Aleksey Kovalskiy,M,106.2,Russia,160,-170,170,170,,170,110,B,Raw,Yes,,,,,,,,,,,Amateur Masters 40-44,42,3
Dmitriy Kireev,M,109.1,Russia,165,-170,-170,165,,165,110,B,Raw,Yes,,,,,,,,,,,Amateur Masters 45-49,48,1
Nikolay Fokin,M,104,Russia,-150,150,152.5,152.5,,152.5,110,B,Raw,Yes,,,,,,,,,,,Amateur Masters 50-54,51,1
Viktor Smyshlyaev,M,101.6,Russia,130,140,145,145,,145,110,B,Raw,Yes,,,,,,,,,,,Amateur Masters 55-59,55,1
Sergey Kolesnikov,M,105.5,Russia,130,142.5,-147.5,142.5,,142.5,110,B,Raw,Yes,,,,,,,,,,,Amateur Masters 55-59,56,2
Oleg Vashkin,M,118.8,Russia,190,195,-200,195,,195,125,B,Raw,Yes,,,,,,,,,,,Amateur Juniors 20-23,23,1
Pavel Zhdanov,M,118.4,Russia,180,-190,-190,180,,180,125,B,Raw,Yes,,,,,,,,,,,Amateur Open,37,1
Viktor Sukhomlin,M,115.4,Russia,140,152.5,160,160,,160,125,B,Raw,Yes,,,,,,,,,,,Amateur Open,26,2
Arseniy Shalnov,M,125,Russia,-150,150,-180,150,,150,125,B,Raw,Yes,,,,,,,,,,,Amateur Open,28,3
Sergey Zakharov,M,121.2,Russia,175,185,192.5,192.5,,192.5,125,B,Raw,Yes,,,,,,,,,,,Amateur Masters 40-44,43,1
Dobrogor Raskhodchikov,M,121.5,Russia,-175,-175,-175,,,,125,B,Raw,Yes,,,,,,,,,,,Amateur Masters 40-44,40,DQ
Dmitriy Belov,M,124.8,Russia,187.5,192.5,195,195,,195,125,B,Raw,Yes,,,,,,,,,,,Amateur Masters 45-49,45,1
Igor Bogdanov,M,115.8,Estonia,172.5,175,-180,175,,175,125,B,Raw,Yes,,,,,,,,,,,Amateur Masters 45-49,45,2
Igor Bychkov,M,114.6,Russia,-172.5,172.5,-177.5,172.5,,172.5,125,B,Raw,Yes,,,,,,,,,,,Amateur Masters 45-49,47,3
Vladimir Chubarov,M,124.9,Russia,170,177.5,180,180,,180,125,B,Raw,Yes,,,,,,,,,,,Amateur Masters 50-54,53,1
Vladimir Seleznev,M,126.5,Russia,165,175,-180,175,,175,140,B,Raw,Yes,,,,,,,,,,,Amateur Open,40,1
Artem Kuritsin,M,127,Russia,127.5,135,142.5,142.5,,142.5,140,B,Raw,Yes,,,,,,,,,,,Amateur Open,24,2
Vladimir Seleznev,M,126.5,Russia,165,175,-180,175,,175,140,B,Raw,Yes,,,,,,,,,,,Amateur Masters 40-44,40,1
Aleksandr Lyubtsov,M,161.4,Russia,150,162.5,-167.5,162.5,,162.5,140+,B,Raw,Yes,,,,,,,,,,,Amateur Open,33,1
Boris Trofimov,M,146.8,Russia,220,-230,,220,,220,140+,B,Raw,Yes,,,,,,,,,,,Amateur Masters 45-49,45,1
Olga Sheveleva,F,52,Russia,,,,,,100,52,D,Single-ply,Yes,90,100,-110,100,,,,,,,Amateur Teen 18-19,19,1
Alexandr Domanskiy,M,88.2,Russia,,,,,,220,90,D,Single-ply,Yes,180,200,220,220,,,,,,,Amateur Open,32,1
Vladimir Dorodnikh,M,86.5,Russia,,,,,,172.5,90,D,Single-ply,Yes,150,160,172.5,172.5,,,,,,,Amateur Masters 60-64,63,1
Evgeniy Nefedov,M,98.6,Russia,,,,,,265,100,D,Single-ply,Yes,240,255,265,265,-270,,,,,,Amateur Masters 40-44,44,1
Yury Maligin,M,98.9,Ukraine,,,,,,160,100,D,Single-ply,Yes,120,160,-170,160,,,,,,,Amateur Masters 50-54,50,1
Tatiana Polstyanova,F,41.6,Kyrgyzstan,,,,,,100,44,D,Raw,Yes,90,100,-110,100,,,,,,,Amateur Masters 50-54,50,1
Irina Golovunina,F,47.9,Russia,,,,,,142.5,48,D,Raw,Yes,135,140,142.5,142.5,,,,,,,Amateur Open,36,1
Marina Kutuzova,F,47.3,Russia,,,,,,135,48,D,Raw,Yes,-125,130,135,135,,,,,,,Amateur Open,28,2
Ekaterina Gaidina,F,51.4,Russia,,,,,,120,52,D,Raw,Yes,110,120,-125,120,,,,,,,Amateur Open,31,1
Ilmira Abdyusheva,F,55.2,Russia,,,,,,105,56,D,Raw,Yes,100,105,-110,105,,,,,,,Amateur Juniors 20-23,23,1
Nataliya Levenkova,F,52.3,Russia,,,,,,140,56,D,Raw,Yes,135,140,-145,140,,,,,,,Amateur Open,29,1
Anastasiya Zhdanova,F,55.7,Russia,,,,,,130,56,D,Raw,Yes,117.5,125,130,130,,,,,,,Amateur Open,37,2
Natalia Sidorkina,F,54.6,Russia,,,,,,122.5,56,D,Raw,Yes,-115,-120,122.5,122.5,,,,,,,Amateur Open,30,3
Diana Levina,F,55.4,Russia,,,,,,115,56,D,Raw,Yes,105,-115,115,115,,,,,,,Amateur Open,36,4
Evgeniya Yasinskaya,F,59.5,Russia,,,,,,105,60,D,Raw,Yes,105,-110,-110,105,,,,,,,Amateur Open,29,1
Yuliya Porshneva,F,58.9,Russia,,,,,,,60,D,Raw,Yes,-117.5,-127.5,-127.5,,,,,,,,Amateur Open,32,DQ
Svetlana Saburova,F,66.3,Russia,,,,,,147.5,67.5,D,Raw,Yes,140,147.5,-157.5,147.5,,,,,,,Amateur Open,45,1
Oksana Pereplesnina,F,63.2,Russia,,,,,,125,67.5,D,Raw,Yes,-125,125,-135,125,,,,,,,Amateur Masters 40-44,43,1
Yuliya Makarova,F,66.4,Russia,,,,,,152.5,67.5,D,Raw,Yes,145,152.5,-157.5,152.5,,,,,,,Amateur Masters 45-49,48,1
Svetlana Saburova,F,66.3,Russia,,,,,,147.5,67.5,D,Raw,Yes,140,147.5,-157.5,147.5,,,,,,,Amateur Masters 45-49,45,2
Marina Kornienkova,F,68,Russia,,,,,,120,75,D,Raw,Yes,-110,120,-130,120,,,,,,,Amateur Juniors 20-23,21,1
Oksana Snetkova,F,73.3,Russia,,,,,,135,75,D,Raw,Yes,125,-135,135,135,,,,,,,Amateur Open,38,1
Nataliya Shaydullina,F,83.4,Russia,,,,,,140,90,D,Raw,Yes,130,135,140,140,,,,,,,Amateur Open,33,1
Petr Zolotuev,M,40,Russia,,,,,,,52,D,Raw,Yes,-220,,,,,,,,,,Amateur Open,25,DQ
Arian Grigoriev,M,64.9,Russia,,,,,,190,67.5,D,Raw,Yes,180,190,-200,190,,,,,,,Amateur Juniors 20-23,22,1
Egor Pavlov,M,66.7,Russia,,,,,,165,67.5,D,Raw,Yes,165,-172.5,,165,,,,,,,Amateur Open,33,1
Pavel Moiseenkov,M,73.4,Russia,,,,,,240,75,D,Raw,Yes,-220,232.5,240,240,,,,,,,Amateur Juniors 20-23,23,1
Vladimir Mikhailov,M,74.9,Russia,,,,,,202.5,75,D,Raw,Yes,202.5,-210,-215,202.5,,,,,,,Amateur Juniors 20-23,23,2
Mikhail Buyanov,M,74.5,Russia,,,,,,225,75,D,Raw,Yes,200,212.5,225,225,,,,,,,Amateur Masters 40-44,43,1
Aleksey Shalunov,M,73.9,Russia,,,,,,185,75,D,Raw,Yes,180,185,-190,185,,,,,,,Amateur Masters 45-49,48,1
Ivan Kopyrin,M,73.6,Russia,,,,,,180,75,D,Raw,Yes,170,180,-190,180,,,,,,,Amateur Masters 50-54,50,1
Vladimir Schemelev,M,74,Russia,,,,,,185,75,D,Raw,Yes,177.5,185,-202.5,185,,,,,,,Amateur Masters 55-59,56,1
Boris Dolmatov,M,68.6,Russia,,,,,,162.5,75,D,Raw,Yes,150,157.5,162.5,162.5,,,,,,,Amateur Masters 70-74,72,1
Petr Naumov,M,71.1,Russia,,,,,,160,75,D,Raw,Yes,140,-150,160,160,,,,,,,Amateur Masters 70-74,71,2
Vadim Karpachev,M,80.2,Russia,,,,,,185.5,82.5,D,Raw,Yes,-165,172.5,185.5,185.5,186,,,,,,Amateur Teen 13-15,16,1
Emil Yakubov,M,81.7,Russia,,,,,,,82.5,D,Raw,Yes,-230,-230,-230,,,,,,,,Amateur Teen 16-17,16,DQ
Mikhail Kirin,M,78.3,Russia,,,,,,185,82.5,D,Raw,Yes,175,185,-195,185,,,,,,,Amateur Teen 18-19,19,1
Timofey Konchakov,M,78.4,Russia,,,,,,207.5,82.5,D,Raw,Yes,200,205,207.5,207.5,,,,,,,Amateur Juniors 20-23,22,1
Steven Forrest,M,86.5,United Kingdom,,,,,,250,90,D,Raw,Yes,240,250,-260,250,,,,,,,Amateur Juniors 20-23,24,1
Pavel Donovskiy,M,88.2,Russia,,,,,,255,90,D,Raw,Yes,235,255,-265,255,,,,,,,Amateur Open,37,1
Alexandr Domanskiy,M,87.7,Russia,,,,,,225,90,D,Raw,Yes,190,215,225,225,,,,,,,Amateur Open,32,3
Sergey Gorbunov,M,87.4,Russia,,,,,,240,90,D,Raw,Yes,240,-245,-255,240,,,,,,,Amateur Open,26,2
Vasiliy Leonenko,M,88.8,Krym,,,,,,205,90,D,Raw,Yes,205,-215,-215,205,,,,,,,Amateur Masters 50-54,50,1
Kirill Smyshlyaev,M,95.7,Russia,,,,,,180,100,D,Raw,Yes,160,170,180,180,,,,,,,Amateur Juniors 20-23,21,1
Vachagan Baghdagyulyan,M,98.8,Armenia,,,,,,260,100,D,Raw,Yes,250,260,-267.5,260,,,,,,,Amateur Open,29,1
Artem Volkov,M,92.5,Russia,,,,,,202.5,100,D,Raw,Yes,195,202.5,-210,202.5,,,,,,,Amateur Open,25,2
Vladlen Gladchenko,M,98.5,Russia,,,,,,215,100,D,Raw,Yes,-210,210,215,215,,,,,,,Amateur Masters 45-49,47,1
Saidulla Sadenov,M,97.8,Kazakhstan,,,,,,240.5,100,D,Raw,Yes,232.5,237.5,240.5,240.5,241,,,,,,Amateur Masters 55-59,58,1
Petr Battakhov,M,96.1,Russia,,,,,,200,100,D,Raw,Yes,150,200,,200,,,,,,,Amateur Masters 65-69,65,1
Kirill Didenko,M,106.8,Russia,,,,,,250,110,D,Raw,Yes,240,250,-255,250,,,,,,,Amateur Open,24,1
Aleksandr Smirnov,M,109.6,Russia,,,,,,,110,D,Raw,Yes,-220,,,,,,,,,,Amateur Masters 40-44,43,DQ
Viktor Smyshlyaev,M,101.6,Russia,,,,,,200,110,D,Raw,Yes,-170,180,200,200,,,,,,,Amateur Masters 55-59,55,1
Andrey Troshin,M,120.7,Russia,,,,,,215,125,D,Raw,Yes,215,-235,-235,215,,,,,,,Amateur Open,33,1
Bhavna Shah,F,40.6,India,25,-30,30,30,,162.5,44,SBD,Wraps,Yes,55,62.5,67.5,67.5,,60,65,-72.5,65,,Amateur Open,41,1
Bhavna Shah,F,40.6,India,25,-30,30,30,,162.5,44,SBD,Wraps,Yes,55,62.5,67.5,67.5,,60,65,-72.5,65,,Amateur Masters 40-44,41,1
Tatiana Polstyanova,F,41,Kyrgyzstan,35,-40,40,40,,230,44,SBD,Wraps,Yes,90,102.5,110,110,,60,70,80,80,85,Amateur Masters 50-54,50,1
Karen McKernan,F,58.9,Ireland,60,62.5,-65,62.5,,320,60,SBD,Wraps,Yes,117.5,125,130,130,,110,117.5,127.5,127.5,135,Amateur Masters 40-44,40,1
Naomi Smith,F,81,United Kingdom,60,-62.5,62.5,62.5,,332.5,82.5,SBD,Wraps,Yes,120,130,-140,130,,125,132.5,140,140,,Amateur Juniors 20-23,24,1
Gennadiy Lykhin,M,65.5,Russia,85,90.5,,90.5,,311.5,67.5,SBD,Wraps,Yes,110,115.5,,115.5,,100,105.5,,105.5,,Amateur Masters 60-64,63,1
Viktor Yashin,M,82,Russia,105,110,112.5,112.5,,475,82.5,SBD,Wraps,Yes,165,172.5,182.5,182.5,,167.5,180,-187.5,180,,Amateur Open,28,1
Daljeet Singh,M,85,India,110,115,120,120,,557.5,90,SBD,Wraps,Yes,210,220,225,225,,200,212.5,,212.5,,Amateur Open,38,1
Alexandr Domanskiy,M,86.8,Russia,80,90,100,100,,475,90,SBD,Wraps,Yes,190,-210,215,215,,130,150,160,160,,Amateur Open,32,2
Munkhbaatar Baasandorj,M,94.3,Mongolia,155,165,175,175,,660,100,SBD,Wraps,Yes,235,245,-255,245,,-240,240,-265,240,,Amateur Open,36,1
Andrey Gerun,M,99.7,Russia,100,110,120,120,,550,100,SBD,Wraps,Yes,180,210,230,230,,170,185,200,200,,Amateur Masters 45-49,46,1
Saidulla Sadenov,M,95.6,Kazakhstan,110,117.5,125,125,,562.5,100,SBD,Wraps,Yes,220,225,232.5,232.5,,170,187.5,205,205,,Amateur Masters 55-59,58,1
Artem Bespalenko,M,105.8,Russia,170,180,190,190,,670,110,SBD,Wraps,Yes,230,250,-270,250,,210,225,230,230,,Amateur Open,27,1
Matthew Ward,M,113.6,United Kingdom,130,137.5,-142.5,137.5,,612.5,125,SBD,Wraps,Yes,220,235,,235,,215,230,240,240,,Amateur Open,25,1
Igor Lubaev,M,65.6,Russia,130,-140,-140,130,,590,67.5,SBD,Raw,Yes,-220,220,-240,220,,-240,240,-255,240,,Amateur Open,38,1
Tatiana Bondarenko,M,47.9,Russia,70,-75,-75,70,,332.5,48,SBD,Single-ply,Yes,110,120,-130,120,,135,142.5,-145,142.5,,Amateur Open,26,1
Aleksandr Polfuntikov,M,89.9,Russia,180,190,-195,190,,770,90,SBD,Single-ply,Yes,-265,-265,265,265,,300,315,,315,,Amateur Open,35,1
Kirill Smyshlyaev,M,96.1,Russia,100,-125,-125,100,,450,100,SBD,Single-ply,Yes,160,,,160,,-160,170,190,190,,Amateur Juniors 20-23,21,1
Anna Savchuk,F,43.1,Russia,50,52.5,,52.5,,222.5,44,SBD,Raw,Yes,80,85,,85,,-80,80,85,85,,Amateur Open,33,1
Bhavna Shah,F,40.6,India,25,,,25,,145,44,SBD,Raw,Yes,60,,,60,,60,,,60,,Amateur Open,41,2
Bhavna Shah,F,40.6,India,25,,,25,,145,44,SBD,Raw,Yes,60,,,60,,60,,,60,,Amateur Masters 40-44,41,1
Aurika Gavrilova,F,46.8,Latvia,47.5,50,-55,50,,257.5,48,SBD,Raw,Yes,-100,-110,110,110,,87.5,95,97.5,97.5,,Amateur Open,29,1
Kseniya Kuznetsova,F,48,Russia,65,67.5,-70,67.5,,235,48,SBD,Raw,Yes,80,-85,85,85,,77.5,82.5,-87.5,82.5,,Amateur Open,28,2
Anna Morozova,F,47.9,Russia,35,37.5,40,40,,202.5,48,SBD,Raw,Yes,77.5,85,,85,,70,75,77.5,77.5,,Amateur Open,33,3
Anna Smirnova,F,52,Russia,45,-50,-50,45,,215,52,SBD,Raw,Yes,85,90,,90,,-80,-80,80,80,,Amateur Open,34,1
Tatiana Budkina,F,55.9,Russia,-45,55,65,65,,277.5,56,SBD,Raw,Yes,110,120,127.5,127.5,,-80,80,85,85,,Amateur Open,38,1
Anastasiya Melnik,F,59.7,Russia,,,,,,,60,SBD,Raw,Yes,,,,,,-100,-100,-100,,,Amateur Juniors 20-23,21,DQ
Polina Penkova,F,64.5,Russia,50,55,60,60,,250,67.5,SBD,Raw,Yes,90,-100,100,100,,-90,-90,90,90,,Amateur Teen 13-15,15,1
Daria Kalugina,F,67.2,Russia,-55,-55,55,55,,300,67.5,SBD,Raw,Yes,130,135,140,140,,100,105,-110,105,,Amateur Open,34,1
Elena Laur,F,67.65,Russia,65,-70,-70,65,,307.5,75,SBD,Raw,Yes,125,132.5,-137.5,132.5,,-110,110,-120,110,,Amateur Open,34,1
Elena Nikitina,F,76.3,Russia,50,-55,-55,50,,265,82.5,SBD,Raw,Yes,100,110,115,115,,90,97.5,100,100,,Amateur Open,33,1
Gulnara Alibaeva,F,81.1,Russia,62.5,65,-67.5,65,,305,82.5,SBD,Raw,Yes,130,140,-150,140,,100,-110,-110,100,,Amateur Masters 40-44,40,1
Conor Leahy,M,59.1,Ireland,60,67.5,-70,67.5,,317.5,60,SBD,Raw,Yes,150,160,-165,160,,90,-100,-100,90,,Amateur Teen 16-17,18,1
Aleksandr Dambinov,M,64.5,Elista/Kalmykiya,,60,,60,,280,67.5,SBD,Raw,Yes,140,,,140,,-80,80,,80,,Amateur Masters,81,1
Ruben Davidyan,M,71.2,Kameshkovo/Vladimirskaya oblast,140,145,-150,145,,605,75,SBD,Raw,Yes,240,250,-260,250,,-200,200,210,210,,Amateur Open,25,1
Dmitriy Lukianov,M,74.3,Russia,,,,,,,75,SBD,Raw,Yes,,,,,,-160,-160,-160,,,Amateur Open,37,DQ
Vadim Karpachev,M,80.1,Russia,80,95,102.5,102.5,,412.5,82.5,SBD,Raw,Yes,140,160,175,175,,110,120,135,135,,Amateur Teen 13-15,16,1
Anton Dutov,M,82.4,Russia,90,100,110,110,,505,82.5,SBD,Raw,Yes,200,215,-225,215,,160,175,180,180,,Amateur Teen 18-19,18,1
Yaroslav Klimanov,M,81.9,Russia,130,135,-140,135,,567.5,82.5,SBD,Raw,Yes,210,220,227.5,227.5,,190,200,205,205,,Amateur Open,26,1
Aleksey Gvozdev,M,82.5,Russia,112.5,-115,-115,112.5,,500,82.5,SBD,Raw,Yes,200,205,-207.5,205,,172.5,182.5,-185,182.5,,Amateur Masters 45-49,45,1
Saveliy Bokarev,M,88.7,Russia,130,135,-140,135,,575,90,SBD,Raw,Yes,215,225,240,240,242.5,190,-200,200,200,,Amateur Teen 18-19,19,1
Andrey Ansimov,M,89.9,Russia,150,155,-160,155,,615,90,SBD,Raw,Yes,150,245,250,250,,190,200,210,210,,Amateur Open,30,1
Nikolay Zabelin,M,89.5,Russia,147.5,150,152.5,152.5,,607.5,90,SBD,Raw,Yes,240,250,-257.5,250,,-200,200,205,205,,Amateur Open,32,2
Evgeniy Vladimirov,M,88.2,Russia,135,140,145,145,,590,90,SBD,Raw,Yes,220,,,220,,225,-235,-235,225,,Amateur Open,53,3
Denis Balabin,M,87.5,Russia,-120,120,125,125,,560,90,SBD,Raw,Yes,220,235,240,240,,-190,195,-205,195,,Amateur Open,39,4
Mikhail Seleznev,M,83.2,Russia,90,100,-110,100,,455,90,SBD,Raw,Yes,180,190,-200,190,,145,155,165,165,,Amateur Open,33,5
Evgeniy Vladimirov,M,88.2,Russia,135,140,145,145,,600,90,SBD,Raw,Yes,220,230,-240,230,,225,-235,-235,225,,Amateur Masters 50-54,53,1
Viktor Kovalenko,M,88.8,Russia,85,90,-92.5,90,,395,90,SBD,Raw,Yes,155,157.5,-160,157.5,,140,147.5,-152.5,147.5,,Amateur Masters 55-59,58,1
Kirill Smyshlyaev,M,96.1,Russia,-70,80,95,95,,405,100,SBD,Raw,Yes,140,155,,155,,140,155,-160,155,,Amateur Juniors 20-23,21,2
Selimkhan Magamedkhanov,M,99.1,Russia,130,140,145,145,,535,100,SBD,Raw,Yes,190,-210,-210,190,,180,200,-210,200,,Amateur Juniors 20-23,20,1
Anton Sgibnev,M,97.2,Russia,170,180,-190,180,,715,100,SBD,Raw,Yes,250,265,-275,265,,245,260,270,270,,Amateur Open,31,1
Yanek Martin,M,97.2,Russia,160,170,175,175,,665,100,SBD,Raw,Yes,250,260,270,270,,210,220,-230,220,,Amateur Open,31,2
Yuriy Kolesnikov,M,99,Russia,150,160,-165,160,,645,100,SBD,Raw,Yes,260,270,-275,270,,200,210,215,215,,Amateur Open,33,3
Andrey Andreev,M,97.7,Russia,180,-185,185,185,,635,100,SBD,Raw,Yes,225,230,240,240,,180,200,210,210,,Amateur Open,38,4
Konstantin Seregin,M,98.7,Russia,130,135,-137.5,135,,615,100,SBD,Raw,Yes,240,250,260,260,,200,210,220,220,,Amateur Open,39,5
Aleksey Vasiliev,M,93.9,Russia,130,-142.5,-142.5,130,,510,100,SBD,Raw,Yes,210,-225,-225,210,,170,-180,-180,170,,Amateur Open,28,6
Ilya Nefedov,M,99.2,Russia,130,140,145,145,,630,100,SBD,Raw,Yes,240,250,255,255,,220,230,-232.5,230,,Amateur Masters 45-49,45,1
Kirill Sobachkin,M,106.1,Russia,80,90,-95,90,,390,110,SBD,Raw,Yes,140,-155,155,155,,125,-135,145,145,,Amateur Teen 13-15,14,1
Pavel Kriulenko,M,102.9,Russia,155,160,-165,160,,642.5,110,SBD,Raw,Yes,250,260,-273,260,,222.5,-230,-230,222.5,,Amateur Teen 18-19,20,1
Sergey Pereskokov,M,108.3,Russia,142.5,-147.5,-147.5,142.5,,565,110,SBD,Raw,Yes,190,207.5,-212.5,207.5,,205,-215,215,215,,Amateur Open,30,1
Alexey Lileev,M,102.7,Russia,130,140,150,150,,500,110,SBD,Raw,Yes,160,170,190,190,,150,160,-170,160,,Amateur Masters 45-49,45,1
Pavel Zhdanov,M,119.5,Russia,185,190,-192.5,190,,710,125,SBD,Raw,Yes,250,265,275,275,,230,240,245,245,,Amateur Open,37,1
Igor Alferov,M,124.9,Russia,150,155,157.5,157.5,,617.5,125,SBD,Raw,Yes,-220,220,240,240,,-220,-220,220,220,,Amateur Masters 40-44,41,1
