Place,Name,BirthYear,Country,BodyweightKg,Squat1Kg,Squat2Kg,Squat3Kg,Best3SquatKg,Bench1Kg,Bench2Kg,Bench3Kg,Best3BenchKg,Deadlift1Kg,Deadlift2Kg,Deadlift3Kg,Best3DeadliftKg,TotalKg,WeightClassKg,Division,Event,Equipment,Sex
1,Marion Friedrich,1965,Germany,46.2,125,-130,130,130,90,95,-97,95,112.5,120,125,125,350,48,Masters 1,SBD,Single-ply,F
2,Shoko Tanaka,1964,Japan,47.2,105,115,-122.5,115,67.5,72.5,-75,72.5,110,120,-122.5,120,307.5,48,Masters 1,SBD,Single-ply,F
3,Elvira Lorenzo,1965,Philippines,47.9,100,-107.5,-107.5,100,55,57.5,-60,57.5,125,132.5,137.5,137.5,295,48,Masters 1,SBD,Single-ply,F
4,Lee-Anne Dwarte,1966,Australia,47.7,-102.5,102.5,107.5,107.5,42.5,-47.5,50,50,130,132.5,-135,132.5,290,48,Masters 1,SBD,Single-ply,F
5,Kimberly Ryman,1962,USA,47.4,85,95,-105,95,50,55,57.5,57.5,110,122.5,130,130,282.5,48,Masters 1,SBD,Single-ply,F
1,Magdolna Petróczki,1968,Hungary,50.4,130,140,147.5,147.5,75,-80,-80,75,140,150,157.5,157.5,380,52,Masters 1,SBD,Single-ply,F
2,Mika Teramura,1962,Japan,51.6,125,-135,135,135,75,77.5,80,80,130,137.5,142.5,142.5,357.5,52,Masters 1,SBD,Single-ply,F
3,Paula Wright,1967,Canada,50.5,105,110,-115,110,60,62.5,-70,62.5,112.5,117.5,120,120,292.5,52,Masters 1,SBD,Single-ply,F
4,Gill Smith,1968,South Africa,51.4,105,115,-120,115,60,-65,65,65,100,110,-115,110,290,52,Masters 1,SBD,Single-ply,F
DQ,Merlina Medina,1968,Philippines,51.8,-135,-140,-140,,80,82.5,90,90,115,120,-122.5,120,,52,Masters 1,SBD,Single-ply,F
1,Jeannette Gevers,1962,Australia,55.5,152.5,-157.5,-157.5,152.5,82.5,-87.5,-87.5,82.5,142.5,-147.5,-147.5,142.5,377.5,56,Masters 1,SBD,Single-ply,F
2,Antoinette Kemper,1964,USA,55.4,127.5,135,-142.5,135,75,77.5,-80,77.5,145,155,-165,155,367.5,56,Masters 1,SBD,Single-ply,F
3,Joni Mach,1965,USA,54.9,130,137.5,-142.5,137.5,62.5,67.5,70,70,122.5,135,-137.5,135,342.5,56,Masters 1,SBD,Single-ply,F
4,Helen Allen,1967,Australia,55.6,100,112.5,115,115,60,-67.5,-67.5,60,142.5,-152.5,-152.5,142.5,317.5,56,Masters 1,SBD,Single-ply,F
5,Yukiko Yanagisawa,1967,Japan,55.3,105,115,120,120,50,55,-57.5,55,105,110,112.5,112.5,287.5,56,Masters 1,SBD,Single-ply,F
1,Angela Simons,1961,USA,56.7,120,-127.5,127.5,127.5,72.5,85,-92.5,85,122.5,132.5,140,140,352.5,60,Masters 1,SBD,Single-ply,F
2,Lisa Stokes,1967,Australia,59.6,105,112.5,122.5,122.5,72.5,-75,75,75,130,137.5,140,140,337.5,60,Masters 1,SBD,Single-ply,F
3,Wing-Yuk Ip,1961,Hong Kong,57.4,105,-115,115,115,70,-72.5,-72.5,70,125,135,142.5,142.5,327.5,60,Masters 1,SBD,Single-ply,F
4,Robyn Gleeson,1963,Australia,59.3,-115,115,122.5,122.5,55,60,-62.5,60,135,142.5,145,145,327.5,60,Masters 1,SBD,Single-ply,F
5,Hesterki Range,1967,South Africa,56.1,90,100,-115,100,-55,55,-60,55,110,-117.5,117.5,117.5,272.5,60,Masters 1,SBD,Single-ply,F
DD,Miriam Gonzalez,1967,Colombia,60,140,,,140,,,,,,,,,,60,Masters 1,SBD,Single-ply,F
1,Tatyana Zubkova,1967,Russia,65.9,150,160,170,170,75,80,-85,80,182.5,192.5,202.5,202.5,452.5,67.5,Masters 1,SBD,Single-ply,F
2,Donna Marts,1960,USA,66.6,132.5,142.5,150,150,92.5,100,105,105,140,155,160,160,415,67.5,Masters 1,SBD,Single-ply,F
3,Jackie Pritchard,1963,Canada,66.8,140,152.5,157.5,157.5,90,-92.5,92.5,92.5,147.5,-162.5,-167.5,147.5,397.5,67.5,Masters 1,SBD,Single-ply,F
4,Marie Soffe,1960,New Zealand,66.4,120,127.5,-132.5,127.5,77.5,82.5,-87.5,82.5,162.5,172.5,177.5,177.5,387.5,67.5,Masters 1,SBD,Single-ply,F
5,Ines Naarmann,1968,Germany,65.8,115,125,132.5,132.5,72.5,75,-77.5,75,125,-132.5,-132.5,125,332.5,67.5,Masters 1,SBD,Single-ply,F
6,Joanna Banks,1961,UK,65.9,-115,-115,115,115,57.5,62.5,-65,62.5,125,135,-142.5,135,312.5,67.5,Masters 1,SBD,Single-ply,F
DQ,Paula Houston,1961,USA,66.3,-165,-165,-165,,102.5,107.5,-110,107.5,165,-175,-177.5,165,,67.5,Masters 1,SBD,Single-ply,F
1,Jackie Blasbery,1963,UK,74.4,150,160,165,165,95,105,107.5,107.5,170,180,187.5,187.5,460,75,Masters 1,SBD,Single-ply,F
2,Laura Styrlund,1964,USA,74,152.5,160,-162.5,160,105,110,-117.5,110,165,180,-187.5,180,450,75,Masters 1,SBD,Single-ply,F
3,Lucía Feraud,1965,Ecuador,74.6,-170,170,180,180,-90,90,-100,90,150,160,-170,160,430,75,Masters 1,SBD,Single-ply,F
4,Sybille Hampel,1967,Germany,73.6,120,132.5,142.5,142.5,-72.5,72.5,75,75,125,135,-145,135,352.5,75,Masters 1,SBD,Single-ply,F
5,Elina Aalto,1963,Finland,71.4,115,-122.5,-125,115,85,-90,-90,85,120,127.5,-132.5,127.5,327.5,75,Masters 1,SBD,Single-ply,F
6,Minna Mäkinen,1968,Finland,68.5,105,112.5,-122.5,112.5,52.5,57.5,60,60,105,115,122.5,122.5,295,75,Masters 1,SBD,Single-ply,F
DQ,Karen Allison,1960,Canada,72.6,-120,120,127.5,127.5,-75,-75,-75,,132.5,-142.5,-142.5,132.5,,75,Masters 1,SBD,Single-ply,F
1,Jean Maton,1963,UK,81.7,160,-165,-165,160,100,110,112.5,112.5,170,180,-185,180,452.5,82.5,Masters 1,SBD,Single-ply,F
2,Valerie Ritchie,1967,UK,79.1,150,160,170,170,100,-107.5,-107.5,100,-170,-170,170,170,440,82.5,Masters 1,SBD,Single-ply,F
3,Ulrike Hofmann,1961,Germany,75.4,-110,-117.5,120,120,67.5,-72.5,72.5,72.5,115,125,-135,125,317.5,82.5,Masters 1,SBD,Single-ply,F
DQ,Malinda Baum,1963,USA,81.2,-170,-170,-170,,102.5,-107.5,-107.5,102.5,177.5,-185,-200,177.5,,82.5,Masters 1,SBD,Single-ply,F
1,Erlina Pecante,1964,Philippines,85.2,200,-211,211,211,105,120,127.5,127.5,180,187.5,202.5,202.5,541,90,Masters 1,SBD,Single-ply,F
2,Jill Arnow,1959,USA,89,177.5,-187.5,-187.5,177.5,122.5,-127.5,127.5,127.5,177.5,187.5,-190,187.5,492.5,90,Masters 1,SBD,Single-ply,F
3,Anita Ras,1966,South Africa,82.6,100,-115,-115,100,60,65,-72.5,65,110,122.5,130,130,295,90,Masters 1,SBD,Single-ply,F
1,Joanne Schaefer,1967,Netherlands,106.2,210,230,-245,230,170,177.5,182.5,182.5,200,212.5,220,220,632.5,90+,Masters 1,SBD,Single-ply,F
1,Yasuhiro Sotowa,1954,Japan,55.4,165,177.5,182.5,182.5,90,95,-97.5,95,170,180,185,185,462.5,56,Masters 2,SBD,Single-ply,M
1,Hiroyuki Isagawa,1953,Japan,57.4,205,-217.5,220,220,170,177.5,-185,177.5,215,225,-232.5,225,622.5,60,Masters 2,SBD,Single-ply,M
2,Timo Leino,1958,Finland,59.2,-160,160,170,170,110,120,125,125,170,180,-185,180,475,60,Masters 2,SBD,Single-ply,M
3,Purna Chandra Bidika,1957,India,56.8,130,140,145,145,50,60,62.5,62.5,140,150,155,155,362.5,60,Masters 2,SBD,Single-ply,M
1,John Myers,1956,Australia,67.4,195,210,220,220,117.5,125,-130,125,235,242.5,250,250,595,67.5,Masters 2,SBD,Single-ply,M
2,Réjean Talon,1957,Canada,66.2,210,-227.5,227.5,227.5,-130,130,-145,130,210,222.5,-230,222.5,580,67.5,Masters 2,SBD,Single-ply,M
3,Yoshinori Hara,1958,Japan,66,160,170,180,180,85,90,92.5,92.5,220,230,-235,230,502.5,67.5,Masters 2,SBD,Single-ply,M
4,Paul Lockett,1958,UK,66,140,150,-155,150,100,-105,105,105,165,175,180,180,435,67.5,Masters 2,SBD,Single-ply,M
5,Steen Gildesberg,1958,Denmark,64.6,140,155,-162.5,155,85,92.5,100,100,150,160,175,175,430,67.5,Masters 2,SBD,Single-ply,M
6,Paul Mears,1953,USA,66.2,162.5,-170,-170,162.5,82.5,-87.5,,82.5,170,182.5,-190,182.5,427.5,67.5,Masters 2,SBD,Single-ply,M
1,Walther Schmidt,1958,South Africa,74.1,230,237.5,-242.5,237.5,-150,-150,150,150,260,270,275,275,662.5,75,Masters 2,SBD,Single-ply,M
2,Steve Walker,1956,UK,73.5,225,235,,235,160,170,-172.5,170,245,250,-252.5,250,655,75,Masters 2,SBD,Single-ply,M
3,Raymond Guyon,1955,France,73.8,215,230,240,240,135,142.5,-150,142.5,225,240,-250,240,622.5,75,Masters 2,SBD,Single-ply,M
4,Tatsuro Tanikawa,1952,Japan,74.2,-230,-230,230,230,150,160,165,165,215,-225,-230,215,610,75,Masters 2,SBD,Single-ply,M
5,Ron Delaney,1951,Canada,74.2,205,212.5,-217.5,212.5,135,-140,-140,135,245,252.5,-255,252.5,600,75,Masters 2,SBD,Single-ply,M
6,Jorma Ollikainen,1957,Finland,74.3,220,-240,-240,220,120,-127.5,127.5,127.5,250,-265,,250,597.5,75,Masters 2,SBD,Single-ply,M
7,Bob Hindley,,Canada,74.9,230,-240,-240,230,120,125,-130,125,232.5,242.5,-255,242.5,597.5,75,Masters 2,SBD,Single-ply,M
8,Roger Remy,1953,Belgium,74.4,220,230,,230,120,-125,-125,120,230,245,-255,245,595,75,Masters 2,SBD,Single-ply,M
9,Claude Couturier,1952,France,73.2,-205,205,-215,205,-130,132.5,137.5,137.5,215,-222.5,,215,557.5,75,Masters 2,SBD,Single-ply,M
10,Stanley Macrow,1949,UK,71.6,-170,170,175,175,140,-142.5,142.5,142.5,185,192.5,-195,192.5,510,75,Masters 2,SBD,Single-ply,M
11,Karsten Gelhar,1957,Germany,73.1,180,190,-200,190,135,-140,,135,175,185,-190,185,510,75,Masters 2,SBD,Single-ply,M
12,Inderjeet Singh,1956,India,74.6,140,-150,150,150,135,145,150,150,-140,140,160,160,460,75,Masters 2,SBD,Single-ply,M
1,Jerry Marentette,1956,Canada,81.6,237.5,247.5,-252.5,247.5,167.5,175,180,180,255,260,267.5,267.5,695,82.5,Masters 2,SBD,Single-ply,M
2,William Scully,1955,USA,81.7,247.5,-262.5,262.5,262.5,-155,-155,155,155,245,255,-280,255,672.5,82.5,Masters 2,SBD,Single-ply,M
3,Arthur Little,1955,USA,75.7,-240,-240,240,240,-120,120,-130,120,250,275,-280,275,635,82.5,Masters 2,SBD,Single-ply,M
4,Louis Jacobs,1958,South Africa,77.9,220,-230,230,230,130,-140,140,140,205,220,-230,220,590,82.5,Masters 2,SBD,Single-ply,M
5,Voitto Ahopelto,1956,Finland,82.1,180,190,200,200,135,145,-150,145,180,200,-217.5,200,545,82.5,Masters 2,SBD,Single-ply,M
6,Marc Vézina,,Canada,81.4,185,-215,-215,185,130,-135,-135,130,182.5,200,222.5,222.5,537.5,82.5,Masters 2,SBD,Single-ply,M
7,Akio Fujimoto,1949,Japan,79.8,160,170,,170,140,142.5,,142.5,190,200,210,210,522.5,82.5,Masters 2,SBD,Single-ply,M
DQ,Marc Duhem,1958,France,81.3,240,250,-255,250,-185,-190,-200,,200,-220,,200,,82.5,Masters 2,SBD,Single-ply,M
DQ,Renato Dio,1956,Philippines,80.7,-250,-250,-250,,155,-157.5,,155,252.5,-255,-255,252.5,,82.5,Masters 2,SBD,Single-ply,M
1,Mike Bridges,1957,USA,89.8,277.5,-292.5,302.5,302.5,182.5,200,215,215,252.5,272.5,282.5,282.5,800,90,Masters 2,SBD,Single-ply,M
2,Eric Mauchosse,1958,France,89.8,275,290,300,300,175,180,185,185,250,265,280,280,765,90,Masters 2,SBD,Single-ply,M
3,Jens Aarhus,1954,Sweden,88.8,235,250,260,260,180,187.5,195,195,210,220,225,225,680,90,Masters 2,SBD,Single-ply,M
4,Herbert Greenidge,1954,Canada,86.9,215,225,-230,225,170,-182.5,185,185,215,225,230,230,640,90,Masters 2,SBD,Single-ply,M
5,John Fraser,1956,Canada,86.4,220,-230,-230,220,-167.5,167.5,172.5,172.5,232.5,240,-257.5,240,632.5,90,Masters 2,SBD,Single-ply,M
6,Karsten Laursen,1956,Denmark,88.5,205,217.5,222.5,222.5,150,-157.5,157.5,157.5,210,222.5,-242.5,222.5,602.5,90,Masters 2,SBD,Single-ply,M
7,Pentti Rimpilä,1956,Finland,86.9,-215,220,-227.5,220,130,135,-140,135,230,240,-257.5,240,595,90,Masters 2,SBD,Single-ply,M
1,Vonna Ray Baxter,1958,USA,91,250,265,272.5,272.5,172.5,177.5,-180,177.5,250,262.5,270,270,720,100,Masters 2,SBD,Single-ply,M
2,Kenji Sasaki,1949,Japan,98,240,257.5,265,265,170,190,-200,190,230,255,265,265,720,100,Masters 2,SBD,Single-ply,M
3,Josef Máška,1955,Czechia,97,250,255,-260,255,195,-200,200,200,255,262.5,-267.5,262.5,717.5,100,Masters 2,SBD,Single-ply,M
4,Steve Chomitz,1957,Canada,98.7,235,-245,250,250,162.5,170,177.5,177.5,250,260,-267.5,260,687.5,100,Masters 2,SBD,Single-ply,M
5,Paul Barnbrook,1957,UK,93.5,-210,225,,225,-147.5,150,152.5,152.5,265,277.5,290,290,667.5,100,Masters 2,SBD,Single-ply,M
6,Derek Allen,1958,South Africa,95.2,220,240,-257.5,240,-170,170,180,180,220,232.5,-240,232.5,652.5,100,Masters 2,SBD,Single-ply,M
7,Ilkka Ranta,1958,Finland,95.2,190,200,-210,200,-167.5,167.5,170,170,230,240,,240,610,100,Masters 2,SBD,Single-ply,M
DQ,Rüdiger Hopp,1955,Sweden,96.7,-300,-300,-300,,-155,,,-155,,,,,,100,Masters 2,SBD,Single-ply,M
1,Gary Pamplin,1957,USA,109.1,292.5,310,-320,310,237.5,250,-256,250,237.5,250,257.5,257.5,817.5,110,Masters 2,SBD,Single-ply,M
2,Thomas Högberg,1957,Sweden,106.7,-290,300,307.5,307.5,187.5,192.5,-195,192.5,300,-310,-317.5,300,800,110,Masters 2,SBD,Single-ply,M
3,Yves Ponnau,1952,France,100.2,260,270,275,275,135,140,-145,140,270,280,-287.5,280,695,110,Masters 2,SBD,Single-ply,M
4,William Sindelar,1951,USA,109.9,235,-250,-250,235,170,177.5,182.5,182.5,237.5,252.5,260,260,677.5,110,Masters 2,SBD,Single-ply,M
5,Andre Ludick,1957,South Africa,108.3,210,,,210,160,167.5,172.5,172.5,220,-230,,220,602.5,110,Masters 2,SBD,Single-ply,M
6,Satya Prakash,1958,India,102.8,-190,-190,190,190,-120,120,-130,120,160,,,160,470,110,Masters 2,SBD,Single-ply,M
1,Friedrich Hölzl,1956,Austria,117.3,-280,280,300,300,170,185,190,190,260,285,290,290,780,125,Masters 2,SBD,Single-ply,M
2,Ron Strong,1958,Canada,117.4,275,-285,285,285,175,185,-190,185,285,295,-312.5,295,765,125,Masters 2,SBD,Single-ply,M
3,Peter Smith,1958,Australia,123.4,220,250,-265,250,110,,,110,260,282.5,297.5,297.5,657.5,125,Masters 2,SBD,Single-ply,M
DQ,Allan Fuglsang,1950,Denmark,110.9,-190,-190,-190,,-192.5,192.5,-200,192.5,230,240,-252.5,240,,125,Masters 2,SBD,Single-ply,M
1,Steven Green,1951,USA,140.1,-285,285,315,315,232.5,242.5,247.5,247.5,260,290,300,300,862.5,125+,Masters 2,SBD,Single-ply,M
2,Roger Hendrix,1955,USA,135.4,320,-332.5,-340,320,-205,205,217.5,217.5,290,307.5,-325,307.5,845,125+,Masters 2,SBD,Single-ply,M
3,Eberhard Schwanke,1953,Germany,136.6,275,300,-325,300,230,240,-245,240,260,270,-277.5,270,810,125+,Masters 2,SBD,Single-ply,M
4,Klaus-Peter Bruhn,1953,Germany,127.7,140,150,-160,150,160,170,-172.5,170,160,172.5,-175,172.5,492.5,125+,Masters 2,SBD,Single-ply,M
1,Pentti Rimpi,1967,Finland,55.8,145,155,160,160,105,110,112.5,112.5,155,160,170,170,442.5,56,Masters 1,SBD,Single-ply,M
2,Satish M. Patade,1963,India,54.8,130,145,155,155,102.5,110,-112.5,110,150,162.5,-177.5,162.5,427.5,56,Masters 1,SBD,Single-ply,M
DQ,Masahiro Irie,1964,Japan,55.3,-152.5,-152.5,-152.5,,100,105,110,110,155,165,175,175,,56,Masters 1,SBD,Single-ply,M
1,Eric Kupperstein,1966,USA,60,225,-235,235,235,125,132.5,-137.5,132.5,240,250,,250,617.5,60,Masters 1,SBD,Single-ply,M
2,Takaaki Mizuno,1967,Japan,59.5,-210,210,-220,210,170,-180,-180,170,200,-210,-210,200,580,60,Masters 1,SBD,Single-ply,M
1,Karel Ruso,1965,Czechia,66.9,235,-255,255,255,100,105,107.5,107.5,220,232.5,-242.5,232.5,595,67.5,Masters 1,SBD,Single-ply,M
2,Michael Gardiner,1968,New Zealand,66.2,200,-215,215,215,125,135,140,140,230,-240,-240,230,585,67.5,Masters 1,SBD,Single-ply,M
3,Hironori Niwa,1961,Japan,67,200,210,-220,210,-120,-120,120,120,200,220,230,230,560,67.5,Masters 1,SBD,Single-ply,M
4,Bryan Brothers,1959,Canada,66.8,190,200,-205,200,95,100,105,105,202.5,212.5,-220,212.5,517.5,67.5,Masters 1,SBD,Single-ply,M
DQ,Erick Mejia,1968,Colombia,66.8,-230,-230,-230,,-115,115,-127.5,115,215,-230,-230,215,,67.5,Masters 1,SBD,Single-ply,M
1,Gregory Page,1963,USA,74.3,242.5,252.5,265,265,162.5,172.5,-180,172.5,240,260,267.5,267.5,705,75,Masters 1,SBD,Single-ply,M
2,Rick Marshall,1963,Canada,74.6,235,-247.5,247.5,247.5,160,170,-172.5,170,225,237.5,252.5,252.5,670,75,Masters 1,SBD,Single-ply,M
3,Adriano DaCosta,1963,France,73.6,247.5,260,270,270,155,-165,165,165,225,232.5,-235,232.5,667.5,75,Masters 1,SBD,Single-ply,M
4,Ari Oksanen,1964,Finland,74.8,225,232.5,-237.5,232.5,170,177.5,182.5,182.5,230,-247.5,-257.5,230,645,75,Masters 1,SBD,Single-ply,M
5,Keiichi Seo,1968,Japan,74.8,200,-217.5,220,220,152.5,160,165,165,220,-237.5,240,240,625,75,Masters 1,SBD,Single-ply,M
6,Koichi Taniguchi,1960,Japan,73.6,202.5,217.5,222.5,222.5,152.5,160,-167.5,160,225,240,-242.5,240,622.5,75,Masters 1,SBD,Single-ply,M
7,Eric Wettel,1962,France,74.2,190,200,-210,200,165,-170,-177.5,165,225,240,250,250,615,75,Masters 1,SBD,Single-ply,M
8,Allen Ottolangui,1960,UK,74.8,215,230,-237.5,230,135,142.5,145,145,215,230,-240,230,605,75,Masters 1,SBD,Single-ply,M
9,David Cheung,1965,Australia,74,200,212.5,220,220,127.5,-135,-135,127.5,205,220,-232.5,220,567.5,75,Masters 1,SBD,Single-ply,M
10,Victor Martinez,1963,Colombia,74.9,-200,200,220,220,140,160,-172.5,160,180,-200,-200,180,560,75,Masters 1,SBD,Single-ply,M
DQ,Alfonso De Vega,1965,Colombia,74.6,240,-250,,240,130,140,,140,,,,,,75,Masters 1,SBD,Single-ply,M
DD,Rabin Rabinarayan,1959,India,72.7,,,,,,,,,,,,,,75,Masters 1,SBD,Single-ply,M
DD,Pekka Anttila,1965,Finland,74.4,,,,,,,,,,,,,,75,Masters 1,SBD,Single-ply,M
1,Laddie Gibson,1965,USA,81.5,255,272.5,282.5,282.5,205,-215,215,215,272.5,-290,290,290,787.5,82.5,Masters 1,SBD,Single-ply,M
2,Rolf Hampel,1961,Germany,81.5,270,295,302.5,302.5,160,170,175,175,270,287.5,292.5,292.5,770,82.5,Masters 1,SBD,Single-ply,M
3,Sigve Valentinsen,1960,Norway,82.3,270,285,292.5,292.5,180,192.5,197.5,197.5,260,270,277.5,277.5,767.5,82.5,Masters 1,SBD,Single-ply,M
4,Keiichi Yokoi,1968,Japan,78.5,240,245,255,255,-175,175,-180,175,240,255,-260,255,685,82.5,Masters 1,SBD,Single-ply,M
5,Abdelaziz Aliouate,1965,France,81.6,250,-270,-270,250,145,-155,-155,145,260,280,-290,280,675,82.5,Masters 1,SBD,Single-ply,M
6,Erik Rasmussen,1962,Denmark,82.4,260,-275,-275,260,172.5,-182.5,-182.5,172.5,200,225,-245,225,657.5,82.5,Masters 1,SBD,Single-ply,M
7,Kouichi Fujiwara,1964,Japan,80.8,220,230,237.5,237.5,152.5,160,-165,160,230,240,245,245,642.5,82.5,Masters 1,SBD,Single-ply,M
8,Stephen King,1962,New Zealand,82.4,230,250,260,260,122.5,132.5,137.5,137.5,210,230,242.5,242.5,640,82.5,Masters 1,SBD,Single-ply,M
9,Andrew Bryant,1966,Canada,80.7,215,225,230,230,147.5,152.5,-172.5,152.5,200,210,-217.5,210,592.5,82.5,Masters 1,SBD,Single-ply,M
10,Howard Cladingbowl,1966,South Africa,81.4,195,210,-220,210,125,135,-142.5,135,210,-227.5,227.5,227.5,572.5,82.5,Masters 1,SBD,Single-ply,M
11,Bruno Hemonic,1967,France,75.2,205,-215,-215,205,130,-137.5,-140,130,220,-235,-235,220,555,82.5,Masters 1,SBD,Single-ply,M
12,Steve Fox,1961,Australia,82.5,162.5,-170,-170,162.5,-112.5,112.5,-115,112.5,165,175,185,185,460,82.5,Masters 1,SBD,Single-ply,M
DQ,Philip Guise,1965,UK,81.6,-222.5,222.5,-237.5,222.5,-180,-180,-182.5,,-215,,,-215,,82.5,Masters 1,SBD,Single-ply,M
1,Gregory Jones,1961,USA,89.7,-297.5,-297.5,302.5,302.5,212.5,-217.5,-217.5,212.5,-292.5,300,307.5,307.5,822.5,90,Masters 1,SBD,Single-ply,M
2,Craig Terry,1964,USA,89.8,287.5,-305,305,305,152.5,-162.5,167.5,167.5,312.5,335,-352.5,335,807.5,90,Masters 1,SBD,Single-ply,M
3,Mario Schnurr,1966,Germany,87.6,-282.5,290,302.5,302.5,175,185,-190,185,280,300,310,310,797.5,90,Masters 1,SBD,Single-ply,M
4,Petteri Hakkarainen,1967,Finland,89.1,225,235,-245,235,155,162.5,167.5,167.5,230,242.5,257.5,257.5,660,90,Masters 1,SBD,Single-ply,M
5,Dominique Carlot,1960,France,85.7,-227.5,227.5,-240,227.5,160,-167.5,-167.5,160,255,270,-280,270,657.5,90,Masters 1,SBD,Single-ply,M
6,Christiaan Jordaan,1967,South Africa,89.4,215,230,240,240,120,130,-135,130,215,230,237.5,237.5,607.5,90,Masters 1,SBD,Single-ply,M
DQ,Jeff Becker,1963,Canada,88.5,-302.5,-302.5,-302.5,,,,,,,,,,,90,Masters 1,SBD,Single-ply,M
DQ,Seppo Norpila,1963,Finland,90,-215,-220,-220,,-175,-177.5,177.5,177.5,235,250,-255,250,,90,Masters 1,SBD,Single-ply,M
DQ,Jan Edvard Jensen,1959,Norway,89.9,250,260,270,270,-172.5,-175,-175,,240,250,-255,250,,90,Masters 1,SBD,Single-ply,M
DD,Prince Nwampka,1964,Nigeria,82.7,,,,,,,,,,,,,,90,Masters 1,SBD,Single-ply,M
DD,Jean-Philippe Meraut,1968,France,88.7,,,,,,,,,,,,,,90,Masters 1,SBD,Single-ply,M
1,Jan-Roger Johansen,1967,Norway,99.2,320,337.5,345,345,185,190,192.5,192.5,282.5,290,-302.5,290,827.5,100,Masters 1,SBD,Single-ply,M
2,Dave Dunford,1967,New Zealand,99.4,275,290,302.5,302.5,205,212.5,-217.5,212.5,270,285,290,290,805,100,Masters 1,SBD,Single-ply,M
3,Peter Edward Torres,1965,Philippines,98.2,-310,310,320,320,170,-175,-175,170,-310,310,-315,310,800,100,Masters 1,SBD,Single-ply,M
4,James Brown,1965,USA,92.1,275,290,297.5,297.5,-210,215,220,220,240,255,-260,255,772.5,100,Masters 1,SBD,Single-ply,M
5,Imrich Švec,1966,Slovakia,99.6,-290,290,-300,290,-210,210,215,215,-260,260,-270,260,765,100,Masters 1,SBD,Single-ply,M
6,Martin Larsen,1966,Denmark,99.7,290,302.5,-305,302.5,-175,-175,180,180,245,260,267.5,267.5,750,100,Masters 1,SBD,Single-ply,M
7,TS Adewale,1965,UK,90.9,275,-295,-295,275,155,165,167.5,167.5,290,-300,-302.5,290,732.5,100,Masters 1,SBD,Single-ply,M
8,Edward Anderson,1961,New Zealand,98.7,255,270,275,275,165,175,-180,175,240,250,-255,250,700,100,Masters 1,SBD,Single-ply,M
9,Antti Timonen,1961,Finland,93.7,230,240,-245,240,160,-165,165,165,235,245,-255,245,650,100,Masters 1,SBD,Single-ply,M
DQ,Gavin Turrell,1967,Australia,99.1,215,225,-235,225,-185,-185,-185,,245,255,265,265,,100,Masters 1,SBD,Single-ply,M
DQ,Harri Hagfors,1961,Finland,99.2,-265,-275,-275,,190,197.5,-205,197.5,285,292.5,-312.5,292.5,,100,Masters 1,SBD,Single-ply,M
1,Alvin Fritz,1968,USA,109.8,-330,330,-347.5,330,225,-235,-235,225,285,-295,,285,840,110,Masters 1,SBD,Single-ply,M
2,François Kalic,1965,France,100.8,290,300,305,305,192.5,-200,200,200,270,280,285,285,790,110,Masters 1,SBD,Single-ply,M
3,Jari Niskanen,1963,Finland,109.6,-280,280,-290,280,200,207.5,-212.5,207.5,270,280,282.5,282.5,770,110,Masters 1,SBD,Single-ply,M
4,Steve Lousich,1965,New Zealand,108.9,265,275,282.5,282.5,227.5,235,240,240,230,242.5,-252.5,242.5,765,110,Masters 1,SBD,Single-ply,M
5,Michal Šafařík,1967,Czechia,106,-270,280,-290,280,-195,-195,200,200,225,250,-260,250,730,110,Masters 1,SBD,Single-ply,M
6,Werner Kampl,1964,Austria,106.9,225,-255,255,255,155,165,,165,285,297.5,302.5,302.5,722.5,110,Masters 1,SBD,Single-ply,M
7,Julio Samper Fontalvo,1960,Colombia,107.7,280,-305,-305,280,140,-145,,140,270,280,-287.5,280,700,110,Masters 1,SBD,Single-ply,M
DQ,Juho Jaatinen,1966,Finland,108.8,-305,-305,-305,,,,,,,,,,,110,Masters 1,SBD,Single-ply,M
1,Anthony Harris,1964,USA,112.8,375,385,,385,220,-227.5,-227.5,220,330,355,-365,355,960,125,Masters 1,SBD,Single-ply,M
2,Andrew Logan,1966,Australia,123.2,322.5,337.5,-352.5,337.5,200,-210,-210,200,300,315,320,320,857.5,125,Masters 1,SBD,Single-ply,M
3,Aulis Aalto,1962,Finland,117.7,285,300,-310,300,-222.5,222.5,227.5,227.5,275,295,-330,295,822.5,125,Masters 1,SBD,Single-ply,M
1,Brad Gillingham,1966,USA,148.9,360,380,390,390,265,272.5,-275,272.5,355,377.5,395,395,1057.5,125+,Masters 1,SBD,Single-ply,M
2,Scott Andeson,1964,Canada,127.3,255,267.5,277.5,277.5,172.5,182.5,190,190,235,245,-252.5,245,712.5,125+,Masters 1,SBD,Single-ply,M
3,Andreas Reiners,1968,Australia,125.6,260,-280,-280,260,120,-175,-200,120,220,240,-255,240,620,125+,Masters 1,SBD,Single-ply,M
4,Jan Seutlwadi,1961,South Africa,142.5,130,170,200,200,130,-160,-160,130,200,230,-242.5,230,560,125+,Masters 1,SBD,Single-ply,M
DD,Virginijus Kairevičius,1960,Lithuania,135.6,,,,,,,,,,,,,,125+,Masters 1,SBD,Single-ply,M
1,Vuokko Viitasaari,1954,Finland,47.4,110,120,130,130,60,65,-70,65,120,135,140,140,335,48,Masters 2,SBD,Single-ply,F
1,Eila Kumpuniemi,1942,Finland,47.3,85,92.5,97.5,97.5,50,57.5,-60,57.5,105,112.5,117.5,117.5,272.5,48,Masters 3,SBD,Single-ply,F
DQ,Seija Turunen,1947,Finland,46.9,,,,,,,,,,,,,,48,Masters 2,SBD,Single-ply,F
1,Leonora Catalina Oca,1956,Philippines,51.5,115,-120,-120,115,60,65,-75,65,125,127.5,-140,127.5,307.5,52,Masters 2,SBD,Single-ply,F
2,Cecile Romano,1958,France,51.2,110,-115,115,115,70,72.5,-75,72.5,110,117.5,-125,117.5,305,52,Masters 2,SBD,Single-ply,F
1,Jenny Hunter,1958,UK,55.3,130,135,-140,135,80,-85,85,85,150,160,-165,160,380,56,Masters 2,SBD,Single-ply,F
2,Kate Dingle-Craig,1957,USA,55.4,-115,115,127.5,127.5,60,67.5,72.5,72.5,120,130,137.5,137.5,337.5,56,Masters 2,SBD,Single-ply,F
3,Lucienne Arnal,1957,France,52.5,-115,-115,115,115,67.5,70,72.5,72.5,120,130,142.5,142.5,330,56,Masters 2,SBD,Single-ply,F
4,Janet Warne,1952,Canada,55.1,105,112.5,-117.5,112.5,62.5,65,-67.5,65,112.5,120,-125,120,297.5,56,Masters 2,SBD,Single-ply,F
1,Friederike Pfeiffer,1952,Austria,59.5,120,127.5,132.5,132.5,67.5,70,72.5,72.5,150,157.5,162.5,162.5,367.5,60,Masters 2,SBD,Single-ply,F
2,Rita Carlsson,1952,USA,58.7,117.5,127.5,132.5,132.5,60,-62.5,-62.5,60,147.5,155,-175,155,347.5,60,Masters 2,SBD,Single-ply,F
3,Jane Lessard,1953,Canada,58.9,107.5,112.5,120,120,62.5,67.5,-75,67.5,115,120,-125,120,307.5,60,Masters 2,SBD,Single-ply,F
1,Faith Ireland,1942,USA,59.2,97.5,105,110,110,62.5,-67.5,-67.5,62.5,117.5,-125,125,125,297.5,60,Masters 3,SBD,Single-ply,F
4,Ritva Vainio,1949,Finland,59.5,72.5,80,-82.5,80,-45,45,47.5,47.5,90,95,-102.5,95,222.5,60,Masters 2,SBD,Single-ply,F
1,Ruth Welding,1956,USA,65,127.5,137.5,145,145,67.5,72.5,75,75,142.5,152.5,160,160,380,67.5,Masters 2,SBD,Single-ply,F
2,Debra Duffy-Smet,1957,USA,66.2,87.5,100,112.5,112.5,-80,80,85,85,120,137.5,-152.5,137.5,335,67.5,Masters 2,SBD,Single-ply,F
3,Linda Squires,1952,Canada,66.6,120,127.5,-132.5,127.5,-70,70,-75,70,122.5,130,-140,130,327.5,67.5,Masters 2,SBD,Single-ply,F
4,May-Gun Grönholm,1955,Finland,63.9,105,110,-115,110,57.5,-62.5,-62.5,57.5,135,142.5,145,145,312.5,67.5,Masters 2,SBD,Single-ply,F
5,Patricia Buckman,1958,New Zealand,67.2,85,95,100,100,65,70,75,75,110,120,125,125,300,67.5,Masters 2,SBD,Single-ply,F
1,Debbie Turner,1954,New Zealand,73.4,-155,-155,155,155,97.5,102.5,105,105,140,155,157.5,157.5,417.5,75,Masters 2,SBD,Single-ply,F
2,Terry Lee,1954,USA,67.7,122.5,-130,-130,122.5,85,90,-92.5,90,132.5,140,145,145,357.5,75,Masters 2,SBD,Single-ply,F
1,Sonja McKinlay,1943,USA,71.9,100,112.5,-117.5,112.5,80,82.5,85,85,112.5,-125,130,130,327.5,75,Masters 3,SBD,Single-ply,F
3,Gina Stepleton,1958,USA,68.1,82.5,-92.5,95,95,52.5,57.5,60,60,95,105,-110,105,260,75,Masters 2,SBD,Single-ply,F
DQ,Jane Smith,1956,Canada,70.7,-120,,,-120,62.5,67.5,72.5,72.5,85,105,-115,105,,75,Masters 2,SBD,Single-ply,F
DQ,Irene King,1954,Canada,74.1,-140,-145,-145,,-100,100,-105,100,150,-157.5,-157.5,150,,75,Masters 2,SBD,Single-ply,F
DQ,Michelle Sora,1956,USA,82.5,-112.5,-112.5,-112.5,,100,-105,-110,100,142.5,150,-155,150,,82.5,Masters 2,SBD,Single-ply,F
DD,Edda Hrönn Atladóttir,1958,Iceland,82.4,,,,,,,,,,,,,,82.5,Masters 2,SBD,Single-ply,F
1,Susan Hollands,1951,UK,83.9,-170,170,-180,170,75,82.5,85,85,155,165,-170,165,420,90,Masters 2,SBD,Single-ply,F
1,Nora Langdon,1942,USA,83,135,142.5,150,150,60,-67.5,67.5,67.5,142.5,152.5,-160,152.5,370,90,Masters 3,SBD,Single-ply,F
1,Harriet Hall,1948,USA,106.6,210,-225,-225,210,120,-130,-130,120,180,190,-195,190,520,90+,Masters 2,SBD,Single-ply,F
2,Senimili Turner,1953,Fiji,119.8,-165,170,180,180,95,-105,105,105,170,180,-185,180,465,90+,Masters 2,SBD,Single-ply,F
3,Susan Hallen,1957,USA,113.2,140,-155,155,155,100,110,-120,110,130,140,150,150,415,90+,Masters 2,SBD,Single-ply,F
1,Alexander Galant,1947,USA,54.4,137.5,147.5,152.5,152.5,65,72.5,-75,72.5,137.5,150,155,155,380,56,Masters 3,SBD,Single-ply,M
2,Kim-Won Pok,1940,Hong Kong,52.1,105,115,-125,115,75,77.5,82.5,82.5,125,137.5,-147.5,137.5,335,56,Masters 3,SBD,Single-ply,M
1,Hidetoshi Marumoto,1947,Japan,59.3,195,-205,-205,195,100,105,-107.5,105,180,-190,-190,180,480,60,Masters 3,SBD,Single-ply,M
2,Katsuo Iwakami,1943,Japan,57.8,-140,-140,140,140,107.5,-112.5,-112.5,107.5,140,145,-150,145,392.5,60,Masters 3,SBD,Single-ply,M
1,Jeff Jacobs,1947,USA,65.9,182.5,190,195,195,107.5,-115,-115,107.5,200,215,227.5,227.5,530,67.5,Masters 3,SBD,Single-ply,M
2,Max Bristow,1944,Australia,66.9,160,172.5,180,180,80,85,90,90,222.5,230,235,235,505,67.5,Masters 3,SBD,Single-ply,M
3,Hiroaki Suzuki,1936,Japan,67.1,200,-212.5,-212.5,200,80,87.5,-97.5,87.5,175,-185,185,185,472.5,67.5,Masters 3,SBD,Single-ply,M
4,Jacques Beauverger,1946,France,66.8,145,-150,,145,90,-92.5,-92.5,90,190,-195,-195,190,425,67.5,Masters 3,SBD,Single-ply,M
1,Jack Wolff,1938,USA,66,120,130,135,135,70,85,-92.5,85,,170,182.5,182.5,402.5,67.5,Masters 4,SBD,Single-ply,M
5,Roger Powell,1936,UK,66,120,130,137.5,137.5,60,70,80,80,160,170,-177.5,170,387.5,67.5,Masters 3,SBD,Single-ply,M
1,Jean-Louis Dumoulin,1943,France,73.4,195,-205,-205,195,-140,140,,140,190,207.5,212.5,212.5,547.5,75,Masters 3,SBD,Single-ply,M
2,Dan Oppenheim,1945,South Africa,74,170,185,-195,185,115,120,125,125,190,202.5,215,215,525,75,Masters 3,SBD,Single-ply,M
3,Amrik Singh,1945,UK,73.4,172.5,182.5,-187.5,182.5,107.5,112.5,-115,112.5,197.5,205,210,210,505,75,Masters 3,SBD,Single-ply,M
1,Bennie Brent,1937,USA,72.9,-185,185,-195,185,85,90,-92.5,90,205,215,220,220,495,75,Masters 4,SBD,Single-ply,M
4,Mitsuru Osawa,1941,Japan,74.25,175,-185,190,190,110,115,-120,115,180,190,-200,190,495,75,Masters 3,SBD,Single-ply,M
5,Sam Alduenda,1942,USA,73.7,185,195,-207.5,195,25,-35,,25,205,222.5,230,230,450,75,Masters 3,SBD,Single-ply,M
1,Fred Archambault,1923,USA,72,145,155,160,160,-80,80,90,90,160,170,-175,170,420,75,Masters 4,SBD,Single-ply,M
1,Günter Lüdecke,1948,Germany,82,205,215,225,225,130,-135,-135,130,210,225,-237.5,225,580,82.5,Masters 3,SBD,Single-ply,M
2,Heikki Malkavaara,1945,Finland,81.2,-170,-170,170,170,100,-110,110,110,170,180,187.5,187.5,467.5,82.5,Masters 3,SBD,Single-ply,M
3,Daniel Reybrouck,1942,Belgium,80.6,157.5,170,-175,170,115,-122.5,122.5,122.5,150,162.5,172.5,172.5,465,82.5,Masters 3,SBD,Single-ply,M
1,Dennis Unitt,1934,UK,81.4,130,140,-147.5,140,70,75,80,80,140,150,165,165,385,82.5,Masters 4,SBD,Single-ply,M
DQ,Toshio Kitano,1946,Japan,81.9,-225,-230,-230,,160,170,175,175,220,230,237.5,237.5,,82.5,Masters 3,SBD,Single-ply,M
1,Olício dos Santos Filho,1944,Brazil,88.9,200,220,240,240,145,-152.5,-160,145,285,305,-310,305,690,90,Masters 3,SBD,Single-ply,M
2,Kari Mattila,1945,Sweden,89.8,210,220,230,230,-135,140,145,145,245,255,260,260,635,90,Masters 3,SBD,Single-ply,M
3,Michael Ellender,1945,UK,89.1,-205,205,212.5,212.5,140,150,-157.5,150,240,250,-255,250,612.5,90,Masters 3,SBD,Single-ply,M
4,David Battisson,1945,UK,88.6,210,-220,-220,210,150,-155,-155,150,240,-250,-252.5,240,600,90,Masters 3,SBD,Single-ply,M
5,William Lindsey,1946,USA,88.6,190,-205,-205,190,167.5,-175,-175,167.5,192.5,200,-202.5,200,557.5,90,Masters 3,SBD,Single-ply,M
1,François Chazelle,1938,France,87,-200,-200,200,200,100,105,-110,105,225,235,-245,235,540,90,Masters 4,SBD,Single-ply,M
6,Emmanuel M'Bongue,1944,France,85.1,207.5,-215,220,220,110,120,-135,120,180,200,,200,540,90,Masters 3,SBD,Single-ply,M
7,Jack Taylor #1,1941,Canada,89.2,157.5,167.5,177.5,177.5,117.5,-130,-130,117.5,170,180,190,190,485,90,Masters 3,SBD,Single-ply,M
8,Luis Angel Comelli,1942,Argentina,89,170,172.5,-200,172.5,105,-110,-110,105,170,190,-210,190,467.5,90,Masters 3,SBD,Single-ply,M
9,Tapani Puhakka,1944,Finland,87.7,-135,135,-145,135,-115,115,120,120,180,195,-202.5,195,450,90,Masters 3,SBD,Single-ply,M
1,Christian Buchs,1947,France,98.8,280,292.5,300,300,135,145,150,150,220,240,250,250,700,100,Masters 3,SBD,Single-ply,M
2,William Rice,1944,USA,90.4,210,-227.5,227.5,227.5,100,107.5,110,110,245,260,-262.5,260,597.5,100,Masters 3,SBD,Single-ply,M
3,Hans Pietzsch,1948,Germany,90.6,205,-215,-215,205,160,-165,165,165,202.5,210,215,215,585,100,Masters 3,SBD,Single-ply,M
4,Finn Knudsen,1947,Denmark,98.5,160,180,190,190,175,182.5,-185,182.5,170,192.5,210,210,582.5,100,Masters 3,SBD,Single-ply,M
5,Julien Paviot,1940,France,98.5,-200,200,-210,200,125,-135,135,135,245,-255,-255,245,580,100,Masters 3,SBD,Single-ply,M
6,Laurie Greenidge,1948,Canada,92.5,-210,210,-217.5,210,140,150,152.5,152.5,205,212.5,-222.5,212.5,575,100,Masters 3,SBD,Single-ply,M
7,Václav Primus,1948,Czechia,98.3,185,-195,-200,185,140,-145,-145,140,217.5,227.5,232.5,232.5,557.5,100,Masters 3,SBD,Single-ply,M
8,Thomas Arrington,1939,USA,98.9,190,205,210,210,-120,120,130,130,190,200,210,210,550,100,Masters 3,SBD,Single-ply,M
9,Tapio Kähäri,1946,Finland,93.7,200,210,-220,210,115,120,127.5,127.5,190,210,,210,547.5,100,Masters 3,SBD,Single-ply,M
1,Darshan Gill,1937,Canada,91,170,-180,180,180,125,135,-137.5,135,185,195,200,200,515,100,Masters 4,SBD,Single-ply,M
2,William Helmich,1942,USA,102.8,217.5,-230,230,230,-170,-170,170,170,257.5,265,272.5,272.5,672.5,110,Masters 3,SBD,Single-ply,M
DD,Sivert Jörgensen,1948,Sweden,104.7,,,,,,,,,,,,,,110,Masters 3,SBD,Single-ply,M
1,Colin Bonneau,,Canada,117.7,210,-225,227.5,227.5,-230,-230,230,230,-210,210,-215,210,667.5,125,Masters 3,SBD,Single-ply,M
2,Creighton Taylor,1946,USA,112.8,-227.5,227.5,242.5,242.5,150,-157.5,157.5,157.5,207.5,227.5,232.5,232.5,632.5,125,Masters 3,SBD,Single-ply,M
3,Truls Kristensen,1939,Norway,110.8,-237.5,237.5,250,250,130,-150,150,150,207.5,220,-227.5,220,620,125,Masters 3,SBD,Single-ply,M
1,Rudolf Attelmann,1936,Germany,113.3,155,165,-175,165,130,135,-140,135,165,175,185,185,485,125,Masters 4,SBD,Single-ply,M
1,Raimo Sandelin,1940,Finland,128.5,165,180,,180,-145,145,-155,145,170,190,202.5,202.5,527.5,125+,Masters 3,SBD,Single-ply,M
2,Harry Heyman,1942,USA,128.8,-190,190,-200,190,107.5,-112.5,112.5,112.5,200,-215,-215,200,502.5,125+,Masters 3,SBD,Single-ply,M
3,Georg Boström,1947,Sweden,125.1,105,,,105,90,107.5,112.5,112.5,125,,,125,342.5,125+,Masters 3,SBD,Single-ply,M
