Place,Name,Division,BodyweightKg,Squat1Kg,Squat2Kg,Squat3Kg,Best3SquatKg,Squat4Kg,Bench1Kg,Bench2Kg,Bench3Kg,Bench4Kg,Best3BenchKg,Deadlift1Kg,Deadlift2Kg,Deadlift3Kg,Best3DeadliftKg,Deadlift4Kg,TotalKg,WeightClassKg,Sex,CyrillicName,Tested,BirthYear,Equipment,Event
1,Albina Boyko,O,47,80,85,-90,85,,45,47.5,-50,,47.5,90,100,-105,100,,232.5,48,F,Альбіна Бойко,Yes,1982,Wraps,SBD
1,Tetyana Red'ko,T3,49.5,65,75,-85,75,,40,-45,-45,,40,65,75,85,85,,200,52,F,Тетяна Редько,Yes,1993,Wraps,SBD
1,Valeriya Pozdnyakova,J,51.5,85,95,-97.5,95,,47.5,-55,55,,55,100,115,117.5,117.5,,267.5,52,F,Валерия Позднякова,Yes,1991,Wraps,SBD
1,Mariya Markovych,O,51.3,55,60,-62.5,60,,37.5,40,-42.5,,40,-75,-75,75,75,,175,52,F,Марія Маркович,Yes,1985,Wraps,SBD
1,Olga Negodyuk,M1,51.5,95,100,-102.5,100,,57.5,60,-62.5,,60,125,130,-132.5,130,,290,52,F,Ольга Негодюк,Yes,1968,Wraps,SBD
1,Svitlana Nesterova,O,54.9,60,70,-80,70,,40,-42.5,-42.5,,40,70,80,-85,80,,190,56,F,Світлана Нестерова,Yes,1975,Wraps,SBD
1,Anastasiya Serdyuk,T3,62.2,75,80,85,85,,40,45,-50,,45,-105,105,115,115,,245,67.5,F,Анастасія Сердюк,Yes,1992,Wraps,SBD
1,Nelya Obikhodenko,O,62.3,80,85,90,90,,-52.5,57.5,62.5,,62.5,100,110,115,115,,267.5,67.5,F,Неля Обиходенко,Yes,1982,Wraps,SBD
1,Svitlana Sheremenko,M3,67.1,95,97.5,-100,97.5,,60,62.5,-65,,62.5,125,130,-132.5,130,,290,67.5,F,Світлана Шеременко,Yes,1959,Wraps,SBD
1,Alla Kryshtaleva,M4,69,85,90,95,95,,47.5,52.5,-55,,52.5,100,110,-112.5,110,,257.5,75,F,Алла Криштальова,Yes,1956,Wraps,SBD
1,Mykyta Karaulov,T2,50.6,80,85,92.5,92.5,,65,-72.5,72.5,,72.5,110,120,-130,120,,285,52,M,Микита Караулов,Yes,1994,Wraps,SBD
1,Kostyantin Sheychenko,T2,52.5,80,90,95,95,101,60,70,-72.5,,70,90,100,110,110,116,275,56,M,Костянтин Шейченко,Yes,1995,Wraps,SBD
1,Oleksandr Artyukh,T3,59.9,-100,100,-110,100,,60,67.5,70,,70,150,170.5,175,175,,345,60,M,Олександр Артюх,Yes,1993,Wraps,SBD
1,Sergiy Chernov,O,58.8,130,-140,145,145,,100,-110,110,,110,190,-200,-200,190,,445,60,M,Сергій Чернов,Yes,1986,Wraps,SBD
2,Rostyslav Borovskyy,O,58.4,-110,120,130,130,,105,110,115,,115,120,135,,135,,380,60,M,Ростислав Боровський,Yes,1986,Wraps,SBD
1,Elisey Khomenko,T1,67.5,60,-70,70,70,,40,50,60,,60,80,90,-100,90,,220,67.5,M,Єлісей Хоменко,Yes,1998,Wraps,SBD
1,Yevgen Kravets,T2,65.7,120,130,-135,130,,-100,-100,100,,100,170,180,190,190,,420,67.5,M,Євген Кравець,Yes,1994,Wraps,SBD
2,Vladyslav Konyaev,T2,65.6,-130,140,-145,140,,85,90,-92.5,,90,140,150,-155,150,,380,67.5,M,Владислав Коняєв,Yes,1995,Wraps,SBD
3,Artur Arutyunyan,T2,66.2,100,110,115,115,,80,90,-97.5,,90,140,150,155,155,,360,67.5,M,Артур Арутюнян,Yes,1995,Wraps,SBD
1,Andriy Makarentsev,T3,67.5,155,165,170,170,,100,105,110,,110,200,205,215.5,215.5,,495.5,67.5,M,Андрій Макаренцев,Yes,1992,Wraps,SBD
DQ,Andrey Voznyuk,T3,64.9,-150,-150,-150,,,,,,,,,,,,,,67.5,M,Андрій Вознюк,Yes,1993,Wraps,SBD
1,Mikael Oganesyan,J,67.5,135,150,160,160,,100,105,107.5,,107.5,190,215.5,220,220,,487.5,67.5,M,Мікаель Оганесян,Yes,1991,Wraps,SBD
2,Vladyslav Kupriyanenko,J,65.1,155,-160,-160,155,,105,110,115,,115,205,215,-217.5,215,,485,67.5,M,Владислав Купріяненко,Yes,1991,Wraps,SBD
1,Igor Pavlov,O,67.5,180,185,190,190,,132.5,137.5,-140,,137.5,210,217.5,-222.5,217.5,,545,67.5,M,Ігорь Павлов,Yes,1987,Wraps,SBD
2,Ivan Sulima,O,67.5,130,-140,140,140,,115,117.5,120,,120,185,195,-200,195,,455,67.5,M,Іван Сулима,Yes,1988,Wraps,SBD
1,Yevgen Boloban,T1,69.9,-150,-150,160,160,,90,100,105,,105,140,150,-155,150,,415,75,M,Євген Болобан,Yes,1996,Wraps,SBD
2,Vladislav Petrenko,T1,71.7,60,65,70,70,,60,65,-70,,65,80,85,90,90,,225,75,M,Владислав Петренко,Yes,1998,Wraps,SBD
1,Dmytro Sergus',T2,74.1,145,155,-160,155,,95,100,-105,,100,-205,205,220,220,,475,75,M,Дмитро Сергусь,Yes,1994,Wraps,SBD
2,Dmytro Perekhrest,T2,71.9,130,140,150,150,,85,95,-102.5,,95,160,170,180,180,,425,75,M,Дмитро Перехрест,Yes,1994,Wraps,SBD
3,Yevgen Toma,T2,73,130,-142.5,145,145,,80,95,-102.5,,95,155,170,175,175,,415,75,M,Євген Тома,Yes,1996,Wraps,SBD
1,Andriy Kucherenko,T3,72.7,160,170,-175,170,,100,110,115,,115,240,250,260,260,,545,75,M,Андрій Кучеренко,Yes,1992,Wraps,SBD
2,Vadim Davidenko,T3,73.8,-130,-135,135,135,,105,110,-115,,110,190,205,,205,,450,75,M,Вадим Давиденко,Yes,1992,Wraps,SBD
3,Kostyantyn Gorbunov,T3,72.8,-140,140,-145,140,,90,95,-97.5,,95,150,-170,170,170,,405,75,M,Костянтин Горбунов,Yes,1993,Wraps,SBD
DQ,Oleg Derlyuk,T3,73.2,-155,-160,-160,,,,,,,,,,,,,,75,M,Олег Дерлюк,Yes,1992,Wraps,SBD
1,Andriy Maslyak,J,75,170,185,-200,185,,140,150,-160,,150,170,185,190,190,,525,75,M,Андрій Масляк,Yes,1990,Wraps,SBD
DQ,Kostyantyn Bankov,J,75,170,190,-200,190,,105,115,120,,120,-210,-210,-210,,,,75,M,Костянтин Банков,Yes,1991,Wraps,SBD
1,Vitaliy Chmyrev,O,73.8,155,180,-200,180,,100,115,120,,120,200,220,-225,220,,520,75,M,Віталій Чмирьов,Yes,1987,Wraps,SBD
2,Anton Darda,O,68.8,147.5,-157.5,-157.5,147.5,,110,120,125,,125,-167.5,167.5,175,175,,447.5,75,M,Антон Дарда,Yes,1988,Wraps,SBD
1,Bogdan Khrapal,T1,80.7,-100,100,110,110,,85,90,92.5,,92.5,120,135,145,145,,347.5,82.5,M,Богдан Храпаль,Yes,1996,Wraps,SBD
1,Andrey Koloda,T2,81.6,162.5,175,180,180,,115,122.5,-130,,122.5,212.5,225,232.5,232.5,,535,82.5,M,Андрій Колода,Yes,1996,Wraps,SBD
2,Pavlo Grabar,T2,78.3,135,145,155,155,,100,-105,-110,,100,180,190,200,200,,455,82.5,M,Павло Грабар,Yes,1995,Wraps,SBD
1,Aleksandr Novosad,T3,77.4,-170,200,-210,200,,100,107.5,112.5,,112.5,-225,-230,247.5,247.5,,560,82.5,M,Олександр Новосад,Yes,1992,Wraps,SBD
2,Stepan Sagirov,T3,81.5,180,195,-205,195,,120,-135,135,,135,200,215,-230,215,,545,82.5,M,Степан Сагіров,Yes,1992,Wraps,SBD
3,Igor Topilin,T3,82,-185,185,-195,185,,125,130,-135,,130,205,-215,220,220,,535,82.5,M,Ігор Топілін,Yes,1992,Wraps,SBD
1,Artem Afanasyev,J,77.4,180,185,190,190,,135,142.5,-145,,142.5,210,-215,,210,,542.5,82.5,M,Артем Афанасьєв,Yes,1991,Wraps,SBD
2,Gennadiy Tsura,J,81.2,-130,130,140,140,,-90,90,-95,,90,160,170,180,180,,410,82.5,M,Геннадій Цура,Yes,1990,Wraps,SBD
3,Roman Dubina,J,78.8,135,142.5,-150,142.5,,90,100,105,,105,145,155,160,160,,407.5,82.5,M,Роман Дубіна,Yes,1990,Wraps,SBD
DQ,Oleg Ovsyanik,J,81.3,-180,-180,,,,,,,,,,,,,,,82.5,M,Олег Овсяник,Yes,1991,Wraps,SBD
NS,Sergiy Skorodumov,J,82.5,,,,,,,,,,,,,,,,,82.5,M,Сергій Скородумов,Yes,1991,Wraps,SBD
1,Eduard Dolgov,O,82.1,230,240,-245,240,,162.5,172.5,177.5,,177.5,255,265,,265,,682.5,82.5,M,Едуард Долгов,Yes,1987,Wraps,SBD
2,Yaroslav Litvinenko,O,82.5,190,200,-210,200,,120,132.5,137.5,,137.5,230,240,-245,240,,577.5,82.5,M,Ярослав Литвиненко,Yes,1976,Wraps,SBD
3,Bogdan Vorobey,O,80.1,-185,190,195,195,,130,135,-140,,135,215,-230,-230,215,,545,82.5,M,Богдан Воробей,Yes,1983,Wraps,SBD
4,Pavlo Kushyk,O,78.8,175,180,,180,,120,130,-140,,130,210,-230,-230,210,,520,82.5,M,Павло Кушик,Yes,1986,Wraps,SBD
6,Igor Seredyuk,O,80.2,-160,-170,170,170,,100,110,112.5,,112.5,190,-207.5,-207.5,190,,472.5,82.5,M,Ігор Середюк,Yes,1984,Wraps,SBD
1,Aleksandr Asmolov,T2,88.5,-107.5,107.5,117.5,117.5,,-95,95,100,,100,150,165,-180,165,,382.5,90,M,Александр Асмолов,Yes,1994,Wraps,SBD
1,Boris Polezhay,T3,87.7,160,170,175,175,,115,120,122.5,,122.5,200,217.5,225,225,,522.5,90,M,Борис Полежай,Yes,1993,Wraps,SBD
1,Pavlo Chygryn,J,85.9,180,-190,-190,180,,120,125,-130,,125,210,220,230,230,,535,90,M,Павло Чигрин,Yes,1989,Wraps,SBD
1,Vitaliy Alekseev,O,90,200,220,230,230,,140,145,150,,150,260,280,300,300,,680,90,M,Віталій Алексеєв,Yes,1988,Wraps,SBD
2,Oleksandr Dulan,O,88.6,240,-250,-250,240,,165,175,-180.5,,175,250,260,-270,260,,675,90,M,Олександр Дулан,Yes,1985,Wraps,SBD
3,Timofiy Kravchenko,O,88.9,180,192.5,-200,192.5,,135,140,-145,,140,225,-235,-235,225,,557.5,90,M,Тимофій Кравченко,Yes,1982,Wraps,SBD
4,Ruslan Ivanenko,O,83.3,180,-185,-185,180,,140,-145,145,,145,210,220,-225,220,,545,90,M,Руслан Іваненко,Yes,1976,Wraps,SBD
5,Roman Shpigel,O,89.7,170,180,-190,180,,115,-120,-120,,115,-240,240,-250,240,,535,90,M,Роман Шпігель,Yes,1987,Wraps,SBD
6,Maxym Trokhymchuk,O,89.7,147.5,152.5,157.5,157.5,,102.5,107.5,110,,110,-162.5,162.5,170,170,,437.5,90,M,Максим Трохимчук,Yes,1981,Wraps,SBD
1,Andriy Vasylenko,M1,87,140,150,160,160,,110,125,135,,135,175,185,195,195,,490,90,M,Андрій Василенко,Yes,1968,Wraps,SBD
1,Oleksiy Sheychenko,M2,86,115,127.5,135,135,,87.5,92.5,97.5,,97.5,150,170,,170,,402.5,90,M,Олексій Шейченко,Yes,1965,Wraps,SBD
DQ,Arkadiy Gilyan,M4,90,,,,,,,,,,,,,,,,,90,M,Аркадій Гільян,Yes,1954,Wraps,SBD
1,Valeriy Lytovchenko,M5,90,-150,150,160,160,166,90,-95,95,,95,175,185,193,193,,448,90,M,Валерій Литовченко,Yes,1948,Wraps,SBD
DQ,Volodymyr Nagalyuk,M5,83.2,160,-165.5,-165.5,160,,80,-85,-87.5,,80,-190,-195,-195,,,,90,M,Володимир Нагалюк,Yes,1951,Wraps,SBD
1,Sergiy Makarovych,J,97.5,210,-220,-225,210,,145,155,160,,160,250,260,265,265,,635,100,M,Сергій Макарович,Yes,1991,Wraps,SBD
2,Oleksandr Kostenko,J,96.6,195,210,215,215,,170,180,185,,185,205,220,230,230,,630,100,M,Олександр Костенко,Yes,1989,Wraps,SBD
3,Sergiy Ryzhikh,J,97,210,-220,-220,210,,140,-147.5,-147.5,,140,-230,230,250,250,,600,100,M,Сергій Рижих,Yes,1989,Wraps,SBD
1,Vitaliy Buryak,O,99.7,220,230,,230,,-150,150,-160,,150,250,270,-280,270,,650,100,M,Віталій Буряк,Yes,1978,Wraps,SBD
2,Igor Licherep,O,94.3,205,215,222.5,222.5,,125,132.5,137.5,,137.5,225,240,-245,240,,600,100,M,Ігор Лічереп,Yes,1979,Wraps,SBD
3,Roman Dmitrenko,O,96,185,195,210,210,,140,150,-155,,150,220,240,-260,240,,600,100,M,Роман Дмитренко,Yes,1973,Wraps,SBD
4,Dmitro Pavlenko,O,93.9,195,-210,210,210,,135,142.5,147.5,,147.5,225,240,-247.5,240,,597.5,100,M,Дмитро Павленко,Yes,1978,Wraps,SBD
5,Mykhaylo Vidyapin,O,98.5,160,180,185,185,,140,-160,160,,160,200,220,-240,220,,565,100,M,Михайло Відяпін,Yes,1985,Wraps,SBD
NS,Mikhail Slepchenko,O,99.8,,,,,,,,,,,,,,,,,100,M,Михайло Слепченко,Yes,1977,Wraps,SBD
1,Yuriy Chernyavskyy,M1,97.7,195,205,215,215,,155,165,170,,170,215,225,230,230,,615,100,M,Юрій Чернявський,Yes,1972,Wraps,SBD
1,Volodymyr Ogloblin,M2,98.2,190,200.5,,200.5,,115,120,125,,125,220.5,240.5,,240.5,,566,100,M,Володимир Оглоблін,Yes,1965,Wraps,SBD
1,Yevgen Prudnikov,J,100.2,-180,190,200,200,,120,127.5,-132.5,,127.5,190,-215,215,215,,542.5,110,M,Євген Прудніков,Yes,1988,Wraps,SBD
1,Kostyantyn Muntyan,O,109,220,-235,235,235,,-175,180,-187.5,,180,240,252.5,260,260,,675,110,M,Костянтин Мунтян,Yes,1978,Wraps,SBD
2,Yevgen Godyna,O,102.2,200,215,230,230,,150,160,-170,,160,240,255,270,270,,660,110,M,Євген Година,Yes,1987,Wraps,SBD
3,Pavlo Butrimov,O,108.4,240,250,-260,250,,155,160,165,,165,240,-245,-245,240,,655,110,M,Павло Бутрімов,Yes,1984,Wraps,SBD
4,Valentyn Bezkorovaynyy,O,108,200,210,220,220,,142.5,147.5,152.5,,152.5,220,230,235,235,,607.5,110,M,Валентин Безкоровайний,Yes,1973,Wraps,SBD
DQ,Oleksandr Kostyrya,M2,108,200,210,,210,,-160,-160,-160,,,,,,,,,110,M,Олександр Костиря,Yes,1963,Wraps,SBD
1,Sergiy Zhabitenko,M3,108.2,200,220,-225,220,,125,132.5,137.5,,137.5,202.5,220,230,230,,587.5,110,M,Сергій Жабітенко,Yes,1959,Wraps,SBD
1,Andriy Kruzhylo,O,120.5,275,285,-290,285,,182.5,-190,190,,190,285,295,300,300,,775,125,M,Андрій Кружило,Yes,1978,Wraps,SBD
2,Ruslan Vinnyk,O,110.2,190,,195,195,,130,,132.5,,132.5,215,222.5,227.5,227.5,,555,125,M,Руслан Вінник,Yes,1980,Wraps,SBD
1,Dmytro Kosenko,O,140,250,260,270,270,,192.5,202.5,207.5,,207.5,285,302.5,312.5,312.5,,790,140,M,Дмитро Косенко,Yes,1979,Wraps,SBD
DQ,Nataliya Klez,T1,59,-80,,,,,,,,,,,,,,,,60,F,Наталія Клезь,No,1998,Wraps,SBD
1,Vladyslav Fedorenko,T3,67.5,135,-145,150,150,,95,-102.5,102.5,,102.5,152.5,167.5,-172.5,167.5,,420,67.5,M,Владислав Федоренко,No,1993,Wraps,SBD
1,Mykola Bilozerov,O,65,155,162.5,-167.5,162.5,,90,100,102.5,,102.5,170,180,190,190,,455,67.5,M,Николай Белозеров,No,1982,Wraps,SBD
2,Vladimir Koval,O,66.5,115,120,125,125,,90,100,105,,105,160,175,-190,175,,405,67.5,M,Володимир Коваль,No,1980,Wraps,SBD
1,Dmytro Belyaev,T3,74.5,110,125,-135,125,,102.5,110,112.5,,112.5,135,150,-160,150,,387.5,75,M,Дмитро Беляєв,No,1993,Wraps,SBD
1,Igor Nikolayenko,J,75,185,200,-205,200,,150,-155,155,,155,220,-235,-247.5,220,,575,75,M,Ігор Ніколаєнко,No,1988,Wraps,SBD
1,Vitaliy Bilyk,T1,82.4,130,140,150,150,160,85,-92.5,-92.5,,85,165,-180,-180,165,,400,82.5,M,Віталій Білик,No,1996,Wraps,SBD
DQ,Ruslan Ryzhikh,T2,82.5,-210,-210,-210,,,,,,,,,,,,,,82.5,M,Руслан Рыжих,No,1995,Wraps,SBD
1,Andriy Ivzhenko,O,82.4,210,225,240,240,,150,160,165,,165,250,275,285,285,,690,82.5,M,Андрій Івженко,No,1977,Wraps,SBD
2,Artur Dubinin,O,77,190,205,-210,205,,145,150,155,,155,240,250,,250,,610,82.5,M,Артур Дубінін,No,1987,Wraps,SBD
3,Vasyl' Mykhalskyy,O,82.1,160,170,180,180,,100,110,120,,120,205,220,-235,220,,520,82.5,M,Василь Михальський,No,1980,Wraps,SBD
1,Bogdan Kononets,J,90,210,230,240,240,,150,170,-180,,170,220,250,-260,250,,660,90,M,Богдан Кононець,No,1989,Wraps,SBD
1,Oleksiy Matyuschenko,O,89.9,195,205,215,215,,160,167.5,172.5,,172.5,220,-235,235,235,,622.5,90,M,Олексій Матющенко,No,1986,Wraps,SBD
2,Kostyantyn Chunikhovskyy,O,87.2,-210,-210,210,210,,160,-165,165,,165,225,-235,-235,225,,600,90,M,Костянтин Чуніховський,No,1987,Wraps,SBD
3,Oleksiy Myroshnychenko,O,83.4,180,195,-210,195,,140,147.5,150,,150,200,215,-225,215,,560,90,M,Олексій Мирошниченко,No,1985,Wraps,SBD
4,Sergiy Paliyenko,O,88.4,160,172.5,,172.5,,120,127.5,132.5,,132.5,200,-230,230,230,,535,90,M,Сергій Палієнко,No,1987,Wraps,SBD
5,Andriy Avdeev,O,87.9,165,175,185,185,,125,132.5,137.5,,137.5,200,210,-217.5,210,,532.5,90,M,Андрій Авдеєв,No,1983,Wraps,SBD
6,Oleg Vychizhanin,O,88,-170,170,-177.5,170,,130,135,-140,,135,220,-225,,220,,525,90,M,Олег Вичіжанін,No,1988,Wraps,SBD
1,Oleksandr Kost',M1,89.1,180,-200,,180,,110,120,-130,,120,200,215,220,220,,520,90,M,Олександр Кость,No,1968,Wraps,SBD
1,Igor Zhadan,J,91.5,170,185,,185,,145,150,-155,,150,200,-220,-220,200,,535,100,M,Ігор Жадан,No,1988,Wraps,SBD
1,Gennadiy Zotov,O,97.9,200,215,225,225,,165,172.5,177.5,,177.5,285,300,,300,,702.5,100,M,Геннадій Зотов,No,1985,Wraps,SBD
2,Yevgen Leushyn,O,94,230,235,240,240,,160,170,-180,,170,280,290,-295,290,,700,100,M,Євген Леушин,No,1988,Wraps,SBD
3,Oleksandr Karnaukh,O,98.7,215,230,,230,,180,190,-195,,190,-250,250,-260,250,,670,100,M,Олександр Карнаух,No,1980,Wraps,SBD
4,Viktor Nakhan'kov,O,96.4,230,-240,-240,230,,140,150,-155,,150,230,250,-260,250,,630,100,M,Віктор Наханьков,No,1986,Wraps,SBD
5,Roman Klymashko,O,95,180,200,-215,200,,120,135,-145,,135,200,220,-240,220,,555,100,M,Роман Климашко,No,1986,Wraps,SBD
1,Viktor Babenko,M2,92.7,200,,,200,,150,157.5,,,157.5,220,251,,251,,608.5,100,M,Віктор Бабенко,No,1963,Wraps,SBD
1,Oleksandr Belyy,J,110,240,265,-275,265,,-160,160,-165,,160,250,270,285,285,,710,110,M,Олександр Бєлий,No,1990,Wraps,SBD
2,Oleksandr Solntsev,J,106,160,170,175,175,,110,115,,,115,210,225,,225,,515,110,M,Олександр Солнцев,No,1989,Wraps,SBD
1,Oleksandr Belyy,O,110,240,265,-275,265,,-160,160,-165,,160,250,270,285,285,,710,110,M,Олександр Бєлий,No,1990,Wraps,SBD
2,Maxym Bragin,O,107,-230,-230,230,230,,170,180,-185,,180,240,255,270,270,,680,110,M,Максим Брагін,No,1983,Wraps,SBD
3,Andriy Bobylev,O,104.3,210,-215,-215,210,,170,175,-180,,175,230,240,250,250,,635,110,M,Андрій Бобилєв,No,1976,Wraps,SBD
DQ,Maksim Abramchenko,O,126.6,-260,-260,-260,,,,,,,,,,,,,,140,M,Максим Абрамченко,No,1977,Wraps,SBD
1,Svitlana Fofanova,J,52,-130,130,135,135,,57.5,60,-65,,60,110,115,120,120,,315,52,F,Світлана Фофанова,Yes,1988,Multi-ply,SBD
1,Olena Koroeva,O,54.3,95,100,-105,100,,62.5,65,67.5,,67.5,105,-110,,105,,272.5,56,F,Олена Короєва,Yes,1983,Multi-ply,SBD
1,Anton Popov,J,69.8,170,-185,185,185,,140,145,-150,,145,-172.5,172.5,180,180,,510,75,M,Антон Попов,Yes,1989,Multi-ply,SBD
1,Volodymyr Lapunin,O,74.8,200,220,235,235,,135,142.5,147.5,,147.5,200,217.5,-225,217.5,,600,75,M,Володимир Лапунін,Yes,1975,Multi-ply,SBD
DQ,Igor Zhuk,J,81.6,230,245,-255,245,,-175,-175,-175,,,,,,,,,82.5,M,Игорь Жук,Yes,1988,Multi-ply,SBD
1,Andriy Dyatlov,O,79.7,250,265,280,280,-292.5,180,190,200,,200,235,250,,250,,730,82.5,M,Андрій Дятлов,Yes,1985,Multi-ply,SBD
1,Volodymyr Nagalyuk,M5,82.4,140,150,160,160,,70,75,80,,80,170,180,185,185,,425,82.5,M,Володимир Нагалюк,Yes,1951,Multi-ply,SBD
DQ,Oleksandr Chumak,J,90,-255,,,,,,,,,,,,,,,,90,M,Олександр Чумак,Yes,1989,Multi-ply,SBD
1,Dmytro Derevyanko,O,89.9,320,335,341,341,,200.5,-207.5,,,200.5,-260,260,270,270,,811.5,90,M,Дмитро Дерев'янко,Yes,1984,Multi-ply,SBD
2,Roman Saliy,O,88.4,285,305,325,325,,175,-185,185,,185,260,275,-290,275,,785,90,M,Роман Салій,Yes,1980,Multi-ply,SBD
1,Dmytro Kal'nin,J,99,200,215,,215,,130,140,,,140,220,240,-260,240,,595,100,M,Дмитро Кальнин,Yes,1989,Multi-ply,SBD
2,Vadym Afanasyev,J,94.7,190,210,220,220,,130,160,170,,170,180,190,-195,190,,580,100,M,Вадим Афанасьєв,Yes,1991,Multi-ply,SBD
1,Oleksandr Shvets,M1,109.9,-290,290,300,300,,190,200,205,,205,200,225,245,245,,750,110,M,Олександр Швець,Yes,1971,Multi-ply,SBD
1,Oleksandr Denisov,T3,89,280,300,310,310,,180,200,210,,210,270,290,-300,290,,810,90,M,Олександр Денисов,No,1992,Multi-ply,SBD
1,Sergiy Sokolovskyy,O,88,270,-290,290,290,,150,157.5,162.5,,162.5,-300,300,312.5,312.5,,765,90,M,Сергій Соколовський,No,1976,Multi-ply,SBD
1,Oleksandr Chalyy,T3,96,260,280,-290,280,,190,-200,-200,,190,250,270,-280,270,,740,100,M,Олександр Чалий,No,1992,Multi-ply,SBD
1,Mikhaylo Zhelyazkov,O,95.8,350,370,380,380,,235,-245,245,,245,300,315,,315,,940,100,M,Михайло Желязков,No,1980,Multi-ply,SBD
DQ,Oleksandr Nechipas,O,100,340,350,-360,350,,-270,-270,270,,270,-280,-280,-280,,,,100,M,Олександр Нечіпас,No,1986,Multi-ply,SBD
1,Sergiy Lyakhevych,T3,105.6,300,320,-330,320,,190,-200,200,,200,300,310,-320,310,,830,110,M,Сергій Ляхевич,No,1993,Multi-ply,SBD
1,Ivan Morgun,J,107,350,-370,-385,350,,220,235,-245,,235,280,315,330,330,,915,110,M,Иван Моргун,No,1990,Multi-ply,SBD
1,Anastasiya Vasylchenko,T3,44,,,,,,-40,40,45,-50.5,45,,,,,,45,44,F,Анастасія Васильченко,Yes,1992,Raw,B
1,Kseniya Voloshina,O,44,,,,,,40,42.5,45,,45,,,,,,45,44,F,Ксенія Волошина,Yes,1985,Raw,B
1,Albina Chernyak,T3,45.5,,,,,,-45,45,50,,50,,,,,,50,48,F,Альбіна Черняк,Yes,1994,Raw,B
1,Milena Rudenko,O,46.9,,,,,,50,52.5,-55,,52.5,,,,,,52.5,48,F,Мілена Руденко,Yes,1981,Raw,B
1,Lilia Prots,O,51,,,,,,57.5,62.5,65,,65,,,,,,65,52,F,Лілія Проць,Yes,1974,Raw,B
2,Nadiya Savchenko,O,51.2,,,,,,60,-65,-65,,60,,,,,,60,52,F,Надія Савченко,Yes,1986,Raw,B
3,Olena Strelkova,O,51.9,,,,,,-55,55,-60,,55,,,,,,55,52,F,Олена Стрелкова,Yes,1987,Raw,B
4,Iryna Vovk,O,51,,,,,,30,35,37.5,,37.5,,,,,,37.5,52,F,Ірина Вовк,Yes,1986,Raw,B
1,Anastasiya Lavrynovych,T2,53.2,,,,,,30,37.5,-40,,37.5,,,,,,37.5,56,F,Анастасія Лавринович,Yes,1995,Raw,B
1,Kateryna Prasol,J,55,,,,,,40,45,-50,,45,,,,,,45,56,F,Катерина Прасол,Yes,1990,Raw,B
1,Anna Konoval,O,54,,,,,,75,-80,-80,,75,,,,,,75,56,F,Анна Коновал,Yes,1984,Raw,B
2,Diana Savarets,O,55,,,,,,-72.5,-72.5,72.5,,72.5,,,,,,72.5,56,F,Діана Саварець,Yes,1984,Raw,B
DQ,Mylana Karpechenko,O,56,,,,,,-55,,,,,,,,,,,56,F,Милана Карпеченко,Yes,1987,Raw,B
1,Maryna Soltanova,O,60,,,,,,57.5,-62.5,62.5,,62.5,,,,,,62.5,60,F,Марина Солтанова,Yes,1985,Raw,B
2,Maryna Gal'chuk,O,58.7,,,,,,55,-57.5,57.5,,57.5,,,,,,57.5,60,F,Марина Гальчук,Yes,1982,Raw,B
1,Yuliya Lyba,M1,60,,,,,,55,-60,-60,,55,,,,,,55,60,F,Юлія Либа,Yes,1971,Raw,B
1,Natalya Pen'kova,M2,60,,,,,,40,-42.5,-42.5,,40,,,,,,40,60,F,Наталія Пенькова,Yes,1965,Raw,B
1,Maryna Stokozenko,J,64.8,,,,,,55,-60,-60,,55,,,,,,55,67.5,F,Марина Стокозенко,Yes,1989,Raw,B
1,Maryna Khristoforova,O,62.4,,,,,,80,85,87.5,,87.5,,,,,,87.5,67.5,F,Марина Христофорова,Yes,1966,Raw,B
2,Iryna Zhelyazkova,O,67.5,,,,,,50,-52.5,52.5,,52.5,,,,,,52.5,67.5,F,Ірина Желязкова,Yes,1984,Raw,B
1,Olena Timofeyeva,M1,62.5,,,,,,55,60,-65,,60,,,,,,60,67.5,F,Олена Тимофеєва,Yes,1968,Raw,B
1,Maryna Khristoforova,M2,62.4,,,,,,80,85,87.5,,87.5,,,,,,87.5,67.5,F,Марина Христофорова,Yes,1966,Raw,B
1,Olga Pisareva,M4,63.4,,,,,,40,-45,-45,,40,,,,,,40,67.5,F,Ольга Писарева,Yes,1956,Raw,B
1,Vladislav Bondarenko,T1,32.2,,,,,,35,37.5,-40,,37.5,,,,,,37.5,52,M,Владислав Бондаренко,Yes,1999,Raw,B
2,Vladyslav Zaporozhets,Y,30.6,,,,,,20,25,-27.5,,25,,,,,,25,52,M,Владислав Запорожець,Yes,2001,Raw,B
DQ,Dmytro Usachov,T1,43,,,,,,-60,-60,-60,,,,,,,,,52,M,Дмитро Усачов,Yes,1998,Raw,B
1,Dmitro Bugrim,T2,50.3,,,,,,-60,60,-62.5,,60,,,,,,60,52,M,Дмитро Бугрим,Yes,1995,Raw,B
1,Anton Gritsun,J,52,,,,,,90,100,105,-107.5,105,,,,,,105,52,M,Антон Грицун,Yes,1990,Raw,B
1,Oleksiy Markevych,J,54.7,,,,,,-110,110,-112.5,,110,,,,,,110,56,M,Олексій Маркевич,Yes,1991,Raw,B
1,Oleksandr Kotovych,O,56,,,,,,105,110,112.5,,112.5,,,,,,112.5,56,M,Олександр Котович,Yes,1987,Raw,B
1,Vyacheslav Korsun,T1,59.3,,,,,,72.5,75,-80,,75,,,,,,75,60,M,В'ячеслав Корсун,Yes,1996,Raw,B
2,Illya Shymanaev,T1,59.2,,,,,,37.5,40,-42.5,,40,,,,,,40,60,M,Ілля Шиманаєв,Yes,1999,Raw,B
1,Viktor Kalynovskyy,T2,59.8,,,,,,105,112.5,115,,115,,,,,,115,60,M,Віктор Калиновський,Yes,1995,Raw,B
2,Vladyslav Zmiyenko,T2,60,,,,,,105,110,112.5,,112.5,,,,,,112.5,60,M,Владислав Змієнко,Yes,1995,Raw,B
3,Pavlo Perevozchikov,T2,59.8,,,,,,-97.5,97.5,-112.5,,97.5,,,,,,97.5,60,M,Павло Перевозчиков,Yes,1994,Raw,B
DQ,Dmytro Velkhoviy,T2,60,,,,,,-90,-92.5,-92.5,,,,,,,,,60,M,Дмитро Вельховий,Yes,1995,Raw,B
1,Vyacheslav Kozis,T3,59.9,,,,,,110,115,-120,,115,,,,,,115,60,M,В'ячеслав Козіс,Yes,1993,Raw,B
2,Evgen Avramenko,T3,58,,,,,,105,110,112.5,,112.5,,,,,,112.5,60,M,Євген Авраменко,Yes,1993,Raw,B
3,Oleksandr Simonenko,T3,57.7,,,,,,90,-95,-95,,90,,,,,,90,60,M,Олександр Симоненко,Yes,1992,Raw,B
1,Viktor Khorunzhyy,J,59.9,,,,,,100,-110,110,,110,,,,,,110,60,M,Віктор Хорунжий,Yes,1990,Raw,B
1,Volodymyr Kovalenko,M2,59.5,,,,,,75,90,-101,,90,,,,,,90,60,M,Володимир Коваленко,Yes,1965,Raw,B
1,Kyrylo Sharoyko,T1,61,,,,,,55,-60,-60,,55,,,,,,55,67.5,M,Кирило Шаройко,Yes,1998,Raw,B
1,Vitaliy Prokha,T2,61.7,,,,,,90,100,-105,,100,,,,,,100,67.5,M,Віталій Проха,Yes,1994,Raw,B
2,Vladislav Poplavskiy,T2,66.2,,,,,,90,95,-100,,95,,,,,,95,67.5,M,Владислав Поплавский,Yes,1995,Raw,B
3,Igor Vinar,T2,67.5,,,,,,95,-100,-100,,95,,,,,,95,67.5,M,Ігор Вінар,Yes,1994,Raw,B
4,Oleg Oliynyk,T2,67.5,,,,,,85,90,95,,95,,,,,,95,67.5,M,Олег Олійник,Yes,1995,Raw,B
1,Sergiy Kuzyoma,T3,64.6,,,,,,115,125,-145,,125,,,,,,125,67.5,M,Сергій Кузьома,Yes,1993,Raw,B
2,Oleksandr Petrov,T3,64.1,,,,,,110,115,120,,120,,,,,,120,67.5,M,Олександр Петров,Yes,1992,Raw,B
3,Yevgen Viznyuk,T3,67.1,,,,,,100,-105,105,,105,,,,,,105,67.5,M,Євген Візнюк,Yes,1993,Raw,B
4,Yaroslav Dumanskyy,T3,65,,,,,,90,100,-110,,100,,,,,,100,67.5,M,Ярослав Думанський,Yes,1993,Raw,B
1,Oleksandr Sagarovskyy,J,65.4,,,,,,90,100,-102.5,,100,,,,,,100,67.5,M,Олександр Сагаровський,Yes,1991,Raw,B
1,Oleg Prikhodko,O,67.5,,,,,,150,-160,-160,,150,,,,,,150,67.5,M,Олег Приходько,Yes,1981,Raw,B
1,Denis Nelovkin,T1,70.1,,,,,,-92.5,-95,95,,95,,,,,,95,75,M,Денис Неловкін,Yes,1997,Raw,B
2,Vladyslav Polyvko,T1,73.4,,,,,,60,65,-67.5,,65,,,,,,65,75,M,Владислав Поливко,Yes,1998,Raw,B
1,Anton Levenets,T2,70.7,,,,,,115,117.5,120,,120,,,,,,120,75,M,Антон Левенець,Yes,1995,Raw,B
2,Oleksey Kizyma,T2,74.8,,,,,,-115,115,120,,120,,,,,,120,75,M,Олексій Кізима,Yes,1995,Raw,B
3,Oleg Ivanik,T2,73.4,,,,,,115,-125,-125,,115,,,,,,115,75,M,Олег Іваник,Yes,1994,Raw,B
4,Oleksiy Sergeev,T2,73.2,,,,,,110,-115,-115,,110,,,,,,110,75,M,Олексій Сергєєв,Yes,1995,Raw,B
5,Anatoliy Zhabchenko,T2,74.4,,,,,,-110,110,-115,,110,,,,,,110,75,M,Анатолій Жабченко,Yes,1995,Raw,B
DQ,Oleksandr Kyrylenko,T2,75,,,,,,-137.5,-137.5,-137.5,,,,,,,,,75,M,Олександр Кириленко,Yes,1994,Raw,B
1,Yevgen Chabala,T3,75,,,,,,130,137.5,-142.5,,137.5,,,,,,137.5,75,M,Євген Чабала,Yes,1992,Raw,B
2,Yevgen Lyaskovskyy,T3,73.4,,,,,,125,132.5,-137.5,,132.5,,,,,,132.5,75,M,Євген Лясковський,Yes,1993,Raw,B
3,Aleksandr Miroshnichenko,T3,73.2,,,,,,127.5,-135,-135,,127.5,,,,,,127.5,75,M,Олександр Мирошніченко,Yes,1992,Raw,B
1,Oleksandr Kovalenko,J,73.4,,,,,,147.5,-157.5,157.5,,157.5,,,,,,157.5,75,M,Олександр Коваленко,Yes,1991,Raw,B
2,Vasyl' Dovgyy,J,74,,,,,,140,150,152.5,,152.5,,,,,,152.5,75,M,Василь Довгий,Yes,1989,Raw,B
3,Andriy Verkhovtsev,J,71.7,,,,,,135,140,-142.5,,140,,,,,,140,75,M,Андрій Верховцев,Yes,1991,Raw,B
4,Dmytro Burdenyuk,J,70.6,,,,,,130,137.5,-142.5,,137.5,,,,,,137.5,75,M,Дмитро Бурденюк,Yes,1990,Raw,B
5,Kostyantyn Bolotov,T3,73.1,,,,,,90,-92.5,92.5,,92.5,,,,,,92.5,75,M,Костянтин Болотов,Yes,1994,Raw,B
6,Igor Mandrygolya,J,72.4,,,,,,90,-100,-100,,90,,,,,,90,75,M,Ігор Мандриголя,Yes,1991,Raw,B
7,Maksym Bodnya,J,75,,,,,,70,-82.5,82.5,,82.5,,,,,,82.5,75,M,Максим Бодня,Yes,1992,Raw,B
1,Dmytro Moroz,O,72.8,,,,,,155,160,-162.5,,160,,,,,,160,75,M,Дмитро Мороз,Yes,1976,Raw,B
2,Ruslan Gavrilyuk,O,74,,,,,,145,152.5,157.5,,157.5,,,,,,157.5,75,M,Руслан Гаврилюк,Yes,1976,Raw,B
3,Oleksandr Garbuza,O,70.8,,,,,,-150,150,-155,,150,,,,,,150,75,M,Олександр Гарбуза,Yes,1982,Raw,B
4,Valeriy Fursa,O,75,,,,,,150,-160,-160,,150,,,,,,150,75,M,Валерій Фурса,Yes,1987,Raw,B
5,Dmytro Lysenko,O,71.4,,,,,,137.5,145,-150,,145,,,,,,145,75,M,Дмитро Лисенко,Yes,1981,Raw,B
6,Oleksandr Nanovskyy,O,74.1,,,,,,137.5,-142.5,145,,145,,,,,,145,75,M,Олександр Нановський,Yes,1983,Raw,B
7,Artem Skalyga,O,75,,,,,,-130,-130,130,,130,,,,,,130,75,M,Артем Скалига,Yes,1981,Raw,B
8,Artem Sarzhan,O,75,,,,,,120,125,127.5,,127.5,,,,,,127.5,75,M,Артем Саржан,Yes,1984,Raw,B
DQ,Yevgen Bezkrovnyy,O,69.8,,,,,,-130,-130,-137.5,,,,,,,,,75,M,Євген Безкровний,Yes,1988,Raw,B
1,Oleksandr Gol'din,M1,70.8,,,,,,125,132.5,137.5,,137.5,,,,,,137.5,75,M,Олександр Гольдін,Yes,1969,Raw,B
DQ,Volodymyr Shuba,M1,74.8,,,,,,-137.5,-137.5,-140,,,,,,,,,75,M,Володимир Шуба,Yes,1971,Raw,B
1,Arsen Kaseyev,M4,75,,,,,,127.5,132.5,135,,135,,,,,,135,75,M,Арсен Касєєв,Yes,1955,Raw,B
1,Vyacheslav Yakubchak,T2,77.3,,,,,,102.5,107.5,112.5,,112.5,,,,,,112.5,82.5,M,В'ячеслав Якубчак,Yes,1995,Raw,B
2,Oleksiy Slyusar,T2,82.3,,,,,,-100,-100,100,,100,,,,,,100,82.5,M,Олексій Слюсар,Yes,1995,Raw,B
3,Yan Makovetskyy,T2,76.4,,,,,,90,-95,95,,95,,,,,,95,82.5,M,Ян Маковецький,Yes,1995,Raw,B
1,Petro Magerovskyy,T3,81.8,,,,,,155,165,170,,170,,,,,,170,82.5,M,Петро Магеровський,Yes,1992,Raw,B
2,Ruslan Motuzkin,T3,81.9,,,,,,150,160,-165,,160,,,,,,160,82.5,M,Руслан Мотузкін,Yes,1993,Raw,B
3,Oleg Barma,T3,82.2,,,,,,140,145,150,,150,,,,,,150,82.5,M,Олег Барма,Yes,1993,Raw,B
4,Vadim Petrov,T3,82.5,,,,,,140,-145,145,,145,,,,,,145,82.5,M,Вадим Петров,Yes,1993,Raw,B
1,Oleg Galchenko,J,81.6,,,,,,-140,145,-150,,145,,,,,,145,82.5,M,Олег Гальченко,Yes,1992,Raw,B
2,Vladislav Artemenko,J,82.4,,,,,,135,-140,142.5,,142.5,,,,,,142.5,82.5,M,Владислав Артеменко,Yes,1990,Raw,B
3,Stanislav Shepil',J,82.5,,,,,,-140,142.5,-147.5,,142.5,,,,,,142.5,82.5,M,Станіслав Шепіль,Yes,1992,Raw,B
4,Illya Bukhantsev,J,78.3,,,,,,135,140,-145,,140,,,,,,140,82.5,M,Ілля Буханцев,Yes,1989,Raw,B
5,Oleksandr Klymenko,J,75.4,,,,,,127.5,132.5,-135,,132.5,,,,,,132.5,82.5,M,Олександр Кліменко,Yes,1990,Raw,B
6,Pavlo Piskunov,J,77.8,,,,,,125,-130,-130,,125,,,,,,125,82.5,M,Павло Піскунов,Yes,1989,Raw,B
7,Mykola Kipnyak,J,81.1,,,,,,115,120,-127.5,,120,,,,,,120,82.5,M,Микола Кіпняк,Yes,1991,Raw,B
8,Maksim Skiba,J,81.5,,,,,,115,120,-135,,120,,,,,,120,82.5,M,Максим Скиба,Yes,1990,Raw,B
DD,Roman Molchanov,J,78,,,,,,-155,-160,-167.5,,,,,,,,,82.5,M,Роман Молчанов,Yes,1991,Raw,B
1,Oleg Slyusar,O,82.4,,,,,,165,172.5,-181,,172.5,,,,,,172.5,82.5,M,Олег Слюсар,Yes,1972,Raw,B
2,Yevgen Chernenko,O,80,,,,,,160,165,-167.5,,165,,,,,,165,82.5,M,Євген Черненко,Yes,1974,Raw,B
3,Andriy Grinishin,O,79.7,,,,,,150,160,-165,,160,,,,,,160,82.5,M,Андрій Гринішин,Yes,1981,Raw,B
4,Yevgen Anyschenko,O,80.2,,,,,,155,157.5,-160,,157.5,,,,,,157.5,82.5,M,Євген Анищенко,Yes,1983,Raw,B
5,Yaroslav Telker,O,80.9,,,,,,135,142.5,-145,,142.5,,,,,,142.5,82.5,M,Ярослав Телькер,Yes,1988,Raw,B
6,Sergiy Chepets,O,81.2,,,,,,130,-140,140,,140,,,,,,140,82.5,M,Сергій Чепець,Yes,1976,Raw,B
7,Vlad Kubilyunas,O,82,,,,,,-140,140,-145,,140,,,,,,140,82.5,M,Влад Кубилюнас,Yes,1983,Raw,B
8,Oleksiy Selin,O,82.2,,,,,,-135,-140,140,,140,,,,,,140,82.5,M,Олексій Селін,Yes,1983,Raw,B
9,Oleksandr Klymenko,O,75.4,,,,,,127.5,132.5,-135,,132.5,,,,,,132.5,82.5,M,Олександр Кліменко,Yes,1990,Raw,B
1,Vladyslav Ilmatov,M2,80.2,,,,,,125,130,132.5,,132.5,,,,,,132.5,82.5,M,Владислав Ільматов,Yes,1963,Raw,B
1,Yuriy Osadchenko,M3,81.7,,,,,,-155,160,-165,,160,,,,,,160,82.5,M,Юрій Осадченко,Yes,1961,Raw,B
2,Dmitro Cherevatenko,M3,77.9,,,,,,105,110,112.5,,112.5,,,,,,112.5,82.5,M,Дмитро Череватенко,Yes,1960,Raw,B
1,Volodymyr Shynkarchuk,M4,81.8,,,,,,105,-110,112.5,,112.5,,,,,,112.5,82.5,M,Володимир Шинкарчук,Yes,1956,Raw,B
2,Mykola Popov,M4,77.6,,,,,,90,-97.5,-97.5,,90,,,,,,90,82.5,M,Микола Попов,Yes,1954,Raw,B
1,Sergiy Golenko,T2,88.9,,,,,,110,120,125,,125,,,,,,125,90,M,Сергій Голенко,Yes,1995,Raw,B
2,Vladislav Vovk,T2,82.6,,,,,,75,80,-90,,80,,,,,,80,90,M,Владислав Вовк,Yes,1994,Raw,B
1,Oleksandr Dvornichenko,J,88.6,,,,,,-147.5,-155,155,,155,,,,,,155,90,M,Олександр Дворніченко,Yes,1992,Raw,B
2,Yevgen Agapov,J,86.3,,,,,,142.5,-145,-145,,142.5,,,,,,142.5,90,M,Євген Агапов,Yes,1991,Raw,B
1,Maksim Fokin,O,86.4,,,,,,180,-185,-185,,180,,,,,,180,90,M,Максим Фокін,Yes,1983,Raw,B
2,Kostyantyn Grabovskyy,O,88.5,,,,,,180,-187.5,-187.5,,180,,,,,,180,90,M,Костянтин Грабовський,Yes,1976,Raw,B
3,Oleksiy Slyusar,O,89.9,,,,,,170,175,-182.5,,175,,,,,,175,90,M,Олексій Слюсар,Yes,1976,Raw,B
4,Vadim Penkov,O,88.9,,,,,,160,170,172.5,,172.5,,,,,,172.5,90,M,Вадим Пеньков,Yes,1973,Raw,B
5,Denys Ovchynnikov,O,90,,,,,,150,160,167.5,,167.5,,,,,,167.5,90,M,Денис Овчинніков,Yes,1982,Raw,B
6,Vitaliy Pan,O,88.9,,,,,,160,165,-170,,165,,,,,,165,90,M,Віталій Пан,Yes,1987,Raw,B
7,Andriy Mazur,O,85.9,,,,,,-160,160,-165,,160,,,,,,160,90,M,Андрій Мазур,Yes,1985,Raw,B
8,Vasiliy Bisyuk,O,88.5,,,,,,-160,160,-170,,160,,,,,,160,90,M,Василь Бисюк,Yes,1984,Raw,B
9,Denis Pogorelov,O,89.3,,,,,,160,-170,-170,,160,,,,,,160,90,M,Денис Погорелов,Yes,1981,Raw,B
10,Dmytro Gak,O,88.7,,,,,,147.5,-160,-160,,147.5,,,,,,147.5,90,M,Дмитро Гак,Yes,1983,Raw,B
11,Dmytro Shatokhin,O,88.4,,,,,,145,-152.5,-152.5,,145,,,,,,145,90,M,Дмитро Шатохін,Yes,1977,Raw,B
12,Gor Kazaryan,O,89.4,,,,,,145,-155,-155,,145,,,,,,145,90,M,Гор Казарян,Yes,1982,Raw,B
13,Dmytro Volkov,O,89.5,,,,,,-145,145,-155,,145,,,,,,145,90,M,Дмитро Волков,Yes,1984,Raw,B
14,Igor Ilchenko,O,87.9,,,,,,130,135,-145,,135,,,,,,135,90,M,Ігор Ільченко,Yes,1981,Raw,B
1,Dmytro Bobrovskyy,M1,85.9,,,,,,127.5,135,-140,,135,,,,,,135,90,M,Дмитро Бобровський,Yes,1971,Raw,B
NS,Rinat Zaripov,M1,89.6,,,,,,,,,,,,,,,,,90,M,Рінат Заріпов,Yes,1970,Raw,B
1,Oleksandr Lyubichev,M2,90,,,,,,120,130,140,,140,,,,,,140,90,M,Олександр Любічев,Yes,1962,Raw,B
1,Elman Gadzhiev,M3,88.2,,,,,,150,157.5,162.5,,162.5,,,,,,162.5,90,M,Ельман Гаджієв,Yes,1959,Raw,B
1,Ivan Kucherenko,T3,97.1,,,,,,140,152.5,-157.5,,152.5,,,,,,152.5,100,M,Іван Кучеренко,Yes,1993,Raw,B
2,Dmitro Zarazhevskiy,T3,94.3,,,,,,140,145,-150,,145,,,,,,145,100,M,Дмитро Заражевський,Yes,1992,Raw,B
DQ,Andriy Potapenko,T3,95,,,,,,-145,-145,-145,,,,,,,,,100,M,Андрій Потапенко,Yes,1992,Raw,B
1,Stanislav Smolyanyk,J,97.7,,,,,,190,-192.5,,,190,,,,,,190,100,M,Станіслав Смоляник,Yes,1989,Raw,B
2,Dmytro Lytvynenko,J,98.9,,,,,,175,190,-195,,190,,,,,,190,100,M,Дмитро Литвиненко,Yes,1989,Raw,B
3,Rodion Donenko,J,92.2,,,,,,160,-167.5,-167.5,,160,,,,,,160,100,M,Родіон Доненко,Yes,1989,Raw,B
4,Yuriy Khudyakov,J,98.3,,,,,,160,-167.5,-167.5,,160,,,,,,160,100,M,Юрій Худяков,Yes,1990,Raw,B
1,Oleksandr Reva,O,96.8,,,,,,-190,192.5,-200,,192.5,,,,,,192.5,100,M,Олександр Рева,Yes,1982,Raw,B
2,Volodymyr Ukhach,O,97,,,,,,170,180,190,,190,,,,,,190,100,M,Володимир Ухач,Yes,1960,Raw,B
3,Dmytro Lytvynenko,O,98.9,,,,,,175,190,-195,,190,,,,,,190,100,M,Дмитро Литвиненко,Yes,1989,Raw,B
4,Oleksiy Kuzmin,O,97.9,,,,,,180,185,-190,,185,,,,,,185,100,M,Олексій Кузьмін,Yes,1983,Raw,B
5,Dmytro Kozachenko,O,97.2,,,,,,167.5,175,180,,180,,,,,,180,100,M,Дмитро Козаченко,Yes,1987,Raw,B
6,Temur Yuldashev,O,97.8,,,,,,-180,-180,180,,180,,,,,,180,100,M,Темур Юлдашев,Yes,1969,Raw,B
7,Kostyantyn Zolotukhin,O,99.3,,,,,,152.5,167.5,175,,175,,,,,,175,100,M,Костянтин Золотухін,Yes,1975,Raw,B
8,Oleksandr Ageenko,O,99.1,,,,,,165,170,172.5,,172.5,,,,,,172.5,100,M,Олександр Агєєнко,Yes,1976,Raw,B
9,Kostyantyn Martynenko,O,98,,,,,,-167.5,167.5,-172.5,,167.5,,,,,,167.5,100,M,Костянтин Мартиненко,Yes,1984,Raw,B
10,Oleksiy Bondarenko,O,98.1,,,,,,155,162.5,-167.5,,162.5,,,,,,162.5,100,M,Олексій Бондаренко,Yes,1981,Raw,B
11,Yuriy Pysarev,O,94.8,,,,,,160,-165,-165,,160,,,,,,160,100,M,Юрій Писарєв,Yes,1984,Raw,B
12,Igor Legkokonets,O,99.8,,,,,,-135,-140,140,,140,,,,,,140,100,M,Ігор Легкоконець,Yes,1975,Raw,B
DQ,Rostislav Klevtsov,O,87.5,,,,,,-140,-140,-140,,,,,,,,,90,M,Ростислав Клевцов,Yes,1978,Raw,B
DD,Denys Onufriyenko,O,99.4,,,,,,195,205,-212.5,,205,,,,,,,100,M,Денис Онуфрієнко,Yes,1987,Raw,B
1,Volodymyr Zolotashko,M1,99.4,,,,,,175,185,-190,,185,,,,,,185,100,M,Володимир Золоташко,Yes,1971,Raw,B
2,Temur Yuldashev,M1,97.8,,,,,,-180,-180,180,,180,,,,,,180,100,M,Темур Юлдашев,Yes,1969,Raw,B
3,Pavlo Kipnyak,M1,97.9,,,,,,-130,-130,130,,130,,,,,,130,100,M,Павло Кіпняк,Yes,1969,Raw,B
DQ,Dmitro Grigorev,M1,98.3,,,,,,-150,,,,,,,,,,,100,M,Дмитро Григорьєв,Yes,1971,Raw,B
1,Volodymyr Ukhach,M3,97,,,,,,170,180,190,,190,,,,,,190,100,M,Володимир Ухач,Yes,1960,Raw,B
1,Volodymyr Korshunov,M6,94,,,,,,125,132.5,137.5,,137.5,,,,,,137.5,100,M,Володимир Коршунов,Yes,1942,Raw,B
1,Sergiy Pysarenko,T1,109.8,,,,,,100,110,117.5,,117.5,,,,,,117.5,110,M,Сергій Писаренко,Yes,1996,Raw,B
1,Anton Yuzhakov,T3,107.3,,,,,,180,-190,195,,195,,,,,,195,110,M,Антон Южаков,Yes,1993,Raw,B
1,Dmytro Yegorenkov,J,110,,,,,,150,160,,,160,,,,,,160,110,M,Дмитро Єгоренков,Yes,1990,Raw,B
1,Anton Yuzhakov,O,107.3,,,,,,180,-190,195,,195,,,,,,195,110,M,Антон Южаков,Yes,1993,Raw,B
2,Andriy Savarets',O,109.3,,,,,,-190,190,195,,195,,,,,,195,110,M,Андрій Саварець,Yes,1984,Raw,B
3,Viktor Bozhukha,O,107.7,,,,,,165,-175,-175,,165,,,,,,165,110,M,Віктор Божуха,Yes,1978,Raw,B
DQ,Oleksiy Chukhnenko,O,104,,,,,,-180,-185,-185,,,,,,,,,110,M,Олексій Чухненко,Yes,1978,Raw,B
1,Yevgen Andreyaschenko,M1,109.3,,,,,,170,-175,175,,175,,,,,,175,110,M,Євген Андреященко,Yes,1969,Raw,B
2,V'yacheslav Arkhipov,M1,106.5,,,,,,140,-150,150,,150,,,,,,150,110,M,В'ячеслав Архіпов,Yes,1970,Raw,B
1,Surupasha Bambatgireev,M2,108.7,,,,,,160,170,175,,175,,,,,,175,110,M,Сурупаша Бамбатгіреєв,Yes,1966,Raw,B
1,Mykola Zinovyev,M3,109.7,,,,,,145,155,160,,160,,,,,,160,110,M,Микола Зінов'єв,Yes,1960,Raw,B
1,Dmytro Kurochkin,M4,109.1,,,,,,135,140,,,140,,,,,,140,110,M,Дмитро Курочкін,Yes,1955,Raw,B
2,Valentin Drobinko,M5,107,,,,,,112.5,-118,-118,,112.5,,,,,,112.5,110,M,Валентин Дробинко,Yes,1952,Raw,B
1,Oleksiy Syzonenko,J,116.1,,,,,,200,210,-220,,210,,,,,,210,125,M,Олексій Сизоненко,Yes,1988,Raw,B
2,Andriy Pavlenko,J,117.4,,,,,,-190,190,-200,,190,,,,,,190,125,M,Андрій Павленко,Yes,1989,Raw,B
1,Oleg Gridyakin,O,113.2,,,,,,217.5,227.5,230,,230,,,,,,230,125,M,Олег Гридякін,Yes,1974,Raw,B
2,Mykola Prezhyn,O,122.5,,,,,,170,185,192.5,,192.5,,,,,,192.5,125,M,Микола Прежин,Yes,1981,Raw,B
3,Andriy Pavlenko,O,117.4,,,,,,-190,190,-200,,190,,,,,,190,125,M,Андрій Павленко,Yes,1989,Raw,B
4,Oleksandr Moshonskyy,O,118,,,,,,190,-200,-200,,190,,,,,,190,125,M,Олександр Мошонський,Yes,1977,Raw,B
5,Ruslan Yakimenko,O,110.2,,,,,,170,180,-185,,180,,,,,,180,125,M,Руслан Якименко,Yes,1985,Raw,B
6,Pavlo Korchagin,O,113.5,,,,,,170,180,-185,,180,,,,,,180,125,M,Павло Корчагін,Yes,1984,Raw,B
7,Sergyy Zmievskyy,O,113,,,,,,165,170,175,,175,,,,,,175,125,M,Сергій Змієвський,Yes,1982,Raw,B
8,Stanislav Bogdanovych,O,110.4,,,,,,-165,170,-180,,170,,,,,,170,125,M,Станіслав Богданович,Yes,1980,Raw,B
9,Sergiy Shumskyy,O,110.2,,,,,,150,157.5,162.5,,162.5,,,,,,162.5,125,M,Сергій Шумський,Yes,1985,Raw,B
1,Oleksandr Stryga,M1,120.4,,,,,,200,210,222.5,-225,222.5,,,,,,222.5,125,M,Олександр Стрига,Yes,1967,Raw,B
2,Vladislav Marchenko,M1,114.9,,,,,,140,142.5,-145,,142.5,,,,,,142.5,125,M,Владислав Марченко,Yes,1967,Raw,B
1,Oleksandr Kalkutin,M2,125,,,,,,165,170,,,170,,,,,,170,125,M,Олександр Калкутін,Yes,1965,Raw,B
1,Yevgen Shuturminskyy,M2,135.7,,,,,,155,165,-170,,165,,,,,,165,140,M,Євген Шутурмінський,Yes,1967,Raw,B
1,Yaroslav Apalkov,T3,141.4,,,,,,130,140,150,,150,,,,,,150,140+,M,Ярослав Апальков,Yes,1993,Raw,B
1,Sergiy Veselovskiy,M1,141.2,,,,,,200,210,-217.5,,210,,,,,,210,140+,M,Сергій Веселовський,Yes,1967,Raw,B
1,Gella Lan,O,51.8,,,,,,45,50,-52.5,,50,,,,,,50,52,F,Гелла Лань,Yes,1975,Raw,B
1,Anna Kadatska,O,56,,,,,,95,-101,101,,101,,,,,,101,56,F,Анна Кадацька,No,1977,Raw,B
1,Olga Grushevska,J,71,,,,,,45,-50,50,,50,,,,,,50,75,F,Ольга Грушевська,No,1989,Raw,B
1,Anna Kurkurina,M2,74,,,,,,-120,125,-130,,125,,,,,,125,75,F,Анна Куркуріна,No,1966,Raw,B
1,Yegor Kurochkin,T1,39.5,,,,,,25,30,-32.5,,30,,,,,,30,52,M,Єгор Курочкін,No,1999,Raw,B
1,Mykhaylo Doskoch,T2,67.2,,,,,,-105,105,-110,,105,,,,,,105,67.5,M,Михайло Доскоч,No,1994,Raw,B
2,Andriy Panasyuk,T2,62.5,,,,,,80,-90,90,,90,,,,,,90,67.5,M,Андрій Панасюк,No,1994,Raw,B
1,Stanislav Khaitov,J,67.3,,,,,,140,152.5,,,152.5,,,,,,152.5,67.5,M,Станіслав Хаїтов,No,1990,Raw,B
1,Ivan Kozykov,T2,73.3,,,,,,120,-125,-127.5,,120,,,,,,120,75,M,Іван Козиков,No,1994,Raw,B
1,Igor Gasyuk,J,74.2,,,,,,150,160,170,,170,,,,,,170,75,M,Игорь Гасюк,No,1988,Raw,B
2,Roman Lyubarenko,J,74.2,,,,,,100,-115,115,,115,,,,,,115,75,M,Роман Любаренко,No,1991,Raw,B
1,Sergiy Zavalnyuk,J,82.1,,,,,,130,140,-150,,140,,,,,,140,82.5,M,Сергій Завальнюк,No,1992,Raw,B
2,Arman Badalyan,J,82.3,,,,,,130,135,140,,140,,,,,,140,82.5,M,Арман Бадалян,No,1991,Raw,B
1,Roman Plakhotin,O,82,,,,,,170,-180,-180,,170,,,,,,170,82.5,M,Роман Плахотін,No,1986,Raw,B
2,Andriy Kudryavtsev,O,75.6,,,,,,140,150,155,,155,,,,,,155,82.5,M,Андрій Кудрявцев,No,1974,Raw,B
3,Pavlo Dvertsevoy,O,78,,,,,,115,122.5,127.5,,127.5,,,,,,127.5,82.5,M,Павло Дверцевой,No,1986,Raw,B
1,Boris Scherbak,J,86.9,,,,,,150,-160,-160,,150,,,,,,150,90,M,Борис Щербак,No,1991,Raw,B
1,Oleksiy Poroshyn,O,88.9,,,,,,150,160,-165,,160,,,,,,160,90,M,Олексій Порошин,No,1977,Raw,B
1,Sergiy Kazenko,T2,98.9,,,,,,90,105,115,,115,,,,,,115,100,M,Сергій Казенко,No,1994,Raw,B
1,Yevgen Moiseev,J,97.4,,,,,,185,195,-200,,195,,,,,,195,100,M,Євген Моїсеєв,No,1991,Raw,B
1,Yevgen Moiseev,O,97.4,,,,,,185,195,-200,,195,,,,,,195,100,M,Євген Моїсеєв,No,1991,Raw,B
2,Igor Yekimenko,O,99.7,,,,,,185,-195,-195,,185,,,,,,185,100,M,Ігор Єкименко,No,1976,Raw,B
1,Viktor Babenko,M2,92.7,,,,,,150,161,-165,,161,,,,,,161,100,M,Віктор Бабенко,No,1963,Raw,B
1,Sergiy Korolenko,O,106,,,,,,205,220,-230,,220,,,,,,220,110,M,Сергій Короленко,No,1977,Raw,B
2,Dmytro Shtankov,O,108.5,,,,,,180,190,-195,,190,,,,,,190,110,M,Дмитро Штанков,No,1984,Raw,B
1,Kostyantyn Tarasyk,M1,107,,,,,,150,155,160,,160,,,,,,160,110,M,Костянтин Тарасик,No,1971,Raw,B
1,Kostyantyn Dmytriev,O,123.2,,,,,,200,210,-230,,210,,,,,,210,125,M,Костянтин Дмитрієв,No,1987,Raw,B
2,Georgiy Pavlovych,O,117.5,,,,,,190,200,-210,,200,,,,,,200,125,M,Георгій Павлович,No,1986,Raw,B
3,Ivan Polyvko,O,119.1,,,,,,180,190,-210,,190,,,,,,190,125,M,Іван Поливко,No,1980,Raw,B
1,Mykhailo Nevzorov,M3,137.5,,,,,,195,205,-210,,205,,,,,,205,140,M,Михайло Невзоров,No,1961,Raw,B
1,Inna Yudina,O,75,,,,,,80,-85,,,80,,,,,,80,75,F,Інна Юдіна,Yes,1978,Multi-ply,B
1,Vladislav Bondarenko,T1,32.2,,,,,,37.5,40,42.5,,42.5,,,,,,42.5,52,M,Владислав Бондаренко,Yes,1999,Multi-ply,B
1,Sergiy Boryuk,O,59.9,,,,,,-150,150,160.5,,160.5,,,,,,160.5,60,M,Сергій Борюк,Yes,1985,Multi-ply,B
1,Olexiy Gornyy,T3,61.2,,,,,,115,120,127.5,,127.5,,,,,,127.5,67.5,M,Олексій Горний,Yes,1992,Multi-ply,B
2,Stanislav Chygyryns'kyy,T3,66.2,,,,,,85,92.5,-95,,92.5,,,,,,92.5,67.5,M,Станіслав Чигиринський,Yes,1994,Multi-ply,B
1,Stanislav Chygyryns'kyy,O,66.2,,,,,,85,92.5,-95,,92.5,,,,,,92.5,67.5,M,Станіслав Чигиринський,Yes,1994,Multi-ply,B
1,Oleksandr Kyrylenko,T2,75,,,,,,120,130,-140,,130,,,,,,130,75,M,Олександр Кириленко,Yes,1994,Multi-ply,B
1,Anton Fedorenko,O,75,,,,,,165,172.5,-177.5,,172.5,,,,,,172.5,75,M,Антон Федоренко,Yes,1985,Multi-ply,B
2,Oleksiy Slyuschenko,O,73.3,,,,,,155,165,-172.5,,165,,,,,,165,75,M,Олексій Слющенко,Yes,1984,Multi-ply,B
3,Igor Andrusyk,O,74,,,,,,140,-147.5,-147.5,,140,,,,,,140,75,M,Ігор Андрусик,Yes,1988,Multi-ply,B
1,Denys Rekhletskyy,J,78,,,,,,170,180,-185,,180,,,,,,180,82.5,M,Денис Рехлецький,Yes,1991,Multi-ply,B
1,Svyatoslav Ogrenchuk,O,81,,,,,,175,-180,180,,180,,,,,,180,82.5,M,Святослав Огренчук,Yes,1978,Multi-ply,B
1,Igor Lutsenko,T2,83.3,,,,,,-140,-140,140,,140,,,,,,140,90,M,Ігор Луценко,Yes,1994,Multi-ply,B
DQ,Maxym Fesun,T2,89.2,,,,,,-130,-135,-135,,,,,,,,,90,M,Максим Фесун,Yes,1995,Multi-ply,B
1,Gennadiy Yazev,J,88.9,,,,,,-195,195,-205,,195,,,,,,195,90,M,Геннадій Язєв,Yes,1990,Multi-ply,B
1,Rostyslav Bondarenko,O,89,,,,,,200,210,215,,215,,,,,,215,90,M,Ростислав Бондаренко,Yes,1972,Multi-ply,B
2,Denys Borodenko,O,90,,,,,,210,-220,-220,,210,,,,,,210,90,M,Денис Бороденко,Yes,1981,Multi-ply,B
2,Vitaliy Fedorchenko,O,90,,,,,,210,-220,-220,,210,,,,,,210,90,M,Віталій Федорченко,Yes,1977,Multi-ply,B
1,Igor Shubin,M2,86.3,,,,,,130,,,,130,,,,,,130,90,M,Ігор Шубін,Yes,1964,Multi-ply,B
1,Elman Gadzhiev,M3,88.2,,,,,,195.5,205,-210,,205,,,,,,205,90,M,Ельман Гаджієв,Yes,1959,Multi-ply,B
1,Yevgen Savchenko,J,98.9,,,,,,230,240,-250,,240,,,,,,240,100,M,Євген Савченко,Yes,1989,Multi-ply,B
2,Sergiy Kovalev,J,92.7,,,,,,170,175,180,,180,,,,,,180,100,M,Сергій Ковальов,Yes,1988,Multi-ply,B
NS,Dmitro Yashniy,J,99,,,,,,,,,,,,,,,,,100,M,Дмитро Яшний,Yes,1988,Multi-ply,B
1,Ruslan Rudenko,O,99.2,,,,,,-250,250,255,,255,,,,,,255,100,M,Руслан Руденко,Yes,1982,Multi-ply,B
2,Sergiy Kovalev,O,92.7,,,,,,170,175,180,,180,,,,,,180,100,M,Сергій Ковальов,Yes,1988,Multi-ply,B
3,Volodymyr Chygyrynskyy,O,96.2,,,,,,165,175.5,180,,180,,,,,,180,100,M,Володимир Чигиринський,Yes,1962,Multi-ply,B
4,Andriy Sviderskyy,O,93,,,,,,170,-180,-180,,170,,,,,,170,100,M,Андрій Свидерський,Yes,1985,Multi-ply,B
DQ,Denys Kovalyov,O,99.9,,,,,,-235,,,,,,,,,,,100,M,Денис Ковальов,Yes,1978,Multi-ply,B
1,Volodymyr Chygyrynskyy,M2,96.2,,,,,,165,175.5,180,,180,,,,,,180,100,M,Володимир Чигиринський,Yes,1962,Multi-ply,B
1,Andriy Lomnitskiy,O,107.8,,,,,,240,250,257.5,,257.5,,,,,,257.5,110,M,Андрій Ломницький,Yes,1980,Multi-ply,B
2,Sergiy Borishanskyy,O,109.2,,,,,,210,225,235,,235,,,,,,235,110,M,Сергій Боришанський,Yes,1977,Multi-ply,B
1,Vladyslav Fesun,M1,108,,,,,,180,190,-195,,190,,,,,,190,110,M,Владислав Фесун,Yes,1967,Multi-ply,B
2,V'yacheslav Arkhipov,M1,106.5,,,,,,-160,160,167.5,,167.5,,,,,,167.5,110,M,В'ячеслав Архіпов,Yes,1970,Multi-ply,B
1,Borys Kovbasyuk,M2,105.3,,,,,,-200,200,-205,,200,,,,,,200,110,M,Борис Ковбасюк,Yes,1966,Multi-ply,B
1,Yevgen Golovchenko,M6,103,,,,,,120,-130,130,,130,,,,,,130,110,M,Євген Головченко,Yes,1946,Multi-ply,B
1,Oleksandr Blagovidov,M1,119.5,,,,,,-250,250,-260,,250,,,,,,250,125,M,Олександр Благовидов,Yes,1971,Multi-ply,B
1,Dmytro Sharoyko,O,127.4,,,,,,-270,-270,270,,270,,,,,,270,140,M,Дмитро Шаройко,Yes,1972,Multi-ply,B
DQ,Vusal Gumbatov,J,67.3,,,,,,-150,,,,,,,,,,,67.5,M,Вусал Гумбатов,No,1989,Multi-ply,B
1,Oleksandr Kovalenko,O,64.6,,,,,,190,-207.5,-207.5,,190,,,,,,190,67.5,M,Олександр Коваленко,No,1983,Multi-ply,B
1,Ivan Shevchenko,J,73.8,,,,,,125,130,135,,135,,,,,,135,75,M,Иван Шевченко,No,1990,Multi-ply,B
1,Stanislav Marochko,O,70.6,,,,,,150,160,-170,,160,,,,,,160,75,M,Станислав Марочко,No,1981,Multi-ply,B
1,Sergiy Prodan,J,82.3,,,,,,-180,-185,185,,185,,,,,,185,82.5,M,Сергій Продан,No,1989,Multi-ply,B
1,Sergiy Naleykin,O,82.3,,,,,,-290,290,-300,,290,,,,,,290,82.5,M,Сергій Налейкін,No,1981,Multi-ply,B
1,Yuriy Muzychenko,O,88.5,,,,,,120,130,-140,,130,,,,,,130,90,M,Юрій Музиченко,No,1986,Multi-ply,B
1,Sergiy Ivanov,J,100,,,,,,-260,260,-280,,260,,,,,,260,100,M,Сергій Іванов,No,1990,Multi-ply,B
DQ,Ivan Malovychko,J,95.5,,,,,,-230,-230,-230,,,,,,,,,100,M,Іван Маловичко,No,1990,Multi-ply,B
1,Vitaliy Umrykhin,O,103,,,,,,220,-225,-225,,220,,,,,,220,110,M,Віталій Умрихін,No,1984,Multi-ply,B
2,Arsen Doga,O,106.3,,,,,,210,220,-225,,220,,,,,,220,110,M,Арсен Дога,No,1987,Multi-ply,B
1,Oleksandr Taranishyn,O,111.5,,,,,,215,-265,-265,,215,,,,,,215,125,M,Олександр Таранішин,No,1982,Multi-ply,B
DQ,Vitaliy Chorniy,O,121.4,,,,,,-300,-300,,,,,,,,,,125,M,Віталій Чорний,No,1984,Multi-ply,B
1,Vadym Filippov,O,128,,,,,,-170,170,-180,,170,,,,,,170,140,M,Вадим Філіппов,No,1973,Multi-ply,B
DQ,Kostyantyn Golubev,M3,96,,,,,,-220,,,,,,,,,,,100,M,Костянтин Голубєв,No,1962,Multi-ply,B
