Place,WeightClassKg,Name,Equipment,Team,BodyweightKg,Squat1Kg,Squat2Kg,Squat3Kg,Best3SquatKg,Bench1Kg,Bench2Kg,Bench3Kg,Best3BenchKg,Deadlift1Kg,Deadlift2Kg,Deadlift3Kg,Best3DeadliftKg,TotalKg,Division,Sex,Event
1,84,Lisa Ollestad Hansen,Single-ply,Ganddal AK,74.05,,,,,85,-90,90,90.0,,,,,90,Teen 14-18,F,B
1,84+,Alexandra Stokka,Single-ply,Sandnes AK,90.55,120,127.5,132.5,132.5,-75,80,85,85.0,102.5,110,115,115.0,332.5,Teen 14-18,F,SBD
1,57,Kristine Løvås,Raw,Hommersåk AK,53.90,40,50,60,60.0,-57.5,-57.5,57.5,57.5,65,75,85,85.0,202.5,Junior 19-23,F,SBD
1,63,Gunn Siri M. Tjelta,Single-ply,Ganddal AK,62.10,100,107.5,112.5,112.5,60,62.5,-65,62.5,110,120,135,135.0,310,Junior 19-23,F,SBD
1,72,Karin Eidhamar,Single-ply,Sandnes AK,64.80,125,135,140,140.0,70,75,-80,75.0,120,130,135,135.0,350,Junior 19-23,F,SBD
1,57,Norunn Nielsen Holmvik,Single-ply,Kristiansand AK,54.20,-110,120,-130,120.0,57.5,62.5,-65,62.5,115,125,132.5,132.5,315,Open,F,SBD
1,63,Linda Kåda Høiland,Single-ply,Sandnes AK,61.40,150,160,-167.5,160.0,85,90,-95,90.0,160,172.5,180,180.0,430,Open,F,SBD
2,63,Malin Tjørhom,Single-ply,Sandnes AK,62.60,125,137.5,145,145.0,75,77.5,80,80.0,130,142.5,145,145.0,370,Open,F,SBD
3,63,Hilde Paulsen,Single-ply,Sandnes AK,61.30,135,-142.5,142.5,142.5,75,80,-85,80.0,130,140,145,145.0,367.5,Open,F,SBD
1,72,Renate Evertsen,Single-ply,Ganddal AK,65.95,125,-132.5,132.5,132.5,95,100,105,105.0,125,-132.5,132.5,132.5,370,Open,F,SBD
2,72,Lola Pettersson,Single-ply,Ganddal AK,67.70,115,122.5,130,130.0,75,80,85,85.0,130,140,-145,140.0,355,Open,F,SBD
3,72,Linda Kristensen,Raw,Sandnes AK,71.80,55,,,55.0,95,100,-105,100.0,55,,,55.0,210,Open,F,SBD
1,74,Hans Christian Hellestø,Single-ply,Hommersåk AK,68.10,170,185,200,200.0,115,125,130,130.0,170,185,200,200.0,530,Junior 19-23,M,SBD
2,74,Kolbjørn Kverme Ronold,Raw,Ganddal AK,73.20,,,,,122.5,130,-135,130.0,,,,,130,Junior 19-23,M,B
3,74,Truls Homleid Johansen,Raw,Hommersåk AK,73.65,,,,,120,125,127.5,127.5,,,,,127.5,Junior 19-23,M,B
1,93,Tarald Knudsen Øvrebø,Raw,Ganddal AK,86.20,190,200,210,210.0,115,-122.5,122.5,122.5,200,220,232.5,232.5,565,Junior 19-23,M,SBD
2,93,Christoffer Lunde,Raw,Hommersåk AK,90.30,165,175,180,180.0,115,120,-122.5,120.0,200,210,215,215.0,515,Junior 19-23,M,SBD
3,93,Alexander Lunde,Raw,Hommersåk AK,88.50,150,160,-170,160.0,-90,100,105,105.0,180,190,200,200.0,465,Junior 19-23,M,SBD
4,93,Andreas Auklend,Single-ply,Sandnes AK,88.55,,,,,190,200,207.5,207.5,,,,,207.5,Junior 19-23,M,B
1,105,Wiggo Kalsås,Single-ply,Stavanger SK,100.80,240,250,260,260.0,135,142.5,147.5,147.5,215,225,232.5,232.5,640,Junior 19-23,M,SBD
2,105,Andreas Mannes Aksdal,Raw,Haugaland AK,94.55,180,195,205,205.0,145,-155,-155,145.0,225,235,-245,235.0,585,Junior 19-23,M,SBD
3,105,Jon Anders Sværen,Raw,Stavanger SK,96.50,170,190,-200,190.0,120,127.5,135,135.0,210,220,230,230.0,555,Junior 19-23,M,SBD
4,105,Kim Andre Wollum,Raw,Stavanger SK,100.85,180,190,-200,190.0,135,142.5,-145,142.5,-220,220,-225,220.0,552.5,Junior 19-23,M,SBD
1,120,Eivind Olsen,Single-ply,Haugaland AK,118.95,270,285,-290,285.0,220,230,-235,230.0,240,250,-255,250.0,765,Junior 19-23,M,SBD
2,120,Ivan Sigmundsen,Single-ply,Ganddal AK,111.90,210,-225,235,235.0,130,135,-140,135.0,220,-245,250,250.0,620,Junior 19-23,M,SBD
1,120+,Joachim Merenyi,Single-ply,Hommersåk AK,130.00,250,270,280,280.0,227.5,237.5,245,245.0,247.5,-255,255,255.0,780,Junior 19-23,M,SBD
1,83,Enok Myrstad,Single-ply,Sandnes AK,83.00,220,235,240,240.0,155,165,170,170.0,240,260,-270,260.0,670,Open,M,SBD
1,93,Vetle Valentinsen,Single-ply,Sandnes AK,91.20,210,220,225,225.0,-145,145,150,150.0,200,210,220,220.0,595,Open,M,SBD
1,105,Kristoffer Skadsem Eikeland,Single-ply,Ganddal AK,104.65,325,345,350,350.0,265,275.5,280,280.0,310,-335,335,335.0,965,Open,M,SBD
2,105,Vegard Skogan Færås,Raw,Haugaland AK,96.05,180,-190,-190,180.0,150,-157.5,-157.5,150.0,230,250,-260,250.0,580,Open,M,SBD
3,105,Henning Tornes,Single-ply,Sandnes AK,104.30,,,,,215,220,225,225.0,,,,,225,Open,M,B
DQ,105,Michael Elle,Raw,Stavanger SK,98.10,70,,,70.0,,,,,,,,,,Open,M,S
1,120,Knut Are Kleppe,Single-ply,Sandnes AK,115.40,-310,330,340,340.0,-210,-210,210,210.0,260,280,300,300.0,850,Open,M,SBD
2,120,Stian Larsen,Single-ply,Sandnes AK,108.40,260,275,-282.5,275.0,215,225,235,235.0,255,275,-290,275.0,785,Open,M,SBD
3,120,Stig Andresen,Raw,Sandnes AK,113.85,185,195,202.5,202.5,175,182.5,190,190.0,225,235,-240,235.0,627.5,Open,M,SBD
4,120,Frode Fjogstad,Raw,Sandnes AK,106.50,,,,,165,175,185,185.0,,,,,185,Open,M,B
1,83,Kjell Korneliussen,Single-ply,Sandnes AK,81.65,200,210,215,215.0,150,-155,-155,150.0,210,222.5,-235,222.5,587.5,Master 40-49,M,SBD
2,83,Olav Gjeitanger,Single-ply,Hommersåk AK,82.05,190,-200,200,200.0,-130,130,-140,130.0,190,200,-210,200.0,530,Master 40-49,M,SBD
3,83,Kjell Ove Roseth,Raw,Haugaland AK,82.35,,,,,145,152.5,155,155.0,,,,,155,Master 40-49,M,B
1,93,Roy Kjetil Danielsen,Raw,Sandnes AK,85.95,162.5,175,182.5,182.5,115,125,130.5,130.5,216,225,235,235.0,548,Master 40-49,M,SBD
2,93,Nils Magne Grude,Raw,Ganddal AK,87.60,,,,,117.5,125,-130,125.0,,,,,125,Master 40-49,M,B
1,105,Roy Duås,Single-ply,Hommersåk AK,102.85,240,250,255,255.0,-100,170,180,180.0,240,250,-265,250.0,685,Master 40-49,M,SBD
1,120,Magnus Jacobsen,Single-ply,Sandnes AK,120.00,-260,260,275,275.0,180,190,200,200.0,250,265,-272.5,265.0,740,Master 40-49,M,SBD
2,120,Arve Rønnekleiv,Raw,Sandnes AK,107.45,160,170,180,180.0,112.5,120,125,125.0,237.5,245,250,250.0,555,Master 40-49,M,SBD
1,120+,Thorleif Thorsen,Single-ply,Haugaland AK,141.25,240,250,-255,250.0,200,207.5,-210,207.5,260,275,-280,275.0,732.5,Master 40-49,M,SBD
1,93,Sigve Valentinsen,Single-ply,Sandnes AK,86.35,270,280,292.5,292.5,215,-227.5,-227.5,215.0,260,-275,-275,260.0,767.5,Master 50-59,M,SBD
2,93,Stig Rune Nielsen,Single-ply,Sandnes AK,93.00,200,-210,220,220.0,140,150,160,160.0,210,220,230,230.0,610,Master 50-59,M,SBD
1,66,Birger Sundstøl,Raw,Kristiansand AK,65.25,,,,,70,77.5,80,80.0,,,,,80,Master 60-69,M,B
1,74,Arild Bomark,Single-ply,Sandnes AK,73.20,130,140,-142.5,140.0,85,-95,95,95.0,140,160,-175,160.0,395,Master 60-69,M,SBD
1,83,Sveinung Egeland,Single-ply,Hommersåk AK,81.05,185,-195,195,195.0,130,135,-140,135.0,215,225,-230,225.0,555,Master 60-69,M,SBD
1,93,Bjarne Hellestræ,Single-ply,Sandnes AK,87.60,,,,,115,-120,120,120.0,,,,,120,Master 60-69,M,B
1,93,Arnfinn Skadsem,Single-ply,Ganddal AK,93.00,160,180,185,185.0,112.5,-117.5,-117.5,112.5,160,172.5,-182.5,172.5,470,Master +70,M,SBD
