Event,Sex,Name,State,BodyweightKg,WeightClassKg,Division,Best3SquatKg,Best3BenchKg,Best3DeadliftKg,TotalKg,Equipment,Place
SBD,F,Renata Vaz Pinheiro,QU,60.0,60,Open,90.0,75.0,125.0,290.0,Single-ply,1
SBD,M,Yvon Chouinard,QU,83.0,90,Master 4,152.5,125.0,185.0,462.5,Single-ply,1
SBD,F,Diana Burley,QU,60.0,60,Master 1,72.5,47.5,100.0,220.0,Single-ply,1
SBD,F,Karyne Turcotte,QU,59.0,60,Junior,60.0,45.0,87.5,192.5,Single-ply,2
SBD,F,Angle Lavallée,QU,55.0,56,Junior,72.5,42.5,100.0,215.0,Single-ply,1
