Division,Equipment,WeightClassKg,Name,Best3SquatKg,Squat4Kg,Best3BenchKg,Bench4Kg,Best3DeadliftKg,Deadlift4Kg,TotalKg,BodyweightKg,Age,Event,Sex,Place
Amateur Teen (16-17),Wraps,52,Shannon Lang,92.99,,49.9,52.16,92.99,,235.87,51.07,16,SBD,F,1
Amateur Teen (16-17),Wraps,90+,Lindsay Field,142.88,149.69,52.16,,176.9,181.44,371.95,111.77,17,SBD,F,1
Amateur Teen (18-19),Wraps,60,Phyllis Rose,92.99,,56.7,,108.86,115.67,258.55,59.6,18,SBD,F,1
Amateur Junior,Wraps,60,Victoria Krog,111.13,,61.23,,127.01,136.08,299.37,59.96,23,SBD,F,1
Amateur Open,Wraps,52,Jen Hazzard,90.72,,56.7,,133.81,138.35,281.23,51.71,31,SBD,F,1
Amateur Open,Wraps,60,Victoria Krog,111.13,,61.23,,127.01,136.08,299.37,59.96,23,SBD,F,1
Amateur Open,Wraps,67.5,Colleen Zimmerman,97.52,,56.7,,113.4,,267.62,65.63,24,SBD,F,1
Amateur Open,Wraps,75,Erin Kelly,167.83,174.63,81.65,,210.92,217.72,460.4,73.84,33,SBD,F,1
Amateur Open,Wraps,75,Casey Garland,165.56,,95.25,97.52,183.7,,444.52,74.75,28,SBD,F,2
Amateur Open,Wraps,75,Jen Woodhouse,117.93,,83.91,,138.35,,340.19,72.12,27,SBD,F,4
Amateur Open,Wraps,75,Yvonne Demarra,131.54,,61.23,,151.95,,344.73,73.44,29,SBD,F,3
Amateur Open,Wraps,75,Patricia Baker,108.86,,58.97,,117.93,,285.76,71.4,29,SBD,F,5
Amateur Open,Wraps,75,Jamie Buffone,92.99,106.59,56.7,,127.01,131.54,276.69,73.89,37,SBD,F,6
Amateur Master (60-64),Wraps,82.5,Carol Clarke,72.57,,58.97,,108.86,,240.4,80.92,61,SBD,F,1
Amateur Master 40-44,Raw,60,Tiffany Edwards,,,56.7,,,,56.7,59.87,40,B,F,1
Amateur Teen (18-19),Wraps,67.5,Patrick Smith,156.49,,86.18,,192.78,,435.45,65.91,19,SBD,M,1
Amateur Teen (18-19),Wraps,67.5,James Pak,140.61,,70.31,,136.08,,347,65.41,19,SBD,M,2
Amateur Teen (18-19),Wraps,75,Ethan Gaul,170.1,,77.11,,215.46,,462.66,74.25,19,SBD,M,1
Amateur Teen (18-19),Wraps,90,Chris Jones #7,174.63,,113.4,,215.46,,503.49,85.05,18,SBD,M,1
Amateur Junior,Wraps,67.5,Edward Mussi Jr,206.38,,113.4,,241.08,,560.87,65.73,23,SBD,M,1
Amateur Junior,Wraps,82.5,Alexander McCann,208.65,,142.88,,210.92,,562.45,78.47,20,SBD,M,1
Amateur Open,Wraps,67.5,Daniel Kelly,142.88,,99.79,,206.38,,449.06,65.27,33,SBD,M,1
Amateur Open,Wraps,75,Evan Perez,170.1,,99.79,,195.04,,464.93,73.26,24,SBD,M,1
Amateur Open,Wraps,75,Sean Kearney,156.49,,120.2,,154.22,,430.91,75,51,SBD,M,2
Amateur Open,Wraps,82.5,Justin Kompf,213.19,,122.47,,258.55,,594.21,80.88,26,SBD,M,1
Amateur Open,Wraps,90,David Scorzelli,201.85,,106.59,,215.46,,523.9,85.28,22,SBD,M,1
Amateur Master (50-54),Wraps,75,Sean Kearney,156.49,,120.2,,154.22,,430.91,75,51,SBD,M,1
Amateur Submaster,Multi-ply,90,Mike Siecieska,244.94,251.74,183.7,,229.06,,657.71,89.22,35,SBD,M,1
Pro Junior,Wraps,67.5,Edward Mussi Jr,206.38,,113.4,,241.08,,560.87,65.73,23,SBD,M,1
Pro Open,Wraps,75,Sean Kearney,156.49,,120.2,,154.22,,430.91,75,51,SBD,M,1
Pro Open,Wraps,82.5,David Dibble,217.72,,145.15,,240.4,,603.28,82.01,42,SBD,M,1
Pro Master (40-44),Wraps,82.5,David Dibble,217.72,,145.15,,240.4,,603.28,82.01,42,SBD,M,1
Pro Master (50-54),Wraps,75,Sean Kearney,156.49,,120.2,,154.22,,430.91,75,51,SBD,M,1
Pro Open,Multi-ply,67.5,William Phillips,272.16,,161.03,,247.21,,680.39,66.86,24,SBD,M,1
Amateur Open,Raw,90,Chris Olney,,,149.69,,226.8,,376.48,89.86,36,BD,M,1
Amateur Submaster,Raw,90,Chris Olney,,,149.69,,226.8,,376.48,89.86,36,BD,M,1
Amateur Open,Raw,67.5,Jesse Jerardi,,,102.06,,,,102.06,63.19,26,B,M,1
Amateur Open,Raw,75,Kevin Derkowski,,,97.52,,,,97.52,72.89,31,B,M,1
Amateur Open,Raw,90,Robert Mennella Jr,,,163.29,,,,163.29,88.27,34,B,M,1
Amateur Submaster,Raw,90,Robert Mennella Jr,,,163.29,,,,163.29,88.27,34,B,M,1
Amateur Police,Raw,67.5,Jesse Jerardi,,,102.06,,,,102.06,63.19,26,B,M,1
Amateur Police,Raw,75,Jeffrey Willis,,,136.08,,,,136.08,73.75,51,B,M,1
Amateur Police,Raw,90,Mike Randle,,,145.15,,,,145.15,88.22,30,B,M,1
Amateur Master (50-54),Raw,75,Jeffery Willis,,,136.08,,,,136.08,73.75,51,B,M,1
Pro Open,Raw,82.5,Keith O'Dell,,,170.1,,,,170.1,81.65,35,B,M,1
Amateur Junior,Wraps,125,Zak Mysza,210.92,,165.56,,256.28,,632.76,114.08,23,SBD,M,1
Amateur Open,Wraps,100,Christopher Emmons,217.72,,158.76,,263.08,,639.57,98.07,27,SBD,M,2
Amateur Open,Wraps,100,Rick Atkinson,264.22,272.16,176.9,,281.23,,722.35,98.52,28,SBD,M,1
Amateur Open,Wraps,140,Matthew Rice,353.8,,140.61,,283.5,,777.91,127.32,29,SBD,M,1
Amateur Police,Wraps,100,Rick Atkinson,264.22,272.16,176.9,,281.23,,722.35,98.52,28,SBD,M,1
Amateur Submaster,Wraps,140,Matthew Rice,353.8,,140.61,,283.5,,777.91,127.32,29,SBD,M,1
Amateur Submaster,Wraps,140,Sean Shea,278.96,,174.63,,294.84,,748.43,136.3,36,SBD,M,2
Pro Junior,Wraps,140,Jacob Pickett,342.46,,206.38,,312.98,,861.83,137.62,23,SBD,M,1
Pro Open,Wraps,100,Kyle Hines,278.96,,181.44,,181.44,,641.83,99.84,37,SBD,M,1
Pro Open,Wraps,110,AJ Burak,265.35,,215.46,,306.17,,786.98,108.95,25,SBD,M,1
Pro Open,Wraps,125,Sean Green,351.53,,206.38,,331.12,,889.04,122.92,29,SBD,M,1
Pro Police,Wraps,100,Daniel Bomysoad,215.46,,158.76,,235.87,,610.08,97.84,35,SBD,M,1
Pro Submaster,Wraps,100,Kyle Hines,278.96,,181.44,,181.44,,641.83,99.84,37,SBD,M,1
Pro Submaster,Wraps,100,Daniel Bomysoad,215.46,,158.76,,235.87,,610.08,97.84,35,SBD,M,2
Pro Submaster,Wraps,125,James Farina,238.14,,210.92,,249.48,,698.53,120.25,38,SBD,M,1
Amateur Junior,Raw,110,Matt Williams,,,174.63,,249.48,,424.11,106.19,20,BD,M,1
Amateur Open,Raw,110,Brian Baker,,,92.99,,213.19,,306.17,104.37,31,BD,M,1
Pro Open,Multi-ply,140,Will Barotti,,,415.04,,294.84,,709.87,139.71,32,BD,M,1
Pro Police,Multi-ply,140,Will Barotti,,,415.04,,294.84,,709.87,139.71,32,BD,M,1
Amateur Open,Raw,110,Robert Young Jr,,,213.19,,,,213.19,105.51,36,B,M,1
Amateur Open,Raw,125,Justin Demarra,,,199.58,,,,199.58,121.88,28,B,M,1
Amateur Police,Raw,110,Robert Young Jr,,,213.19,,,,213.19,105.51,36,B,M,1
Amateur Police,Raw,125,Brandon Kietlinski,,,183.7,,,,183.7,115.3,31,B,M,1
Amateur Submaster,Raw,110,Robert Young Jr,,,213.19,,,,213.19,105.51,36,B,M,1
Amateur Master (45-49),Raw,140,Todd Laughlin,,,161.03,,,,161.03,128.87,49,B,M,1
Amateur Master (65-69),Multi-ply,110,Barry Levers,,,174.63,,,,174.63,104.73,66,B,M,1
Pro Junior,Raw,140+,Brandon Van Grol,,,235.87,,,,235.87,157.71,21,B,M,1
Pro Open,Raw,110,AJ Burak,,,215.46,,,,215.46,108.95,25,B,M,1
