Name,WeightClassKg,BodyweightKg,State,Best3SquatKg,Best3BenchKg,Best3DeadliftKg,TotalKg,Event,Equipment,Sex,Division,Place
Timothy Thompson,67.5,66.95,GA,158.76,133.81,181.44,474,SBD,Wraps,M,Teenage 16-17,1
Nikki Dunavant,60,59.87,SC,124.74,81.65,142.88,349.27,SBD,Wraps,F,Teenage 18-19,1
Nicole Mayo,52,51.35,NJ,77.11,31.75,95.25,204.12,SBD,Wraps,F,Juniors,1
Christine Parham,60,59.87,SC,83.91,52.16,124.74,260.82,SBD,Wraps,F,Juniors,1
Shelby Arthmann,75,71.76,NC,117.93,61.23,149.69,328.85,SBD,Wraps,F,Juniors,1
Leslie Williams,75,73.75,SC,108.86,65.77,92.99,267.62,SBD,Wraps,F,Juniors,3
Hannah DeMartino,75,71.4,DE,88.45,63.5,136.08,288.03,SBD,Wraps,F,Juniors,2
Shawnee Carpenter,52,51.53,NC,90.72,43.09,95.25,229.06,SBD,Wraps,F,Open,1
Adriana Delgodo,56,55.79,VA,83.91,56.7,140.61,281.23,SBD,Wraps,F,Open,1
Kim Stokes,60,58.51,SC,83.91,43.09,90.72,217.72,SBD,Wraps,F,Open,1
Emily Sablone,60,59.24,SC,70.31,36.29,70.31,176.9,SBD,Wraps,F,Open,2
Kelly Self,67.5,66.68,VA,90.72,65.77,136.08,292.57,SBD,Wraps,F,Open,1
Christine Jaquess,90,88.72,NC,90.72,52.16,117.93,260.82,SBD,Wraps,F,Open,1
Aimee Norris,56,55.79,SC,86.18,52.16,131.54,269.89,SBD,Wraps,F,Sub-Masters,1
Nathan Grimm,75,73.48,OH,226.8,149.69,238.14,614.62,SBD,Wraps,M,Juniors,1
Jobriath Evans,75,74.12,sc,183.7,151.95,222.26,557.92,SBD,Wraps,M,Juniors,2
Anthony Winter,75,72.85,DE,142.88,115.67,181.44,439.98,SBD,Wraps,M,Juniors,3
Ryan Cabanting,75,70.13,SC,102.06,68.04,136.08,306.17,SBD,Wraps,M,Juniors,4
Addison Grantham,82.5,81.28,NC,204.12,158.76,229.06,591.94,SBD,Wraps,M,Juniors,1
Paul Bratton,82.5,80.1,VA,163.29,115.67,192.78,471.74,SBD,Wraps,M,Juniors,2
Charles Malewski,90,88.27,DE,190.51,161.03,231.33,582.87,SBD,Wraps,M,Juniors,1
Johnny Brown,90,88.99,SC,188.24,111.13,215.46,514.83,SBD,Wraps,M,Juniors,2
Cody McCoy,100,96.98,NC,204.12,140.61,244.94,589.67,SBD,Wraps,M,Juniors,1
Brian Panus,140,131,NC,226.8,199.58,274.42,700.8,SBD,Wraps,M,Juniors,1
Tad Sligae,75,74.21,SC,174.63,111.13,188.24,474,SBD,Wraps,M,Open,1
Jared Fritz,75,73.39,SC,156.49,108.86,165.56,430.91,SBD,Wraps,M,Open,2
Larry Dyles,82.5,82.1,VA,274.42,179.17,260.82,714.41,SBD,Wraps,M,Open,1
William Moorman,82.5,82.1,VA,247.21,131.54,256.28,635.03,SBD,Wraps,M,Open,2
Kyle Jones,82.5,78.29,NC,174.63,156.49,229.06,560.19,SBD,Wraps,M,Open,3
Richard Carpenter,82.5,81.1,NC,199.58,124.74,226.8,551.11,SBD,Wraps,M,Open,4
Jerry Brock,90,87.63,SC,206.38,142.88,215.46,564.72,SBD,Wraps,M,Open,1
Brett Neal,90,83.19,SC,188.24,124.74,190.51,503.49,SBD,Wraps,M,Open,2
Eric Blum,90,86.45,NC,151.95,111.13,190.51,453.59,SBD,Wraps,M,Open,3
Steve Kozlowski,100,94.62,SC,181.44,117.93,238.14,537.51,SBD,Wraps,M,Open,1
Chris Weikert,100,92.99,SC,188.24,111.13,199.58,498.95,SBD,Wraps,M,Open,2
Mindis Jurenas,110,108.86,SC,328.85,192.78,319.78,841.41,SBD,Wraps,M,Open,1
Zachary Plocica,110,108.23,NC,285.76,167.83,331.12,784.71,SBD,Wraps,M,Open,2
Tom Port,118,113.94,SC,242.67,192.78,288.03,723.48,SBD,Wraps,M,Open,1
Nick Rubin,118,117.3,SC,170.1,120.2,231.33,521.63,SBD,Wraps,M,Open,3
Justin Buterbaugh,125,123.92,VA,249.48,181.44,274.42,705.34,SBD,Wraps,M,Open,2
Shawn Liberty,140,137.89,SC,272.16,185.97,276.69,734.82,SBD,Wraps,M,Open,1
TJ Watkins,140+,150.41,SC,319.78,192.78,342.46,855.02,SBD,Wraps,M,Open,1
Kyle Woods,140+,149.73,NC,306.17,204.12,283.5,793.79,SBD,Wraps,M,Open,2
Andrew Benton,90,88.63,NC,174.63,106.59,208.65,489.88,SBD,Wraps,M,Police and Fire,1
Mark Henrion,118,117.48,SC,163.29,124.74,210.92,498.95,SBD,Wraps,M,Police and Fire,1
Jared Griffith,140,127.01,SC,267.62,188.24,285.76,741.62,SBD,Wraps,M,Police and Fire,1
Dallas Norris,82.5,82.01,SC,251.74,136.08,249.48,637.3,SBD,Wraps,M,Sub-Masters,1
Keith Hare,90,89.54,SC,240.4,113.4,235.87,589.67,SBD,Wraps,M,Sub-Masters,1
Rob Hensel,100,93.62,SC,272.16,158.76,260.82,691.73,SBD,Wraps,M,Sub-Masters,1
Stewart Heniford,110,104.6,NC,158.76,95.25,192.78,446.79,SBD,Wraps,M,Sub-Masters,1
Jeremy Lewis,110,107.95,SC,145.15,115.67,183.7,444.52,SBD,Wraps,M,Sub-Masters,2
Shawn Hester,140+,146.24,SC,256.28,219.99,233.6,709.87,SBD,Wraps,M,Sub-Masters,1
Bryant Dilda,110,108.32,NC,299.37,172.37,249.48,721.21,SBD,Wraps,M,Masters 45-49,1
Michael Cooper,90,85.73,SC,240.4,181.44,215.46,637.3,SBD,Single-ply,M,Juniors,1
Tom Geist,90,85,NC,278.96,231.33,254.01,764.3,SBD,Single-ply,M,Police and Fire,1
Shawn Jaquess,100,98.7,NC,238.14,174.63,238.14,650.91,SBD,Single-ply,M,Sub-Masters,1
Jim Bennett,100,93.53,SC,204.12,113.4,240.4,557.92,SBD,Single-ply,M,Masters 55-59,1
Nicholas Hrabley,82.5,79.56,SC,272.16,213.19,226.8,712.14,SBD,Multi-ply,M,Juniors,1
Matt Wilson,90,89.81,SC,265.35,247.21,249.48,762.04,SBD,Multi-ply,M,Open,1
Max Graifer,100,97.98,SC,263.08,226.8,235.87,725.75,SBD,Multi-ply,M,Open,1
Dale Stiefel,140,139.71,SC,410.5,288.03,310.71,1009.24,SBD,Multi-ply,M,Open,1
Rob Petello,140+,141.97,SC,374.21,249.48,306.17,929.86,SBD,Multi-ply,M,Open,1
Donald Grunstra,110,108.05,SC,283.5,197.31,226.8,707.61,SBD,Multi-ply,M,Masters 45-49,1
William Koester,100,98.61,SC,226.8,154.22,163.29,544.31,SBD,Multi-ply,M,Masters 50-54,1
Ron Blackmon,90,89.81,SC,215.46,215.46,215.46,646.37,SBD,Multi-ply,M,Masters 65-69,1
Jeremy Tessier,75,73.39,SC,,95.25,158.76,254.01,BD,Raw,M,Open,1
Derrick Nunn,100,97.7,SC,,197.31,258.55,455.86,BD,Raw,M,Sub-Masters,1
Jeff Cobb,125,120.75,SC,,183.7,,183.7,B,Raw,M,Open,1
Raymond Hubbe,100,97.7,SC,,138.35,,138.35,B,Raw,M,Masters 60-64,1
Jason Graham,90,89.81,NC,,158.76,,158.76,B,Single-ply,M,Sub-Masters,1
Roger Pardue,100,97.52,SC,,215.46,,215.46,B,Multi-ply,M,Masters 50-54,1
Ron Blackmon,90,89.81,SC,,215.46,,215.46,B,Multi-ply,M,Masters 65-69,1
Chris Liles,125,124.19,SC,,,249.48,249.48,D,Raw,M,Sub-Masters,1
Mikki Campbell,118,116.57,SC,,,249.48,249.48,D,Raw,M,Masters 40-44,1
