Sex,Equipment,Division,WeightClassKg,Name,Age,BodyweightKg,Best3SquatKg,Best3BenchKg,Best3DeadliftKg,TotalKg,Place,Event
F,Wraps,Amateur Master 50-54,52,Carolyn Privitera-Gage,,50.89,77.11,38.56,77.11,192.78,1,SBD
F,Raw,Amateur Open,67.5,Stephanie Hill,,66.13,79.38,47.63,97.52,224.53,1,SBD
F,Raw,Pro Open,67.5,Courtney Brown,,63.05,136.08,72.57,165.56,374.21,1,SBD
F,Wraps,Amateur Open,67.5,Shannon Larsen,,65.41,88.45,54.43,108.86,251.74,1,SBD
F,Raw,Amateur Submaster 33-39,82.5,Kelly Zimmerman,,78.38,70.31,49.9,136.08,256.28,1,SBD
F,Raw,Amateur Junior 20-23,100,Megan Chipman,,95.71,124.74,58.97,133.81,317.51,1,SBD
M,Raw,Amateur Teen 18-19,67.5,Jon Vara,,65.5,145.15,97.52,204.12,446.79,1,SBD
M,Raw,Amateur Teen 16-17,75,Jorian Holka,,74.21,147.42,104.33,192.78,444.52,1,SBD
M,Raw,Amateur Open,75,James Kallies,,74.21,172.37,111.13,201.85,485.34,1,SBD
M,Raw,Amateur Submaster 33-39,75,Mathew Maury,,74.93,156.49,120.2,215.46,492.15,1,SBD
M,Wraps,Amateur Submaster 33-39,75,Mathew Maury,,74.93,156.49,120.2,215.46,492.15,1,SBD
M,Wraps,Amateur Open,75,Justin Bradt,,72.3,183.7,142.88,204.12,530.7,1,SBD
M,Multi-ply,Amateur Open,75,Jeffrey Blando,,72.3,129.27,88.45,142.88,360.61,1,SBD
M,Raw,Amateur Teen 16-17,82.5,Colin Ribis,,80.74,145.15,113.4,192.78,451.32,1,SBD
M,Raw,Amateur Junior 20-23,82.5,Justin Oneid,,81.56,158.76,124.74,185.97,469.47,1,SBD
M,Wraps,Amateur Teen 16-17,82.5,Landon Wilcock,,81.56,183.7,95.25,213.19,492.15,1,SBD
M,Wraps,Amateur Teen 18-19,82.5,Justin Kristl,,81.65,183.7,156.49,199.58,539.77,1,SBD
M,Wraps,Amateur Open,82.5,Tafari Harris,,82.01,190.51,133.81,235.87,560.19,1,SBD
M,Wraps,Amateur Open,82.5,Eric Kulba,,82.19,192.78,124.74,219.99,537.51,2,SBD
M,Wraps,Amateur Submaster 33-39,82.5,Eric Kulba,,82.19,192.78,124.74,219.99,537.51,1,SBD
M,Multi-ply,Amateur Junior 20-23,82.5,Marcus Morris,,81.37,283.5,215.46,226.8,725.75,1,SBD
M,Multi-ply,Amateur Open,82.5,Todd Hamer,,81.92,249.48,181.44,222.26,653.17,1,SBD
M,Multi-ply,Pro Open,82.5,Matthew J House,,82.44,276.69,219.99,247.21,743.89,1,SBD
M,Raw,Amateur Open,90,Stephen E Marx,,88,183.7,140.61,254.01,578.33,1,SBD
M,Raw,Amateur Open,90,Alfred Chow,,86.91,185.97,113.4,210.92,510.29,2,SBD
M,Raw,Amateur Open,90,Josh Handen,,88.9,176.9,120.2,208.65,505.76,3,SBD
M,Wraps,Amateur Teen 18-19,90,Kyle Higgins,,87.63,215.46,138.35,242.67,596.47,1,SBD
M,Wraps,Amateur Junior 20-23,90,Max Gordon,,89.36,206.38,129.27,226.8,562.45,1,SBD
M,Wraps,Amateur Open,90,Michael DeGouff,,89.09,,,,,DQ,SBD
M,Raw,Amateur Teen 18-19,90,Marco Vilardo,,88.72,149.69,,,149.69,1,S
F,Raw,Amateur Junior 20-23,60,Gina Medici,,58.6,,61.23,,61.23,1,B
M,Raw,Amateur Junior 20-23,67.5,Samuel Carpenter,,67.22,,145.15,,145.15,1,B
M,Raw,Pro Junior 20-23,67.5,Samuel Carpenter,,67.22,,145.15,,145.15,1,B
M,Multi-ply,Pro Open,67.5,Joe Ceklovsky,,66.59,,240.4,,240.4,1,B
M,Raw,Amateur Open,75,Brad McElveen,,73.94,,131.54,,131.54,1,B
M,Raw,Amateur Submaster 33-39,75,Brad McElveen,,73.94,,131.54,,131.54,1,B
M,Raw,Amateur Open,90,Durell Cull,,86.73,,190.51,,,DQ,BD
M,Raw,Amateur Submaster 33-39,90,Brad Parkhurst,,86.36,,138.35,183.7,322.05,1,BD
M,Raw,Amateur Teen 16-17,90,Kyle Podolak,,88.63,,120.2,195.04,315.25,1,BD
M,Raw,Amateur Teen 16-17,90,Willie Miles III,,86.27,,92.99,181.44,274.42,2,BD
M,Raw,Amateur Teen 18-19,90,Marco Vilardo,,88.72,,104.33,226.8,331.12,1,BD
M,Raw,Amateur Teen 16-17,110,Joe Newcomb,,107.14,,172.37,206.38,378.75,1,BD
M,Raw,Pro Master 45-49,90,James Moyna,,89.63,,,285.76,285.76,1,D
M,Raw,Pro Master 45-49,82.5,Adam Davis,,78.02,138.35,140.61,183.7,462.66,1,SBD
M,Wraps,Pro Junior 20-23,90,Ignatius DeFranco,,89.92,233.6,156.49,272.16,662.24,1,SBD
M,Wraps,Military Pro Open,90,Ignatius DeFranco,,89.92,233.6,156.49,272.16,662.24,1,SBD
M,Multi-ply,Pro Open,90,Chris Sullivan,,87.27,333.39,263.08,256.28,852.75,1,SBD
M,Raw,Amateur Teen 18-19,100,Nathan Lambert,,97.98,145.15,99.79,185.97,430.91,1,SBD
M,Raw,Amateur Junior 20-23,100,Tyler Kallasy,,97.79,206.38,136.08,238.14,580.6,1,SBD
M,Raw,Amateur Junior 20-23,100,Bobby Reome,,97.16,170.1,129.27,199.58,498.95,2,SBD
M,Raw,Amateur Open,100,Micah Mtatabikwa-Walker,,99.61,201.85,129.27,285.76,616.89,1,SBD
M,Raw,Amateur Open,100,Peter Evaldi,,94.98,201.85,145.15,242.67,589.67,2,SBD
M,Raw,Pro Junior 20-23,100,Luigi Fagiani,,99.34,244.94,181.44,344.73,771.11,1,SBD
M,Raw,Pro Open,100,Luigi Fagiani,,99.34,244.94,181.44,344.73,771.11,1,SBD
M,Raw,Police Amateur Open,100,Jacob Vogt,,98.88,183.7,147.42,233.6,564.72,1,SBD
M,Wraps,Pro Junior 20-23,100,Adam Ferchen,,97.79,272.16,188.24,294.84,755.23,1,SBD
M,Wraps,Pro Open,100,Paul Oneid,,99.06,299.37,185.97,285.76,771.11,1,SBD
M,Wraps,Pro Open,100,Adam Ferchen,,97.79,272.16,188.24,294.84,755.23,2,SBD
M,Wraps,Pro Open,100,Kirk Dean,,99.16,242.67,124.74,272.16,639.57,3,SBD
M,Wraps,Pro Open,100,Shawn Bishop,,98.97,208.65,163.29,251.74,623.69,4,SBD
M,Wraps,Amateur Junior 20-23,100,Michael Lackey,,97.43,235.87,183.7,258.55,678.12,1,SBD
M,Wraps,Amateur Junior 20-23,100,Skyler Farley,,92.99,224.53,142.88,254.01,621.42,2,SBD
M,Wraps,Amateur Junior 20-23,100,Jordan Gaudette,,99.34,204.12,127.01,229.06,560.19,3,SBD
M,Wraps,Amateur Open,110,Mike Babula,,109.23,206.38,158.76,260.82,625.96,1,SBD
M,Wraps,Amateur Open,110,Sean Healy,,107.59,158.76,117.93,226.8,503.49,2,SBD
M,Wraps,Pro Junior 20-23,110,Alex Alexander,,108.86,258.55,179.17,294.84,732.55,1,SBD
M,Wraps,Pro Junior 20-23,110,Kyle Sheridan #1,,106.96,,,,,DQ,SBD
M,Wraps,Pro Open,110,Casey Williams,,107.41,328.85,215.46,328.85,873.17,1,SBD
M,Wraps,Pro Open,110,Kyle Sheridan #1,,106.96,,,,,DQ,SBD
M,Wraps,Pro Master 40-44,110,Alexander Omand,,107.32,215.46,138.35,249.48,603.28,1,SBD
M,Wraps,Pro Master 50-54,110,Jim Hinkley,,104.33,183.7,154.22,204.12,542.04,1,SBD
M,Raw,Pro Junior 20-23,110,Edward Wilson Jr,,107.86,226.8,192.78,308.44,728.02,1,SBD
M,Raw,Pro Open,110,Rich Coppede,,109.32,276.69,219.99,274.42,771.11,1,SBD
M,Raw,Pro Open,110,Edward Wilson Jr,,107.86,226.8,192.78,308.44,728.02,2,SBD
M,Multi-ply,Amateur Master 40-44,110,Derek Barker,,106.68,340.19,70.31,276.69,687.19,1,SBD
M,Raw,Amateur Open,125,Jason Weaver #1,,110.68,256.28,165.56,258.55,680.39,1,SBD
M,Raw,Amateur Open,125,David Wilson Jr,,111.04,183.7,111.13,197.31,492.15,2,SBD
M,Raw,Amateur Master 40-44,125,Alberto Velazquez,,121.83,183.7,90.72,192.78,467.2,1,SBD
M,Wraps,Amateur Master 45-49,125,James Skinner,,120.66,247.21,138.35,260.82,646.37,1,SBD
M,Wraps,Amateur Master 50-54,125,David Stacey,,114.03,204.12,158.76,195.04,557.92,1,SBD
M,Wraps,Amateur Submaster 33-39,125,Drew Bielomyza,,121.02,263.08,158.76,267.62,689.46,1,SBD
M,Wraps,Amateur Junior 20-23,125,Bryan Owens,,123.47,215.46,147.42,254.01,616.89,1,SBD
M,Wraps,Amateur Junior 20-23,125,Chris Kenyon,,114.49,165.56,124.74,247.21,537.51,2,SBD
M,Wraps,Amateur Open,125,Zach Murphy,,121.56,226.8,124.74,247.21,598.74,1,SBD
M,Wraps,Pro Open,125,Pete Knutsen,,120.66,249.48,161.03,317.51,728.02,1,SBD
M,Single-ply,Amateur Open,125,Chris Goodman,,121.02,226.8,204.12,272.16,703.07,1,SBD
M,Multi-ply,Amateur Teen 16-17,125,Devon Patterson,,116.48,301.64,149.69,272.16,723.48,1,SBD
M,Wraps,Amateur Submaster 33-39,140,Adam Sawyer,,137.26,272.16,165.56,260.82,698.53,1,SBD
M,Single-ply,Amateur Master 50+,140,Fred Seeburger,52,136.44,317.51,167.83,254.01,739.36,1,SBD
M,Raw,Amateur Open,140,Mike DeSalvatore,,126.64,249.48,226.8,226.8,703.07,1,SBD
M,Multi-ply,Amateur Teen 16-17,140,Zach Gibson,,136.17,197.31,183.7,208.65,589.67,1,SBD
M,Multi-ply,Pro Open,140,Nate Harvey,,134.35,453.59,317.51,335.66,1106.77,1,SBD
M,Wraps,Amateur Open,140+,Jordan Wolf,,143.24,272.16,199.58,238.14,709.87,1,SBD
M,Multi-ply,Pro Open,140+,Ed Jaskulski,,149.69,,,,,DQ,SBD
M,Single-ply,Amateur Open,100,Andrei Oudovikine,,99.79,,195.04,,195.04,1,B
M,Multi-ply,Amateur Master 45-49,100,Darrell Sterling,,97.98,,226.8,,226.8,1,B
M,Multi-ply,Pro Junior 20-23,110,Jonathan Osucha,,105.78,,297.1,,297.1,1,B
M,Single-ply,Pro Master 50-54,125,Bob Boissey,,115.67,,149.69,,149.69,1,B
M,Raw,Pro Open,125,Shawn Petronella,,123.2,,210.92,,210.92,1,B
M,Raw,Military Pro Open,125,Shawn Petronella,,123.2,,210.92,,210.92,1,B
M,Multi-ply,Pro Open,125,Rich Putnam,,120.47,,333.39,,333.39,1,B
M,Raw,Amateur Master 70-74,140,George Flikas,,126.64,,183.7,,183.7,1,B
M,Raw,Amateur Open,140+,Mike Parsons,,156.4,,185.97,,185.97,1,B
M,Multi-ply,Pro Open,140+,Robert Perraeult,,146.96,,,,,DQ,B
M,Raw,Amateur Submaster 33-39,140,Charles Lemon,,132.45,,149.69,181.44,331.12,1,BD
