                                                             CAMPEONATO PANAMERICANO TALCA, CHILE 2018
                                      POWERLIFTING
                               Nacimiento                            Div 1    Div 2    Fed Corporal Peso      1        2         3      4   Total     1       2        3        4     Total             1        2        3      4   Total

1    Amelia Osorio Macias                   F Bolivia                Open              GPA    46,7   48     -80,0    80,0      90,0         90,0    37,5    40,0     42,5             42,5    132,5   95,0     -102,5   105,0        105,0 237,5      2       2,424    575,70

2    Karina Garcés             24/07/1993   F Chile          25      Open              GPA    47,4   48     102,5    107,5     112,5        112,5   47,5    50,0     -52,5            50,0    162,5   125,0    130,0    135,0        135,0 297,5      1       2,369    704,78

3    Carolina Ramos            25/11/1991   F Argentina      26      Open              GPA    51,8   52     140,0    152,5     -160,0       152,5   70,0    72,5     77,5             77,5    230,0   150,0    162,5    172,5        172,5 402,5      1       2,092    842,03

4    Paula Berrios             09/02/1989   F Chile          29      Open              GPA    51,9   52     95,0     105,0     115,0        115,0   47,5    50,0     -52,5            50,0    165,0   117,5    125,0    130,0        130,0 295,0      2       2,092    617,14

5    Mary Espinal Vasquez                   F Perú                   Open              GPA    55,8   56     115,0    120,0     -125,0       120,0   57,5    62,5     -67,5            62,5    182,5   110,0    120,0    130,0        130,0 312,5      2       1,914    598,13

6    Mariana Miguez            29/08/1983   F Argentina      35      Open              GPA    54,7   56     130,0    140,0     150,0        150,0   65,0    70,0     -72,5            70,0    220,0   150,0    160,0    170,0        170,0 390,0      1       1,963    765,57

7    Liz Angulo                18/01/1974   F Bolivia        44     M40-49             GPA    54,9   56     -127,5   127,5     130,0        130,0   70,0    75,0     -77,5            75,0    205,0   140,0    145,0    -152,5       145,0 350,0      1       1,953    683,55

8    Antonella Vasquez         20/10/1977   F Argentina      40     M40-49             GPA    54,1   56     -140,0   -140,0    -140,0                                                  0,0                                                   DSQ              1,984

9    Noemi Anaquin             19/08/1992   F Argentina      26      Open              IPO    53,8   56     145,0    152,5     -157,5       152,5   75,0    80,0     85,0             85,0    237,5   145,0    155,0    160,0        160,0 397,5      1       1,994    792,62     1
10 Nadreen El Abyad Céspedes   07/11/1997   F Bolivia        20     Junior             GPA    58,9   60     80,0     90,0      -100,0       90,0    30,0    35,0     -37,5            35,0    125,0   -100,0   100,0    110,0        110,0 235,0      1       1,815    426,53

11 Inés Alejandra Zeballos     06/03/1970   F Argentina      48     M40-49             GPA    58,8   60     100,0    125,0     135,0        135,0   60,0    65,0     -70,0            65,0    200,0   130,0    150,0    160,0        160,0 360,0      2       1,815    653,40

12 Yassna Riffo                01/11/1973   F Chile          44      Open     M40-49   GPA    59,7   60     130,0    -140,0                 130,0   72,5    77,5     80,0             80,0    210,0   140,0    150,0    155,0        155,0 365,0      1;1     1,795    655,18

13 Macarena Aravena            18/06/2002   F Chile          16     Tn16-17            GPA    56,0   60     50,0     57,5      -65,0        57,5    -20,0   25,0     -32,5            25,0    82,5    85,0     -95,0    -100,0       85,0    167,5    1       1,905    319,09

14 Natalys Aravena             30/12/1993   F Chile          24      Open              GPA    66,9   67,5   160,0    170,0     180,0        180,0   70,0    75,0     77,5             77,5    257,5   140,0    150,0    160,0        160,0 417,5      1       1,651    689,29

15 Génesis Pacheco             28/04/2000   F Chile          18     Tn18-19            GPA    66,7   67,5   135,0    140,0     150,0        150,0   62,5    65,0     70,0             70,0    220,0   -125,0   130,0    140,0        140,0 360,0      1       1,655    595,80

16 Rosalía Llancaleo           19/09/1968   F Chile          49     M40-49             GPA    65,8   67,5   190,0    -200,0    200,0        200,0   80,0    90,0     95,0             95,0    295,0   150,0    160,0    170,0        170,0 465,0      1       1,668    775,62

17 Erika Cruces                11/08/1974   F Chile          44     M40-49             GPA    72,6   75     200,0    220,0     230,0        230,0   90,0    100,0    105,0            105,0   335,0   180,0    -190,0   200,0        200,0 535,0      1       1,574    842,09     1
18 Daniela Ricail              03/12/1991   F Argentina      26      Open              GPA    76,9   82,5   170,0    182,5     192,5        192,5   82,5    -90,0    97,5             97,5    290,0   160,0    172,5    182,5        182,5 472,5      1       1,526    721,04

19 Maria Renaut                24/03/1974   F Chile          44      Open              GPA    80,0   82,5   150,0    160,0     170,0        170,0   -60,0   65,0     70,0             70,0    240,0   -180,0   180,0                 180,0 420,0      2       1,497    628,74

20 Adriana Jorgensen Ibañez                 F Bolivia                Open              GPA    82,3   82,5   145,0    150,0     157,5        157,5   50,0    57,5     62,5             62,5    220,0   145,0    150,0    155,0        155,0 375,0      3       1,477    553,88

21 Severo Pacheco Ramos        07/06/2000 M Perú             18     Tn18-19            GPA    55,8   56     130,0    140,0     -150,0       140,0   67,5    -75,0    -75,0            67,5    207,5   145,0    157,5    -161,0       157,5 365,0      1       1,605    585,83

22 Cristian Mateluna           14/07/1986 M Chile            32      Open              GPA    55,2   56     135,0    138,0     -141,0       137,5   90,0    -91,0    91,0     -93,0   90,0    227,5   162,5    -187,5   -187,5       162,5 390,0      1       1,642    640,38

23 Luis Romero                 22/10/2000 M Chile            17     Tn16-17            GPA    59,0   60     120,0    -130,0    137,5        137,5   70,0    75,0     -80,0            75,0    212,5   120,0    -135,0   135,0        135,0 347,5      1       1,460    507,35

24 Julio Chura Quentasi        01/07/1946 M Perú             72     M70-79             IPO    64,1   67,5   115,0    125,0     130,0        130,0   100,0   -110,0   -110,0           100,0   230,0   140,0    150,0    155,0        155,0 385,0      1       1,311    504,74

25 Álvaro Mardones             06/04/1998 M Chile            20      Open     Junior   GPA    67,4   67,5   -200,0   200,0     220,0        220,0   115,0   120,0    125,0            125,0   345,0   240,0    255,0    -265,0       255,0 600,0      1;1     1,242    745,20

26 Julio Flores Blas                        M Perú                   Open              GPA    66,4   67,5   150,0    160,0     170,0        170,0   95,0    102,5    -107,5           102,5   272,5   170,0    185,0    -195,0       185,0 457,5      2       1,263    577,82

27 Jorge González              08/06/2003 M Chile            15     Tn13-15            GPA    65,4   67,5   115,0    120,0     -132,5       120,0   60,0    67,5     -72,5            67,5    187,5   130,0    -140,0   -140,0       130,0 317,5      1       1,284    407,67

28 Cristian García             02/01/1989 M Chile            29      Open              IPO    66,5   67,5   200,0    -215,0    -215,0       200,0   -90,0   90,0     95,0             95,0    295,0   205,0    220,0    -240,0       220,0 515,0      1       1,257    647,36
29 Isaac Huamaní                        M Perú            Open              GPA    74,9   75     200,0    -210,0   212,5    212,5    135,0    142,5    145,0    145,0   357,5    200,0    210,0    225,0             225,0 582,5    3     1,120   652,40

30 Julio Ticona Nieto      04/09/1959 M Perú        59   M50-59             IPO    74,6   75     130,0    150,0    165,0    165,0    105,0    112,5    115,0    115,0   280,0    150,0    165,0    170,0             170,0 450,0    1     1,124   505,80

31 Rodrigo Puchó           04/08/1999 M Bolivia     19   Tn18-19            GPA    70,5   75     175,0    185,0    -195,0   185,0    82,5     87,5     92,5     92,5    277,5    185,0    197,5    205,0             205,0 482,5    1     1,186   572,25

32 Leandro Albornoz        15/09/1992 M Argentina   25    Open              GPA    74,8   75     225,0    -245,0   245,0    245,0    122,5    -132,5   132,5    132,5   377,5    -250,0   -250,0   250,0             250,0 627,5    2     1,120   702,80

33 Arnaldo Salinas         01/04/1983 M Chile       35    Open              GPA    74,0   75     255,0    -275,0   -275,0   255,0    120,0    130,0    135,0    135,0   390,0    250,0    265,0    -277,5            265,0 655,0    1     1,132   741,46

34 Raúl Gajardo            19/08/2002 M Chile       16   Tn16-17            GPA    74,2   75     115,0    120,0    125,0    125,0    65,0     72,5     77,5     77,5    202,5    -155,0   160,0    170,0             170,0 372,5    1     1,132   421,67

35 Óscar Vásquez           31/08/1995 M Chile       23   Junior             GPA    74,2   75     170,0    -182,5   187,5    187,5    95,0     100,0    -102,5   100,0   287,5    195,0    202,5    212,5             212,5 500,0    1     1,132   566,00

36 Darlyn Nima Ramos       05/10/1984   M Perú      34    Open              GPA    78,6   82,5   190,0    205,0    220,0    220,0    135,0    145,0    -150,0   145,0   365,0    210,0    230,0    -235,0            230,0 595,0    2     1,072   637,84

37 Marco Salinas Castro                 M Bolivia         Open              GPA    78,2   82,5   195,0    -207,5   -220,0   195,0    110,0    120,0    -130,0   120,0   315,0    195,0    215,0    230,0             230,0 545,0    3     1,078   587,51

38 Roberto Guzman Roca     16/02/1996 M Bolivia     22   Junior             GPA    82,4   82,5   -250,0   -250,0   250,0    250,0    130,0    140,0    -145,0   140,0   390,0    245,0    255,0    257,5    263,0    257,5 647,5    1     1,031   667,57

39 Felipe Lleucún          06/09/2002 M Chile       15   Tn13-15            GPA    78,8   82,5   130,0    140,0    -150,0   140,0    72,5     -77,5    -77,5    72,5    212,5    180,0    190,0    200,0    -210,0   200,0 412,5    1     0,107   44,10

40 Lenin Rojas             25/09/2000 M Chile       17   Tn16-17            GPA    82,4   82,5   130,0    145,0    -160,0   145,0    60,0     75,0     -87,5    75,0    220,0    170,0    180,0    -200,0            180,0 400,0    1     1,031   412,40

41 Francisco Parra         31/10/1994 M Chile       23    Open     Junior   GPA    79,7   82,5   250,0    -260,0   260,0    260,0    130,0    140,0    145,0    145,0   405,0    215,0    225,0    -240,0            225,0 630,0    1;2   1,060   667,80

42 Alejo Philipp           18/12/1994 M Argentina   23   Junior             GPA    90,0   90     245,0    265,0    -270,0   265,0    140,0    152,5    -160,0   152,5   417,5    225,0    245,0    257,5             257,5 675,0    1     0,969   654,08

43 Felipe Hernández        03/04/1998 M Chile       20   Junior             GPA    82,7   90     180,0    200,0    -215,0   200,0    100,0    105,0    -112,5   105,0   305,0    160,0    175,0    185,0             185,0 490,0    2     1,029   504,21

44 Nicolas Quilodran       05/11/1972 M Argentina   45   M40-49             GPA    86,8   90     220,0    235,0    255,0    255,0    145,0    155,0    -167,5   155,0   410,0    220,0    235,0    -245,0            235,0 645,0    1     0,992   639,84

45 Juan Ales               09/03/1957 M Argentina   61   M60-69             GPA    88,7   90     170,0    185,0    210,0    210,0    120,0    125,0    -132,5   125,0   335,0    180,0    200,0    210,0             210,0 545,0    1     0,979   533,56

46 Cristian Marín          05/11/1984   M Chile     33    Open              GPA    89,8   90     250,0    -260,0   -260,0   250,0    155,0    160,0    -165,0   160,0   410,0    240,0    -250,0                     240,0 650,0    1     0,970   630,50

47 Diego Carrasco          08/06/2000 M Chile       18   Tn18-19            GPA    88,2   90     210,0    -230,0   240,0    240,0    105,0    112,5    115,0    115,0   355,0    230,0    250,0    265,0             265,0 620,0    1     0,983   609,46

48 Alexis Solis            26/04/1981 M Ecuador     37    Open              IPO    72,8   75     215,0    225,0    235,0    235,0    -130,0   130,0             130,0   365,0    195,0    205,0                      205,0 570,0    1     1,151   656,07

49 Gregorio Gritzmann      24/09/1965 M Paraguay    52   M50-59             GPA    98,4   100    145,0    155,0    165,0    165,0    105,0    110,0    115,0    115,0   280,0    170,0    185,0    195,0             195,0 475,0    1     0,922   437,95

50 Jose Oviedo             23/09/1993 M Paraguay    24    Open              GPA    92,0   100    -220,0   -220,0            -220,0                               0,0    -220,0                                       0,0   -220,0         0,954   -209,88

51 Reucher Correa Arroyo   08/09/2002 M Perú        15   Tn13-15            GPA    91,1   100    160,0    190,0    220,0    220,0    100,0    120,0    -132,5   120,0   340,0    170,0    190,0    205,0             205,0 545,0    1     0,961   523,75

52 Juan Parada             12/09/1987 M Chile       30    Open              GPA    98,5   100    265,0    -282,5   282,5    282,5    130,0    -140,0   140,0    140,0   422,5    260,0    270,0    -277,5            270,0 692,5    1     0,921   637,79

53 Christian Sepúlveda     10/02/1995 M Chile       23   Junior             GPA    96,9   100    230,0    240,0             240,0    140,0    150,0             150,0   390,0    200,0    215,0                      215,0 605,0    1     0,928   561,44

54 Matías Iturra           08/08/1991 M Chile       27    Open              GPA   106,1   110    280,0    -300,0   -300,0   280,0    180,0    190,0    -197,5   190,0   470,0    250,0    280,0    -300,0            280,0 750,0    1     0,895   671,25

55 Fernando Rivera         25/02/2002 M Chile       16   Tn16-17            GPA   108,7   110    170,0    180,0    190,0    190,0    90,0     100,0    -110,0   100,0   290,0    200,0    210,0    215,0             215,0 505,0    1     0,889   448,95

56 Manuel Lleucún          10/08/1998 M Chile       20   Junior             GPA   100,2   110    -190,0   190,0    -220,0   190,0    -100,0   105,0    -110,0   105,0   295,0    240,0    255,0    -270,0            255,0 550,0    1     0,915   503,25

57 Enzo Castro             02/09/1984 M Chile       33    Open              IPO   110,0   110    310,0    -325,0            310,0    200,0    -210,0   210,0    210,0   520,0    240,0    255,0    262,5             262,5 782,5    1     0,885   692,51    1
58 Javier Melgar Henrich   21/01/1982 M Bolivia     36    Open              GPA   122,5   125    320,0    -340,0   -340,0   320,0    170,0    -180,0   -180,0   170,0   490,0    267,5    280,0    290,0             290,0 780,0    1     0,861   671,58

59 José Cortés             07/10/1992 M Chile       25    Open              GPA   123,4   125    240,0    260,0    270,0    270,0    132,5    140,0    147,5    147,5   417,5    240,0    260,0    -280,0            260,0 677,5    2     0,860   582,65

60 Sergio Mardones         10/05/1989 M Chile       29    Open              GPA   139,9   140    381,0    405,0    -426,0   405,0    200,0    220,0    232,5    232,5   637,5    285,0    312,5    -320,0            312,5 950,0    1     0,840   798,00    1
61 Moisés Muñoz            05/10/2000 M Chile       17   Tn18-19            GPA   130,2   140    130,0    -140,0   -150,0   130,0    60,0     65,0     70,0     70,0    200,0    170,0    172,5    -180,0            172,5 372,5    1     0,851   317,00

62 Edgardo Leal            19/04/1973 M Chile       45    Open     M40-49   GPA   164,6   140+   310,0    320,0             320,0    180,0    -190,0   190,0    190,0   510,0    260,0    -280,0   -280,0            260,0 770,0    1;1   0,821   632,17


                               Nacimiento                            Div 1    Div 2   Fed Corporal Peso      1        2        3        4      Total
1    Rosalía Llancaleo         19/09/1968 F Chile             49     M40-49           GPA    66,5   67,5   90,0     95,0     -97,5             95,0    1       1,655    157,23     1
2    César Sotomayor Galindo   19/10/1970 M Perú              47     M40-49           GPA    58,7   60     60,0     -85,0    -85,0             60,0    1       1,478    88,68

3    Gonzalo Nuñez Borja       07/11/1976 M Perú              41     Open     M40-49 GPA     65,6   67,5   100,0    110,0    -112,5            110,0   1;2     1,279    140,69

4    Luis Ahumada              24/02/1974 M Chile             44     Open             GPA    66,7   67,5   130,0    135,0    -140,0            135,0   1       1,257    169,70

5    Fabio Goldfarb            23/03/1986 M Argentina         32     Open             GPA    75,0   75     130,0    140,0    -147,5            140,0   1       1,117    156,38

6    Darlyn Nima Ramos         05/10/1984 M Perú              34     Open             GPA    80,3   82,5   137,5    142,5    -150,0            142,5   3       1,051    149,77

7    Juan Lema                 09/08/1992 M Chile             26     Open             GPA    82,3   82,5   150,0    -152,5   -157,5            150,0   2       1,031    154,65

8    Sergio Barrientos         03/09/1978 M Argentina         39     Open             GPA    81,4   82,5   147,5    152,5    155,0             155,0   1       1,041    161,36

9    Roberto Cavani Rosas      05/09/1965 M Argentina         52     M50-59           GPA    81,7   82,5   145,0    152,5    155,0    -160,5   155,0   1       1,039    161,05

10 Enrique Miranda             30/05/2001 M Chile             17 Tn16-17              GPA    84,9   90     100,0    105,0    -110,0            105,0   1       1,008    105,84

11 Luis Muñoz                  09/05/1997 M Chile             21     Junior           GPA    89,2   90     120,0    135,0    -145,0            135,0   1       0,976    131,76

12 Fernando Vargas do Santos                M Brasil                 Open             GPA    88,8   90     140,0    -150,0   -150,0            140,0   1       0,978    136,92

13 Reucher Correa Arroyo       08/09/2002 M Perú              15 Tn13-15              GPA    91,3   100    100,0    120,0    -130,0            120,0   1       0,960    115,20

14 Jorge Carello               16/08/1978 M Argentina         40     M40-49           GPA    95,7   100    120,0    130,0    145,0             145,0   1       0,934    135,43

15 Christian Sepúlveda         10/02/1995 M Chile             23     Junior           GPA    99,1   100    150,0    -157,5   -157,5            150,0   1       0,919    137,85

16 Matías Iturra               08/08/1991 M Chile             27     Open             GPA   108,9   110    180,0    190,0    192,5             192,5   1       0,888    170,94     1
17 Enzo Castro                 02/09/1984 M Chile             34     Open             IPO   110,0   110    -200,0   200,0    215,0             215,0   1       0,885    190,28     1
18 Carlos Rogers               27/10/1980 M Chile             37     Open             GPA   118,2   125    155,0    165,0    -170,0            165,0   1       0,867    143,06

                          Nacimiento                             Div 1    Div 2    Fed      l     Peso       1        2        3      4   Total     1        2        3        4     Total
1    Maryorie Flores      01/12/1995   F Chile           22      Open     Junior   GPA      56,0    56                       62,5         62,5    130,0    135,0    -141,0           135,0   197,5    1;1     1,905    376,24

2    Angelica B Otharam                F Brasil                  Open              GPA      66,5   67,5    50,0     -60,0    -62,5        50,0    125,0    -130,0                    125,0   175,0    1       1,655    289,63

3    Erika Cruces         11/08/1974   F Chile           44     M40-49             GPA      73,0    75     80,0     -90,0    90,0         90,0    180,0    190,0                     190,0   280,0    1       1,567    438,76     1
4    Mario Espinoza       23/09/2001   M Chile           16     Tn16-17            GPA      57,1    60     60,0     67,5     -76,0        67,5    145,0    150,0    -155,0           150,0   217,5    1       1,543    335,60

5    Omar Gutiérrez       15/09/1990   M Chile           27      Open              GPA      66,6   67,5    110,0    120,0    122,5        122,5   200,0    220,0    225,0            225,0   347,5    1       1,257    436,81     1
6    Vicent Burgos        15/11/2000   M Chile           17     Tn16-17            GPA      66,8   67,5    50,0     55,0     -60,0        55,0    110,0    115,0    120,0            120,0   175,0    1       1,252    219,10

7    Juan Hernández       16/01/1996 M Chile             22     Junior             GPA      66,2   67,5    95,0     100,0    -107,5       100,0   165,0    175,0    180,0            180,0   280,0    1       1,268    355,04

8    Fabio Goldfar        23/03/1986   M Argentina       32      Open              GPA      75,0    75     -130,0   130,0    -142,5       130,0   -180,0   180,0    -247,5           180,0   310,0    1       1,117    346,27

9    Josue Riffo          28/09/2002 M Chile             15     Tn13-15            GPA      74,2    75     60,0     65,0     -72,5        65,0    -145,0   145,0    150,0    155,0   150,0   215,0    1       1,132    243,38

10 Cristian González      29/10/2001 M Chile             16     Tn16-17            GPA      73,9    75     52,5     -60,0    62,5         62,5    140,0    -150,0   -150,0           140,0   202,5    1       1,136    230,04

11 Ariel Martinez         13/07/1999 M Chile             19     Tn18-19            GPA      72,3    75     70,0     75,0     -80,0        75,0    155,0    160,0    170,0            170,0   245,0    1       1,158    283,71

12 José Rivas             11/06/1988   M Chile           30      Open              GPA      81,6   82,5             140,0    -150,0       140,0   240,0    250,0    260,0            260,0   400,0    1       1,039    415,60

13 Maximiliano Sáez       13/09/2002 M Chile             15     Tn13-15            GPA      75,4   82,5    65,0     70,0     -72,5        70,0    135,0    140,0    145,0            145,0   215,0    1       1,114    239,51

14 Anibal Mardones        06/05/1996 M Chile             22     Junior             GPA      80,4   82,5    120,0    130,0    -135,0       130,0   190,0    200,0    210,0            210,0   340,0    1       1,051    357,34

15 Cristian Marín         05/11/1984   M Chile           33      Open              GPA      89,9    90     160,0    165,0    -167,5       165,0   230,0    240,0    -250,0           240,0   405,0    1       0,970    392,85

16 Jeremías Paredes       15/07/1996   M Perú            22     Junior             GPA      88,4    90     -130,0   130,0    -137,5       130,0   190,0    210,0    -220,0           210,0   340,0    1       0,981    333,54

17 Miguel Aguirre         09/04/1974 M Argentina         44     M40-49             IPO      95,2   100     100,0    130,0                 130,0   160,0    200,0                     200,0   330,0    1       0,937    309,21

18 Juan Parada            12/09/1987 M Chile             30      Open              GPA      98,5   100     120,0    130,0                 130,0   255,0    272,5                     272,5   402,5    1       0,921    370,70

19 Bastían Oñate          08/03/2001 M Chile             17     Tn16-17            GPA      96,8   100     55,0     -57,5    60,0         60,0    140,0    147,5    150,0            150,0   210,0    1       0,928    194,88

20 Raul Olivieri          30/11/1983 M Argentina         34      Open              IPO     104,7   110     -150,0   160,0    -170,0       160,0   200,0    230,0    250,0            250,0   410,0    1       0,899    368,59     1
21 Matías Iturra          08/08/1991 M Chile             27      Open              GPA     108,9   110     170,0    180,0    190,0        190,0   280,0                              280,0   470,0    1       0,888    417,36

22 Oscar Melgar Rivero                 M Bolivia                 Open              GPA     122,8   125     167,5    -175,0   177,5        177,5   235,0    250,0    -262,5           250,0   427,5    1       0,860    367,65

23 Aldo Cornejo           05/01/1971 M Chile             47      Open     M40-49   GPA     140,5   140+    150,0    160,0    167,5        167,5   285,0    -306,0                    285,0   452,5    1;1     0,840    380,10



                          Nacimiento                            Div 1    Div 2    Fed Corporal Peso
1    Yassna Riffo         01/11/1973   F Chile          44      Open     M40-49   GPA    63,5    67,5   140,0    150,0      -155,0            150,0   1;1     1,707    256,05     1
2    Scarlet Silva        13/02/2003   F Chile          15     Tn13-15            GPA    72,2     75    95,0     100,0      105,0    107,5    105,0   1       1,580    165,90

3    Laura Valderrama     15/05/2001   F Chile          17     Tn16-17            GPA    72,6     75    82,5     90,0        -95,0            90,0    1       1,574    141,66

4    Yomara Soto          05/11/2003   F Chile          14     Tn13-15            GPA    75,3    82,5   85,0     90,0        95,0     -97,5   95,0    1       1,541    146,40

5    Cristian Mateluna    14/07/1986 M Chile            32      Open              GPA    55,8     56    165,0    170,0      180,0    -200,0   180,0   1       1,605    288,90     1
6    Dilan Brante         04/04/1994 M Chile            24      Open              GPA    65,7    67,5   -195,0   205,0      210,0    215,0    210,0   1       1,279    268,59

7    Diego Pérez          16/12/2000 M Chile            17     Tn16-17            GPA    77,5    82,5   110,0    117,5      125,0             125,0   1       1,084    135,50

8    Roberto Guzman       16/02/1996 M Bolivia          22     Junior             GPA    82,4    82,5   251,0    271,0      -280,0            271,0   1       1,031    279,40

9    Mauricio Rodríguez   06/07/1988 M Chile            30      Open              GPA    89,7     90    220,0    -242,5     -242,5            220,0   1       0,972    213,84

10 Jose Aguirre           17/11/1970 M Argentina        47     M40-49              IPO   98,6    100    180,0    220,0      240,0             240,0   1       0,921    221,04     1
11 Juan Parada            12/09/1987 M Chile            30      Open              GPA    98,5    100    240,0                                 240,0   1       0,921    221,04
