Name,Place,Division,Sex,Equipment,State,WeightClassKg,BodyweightKg,Age,Best3SquatKg,Best3BenchKg,Bench4Kg,Best3DeadliftKg,Deadlift4Kg,TotalKg,Event
Falon Gallipeau,1,Open,F,Raw,CA,60,58.24,26,70.00,62.50,,122.50,,255.00,SBD
Erika Hipwell,1,Open,F,Raw,CA,67.5,64.50,25,82.50,70.00,,127.50,,280.00,SBD
Philip Vang,1,Junior 16-17,M,Raw,CA,52,48.49,17,107.50,87.50,,120.00,,315.00,SBD
Craig Sano,1,Junior 20-23,M,Raw,CA,56,56,21,105.00,87.50,,142.50,,335.00,SBD
Robertson Yang,1,Junior 16-17,M,Raw,CA,67.5,63.78,17,110.00,77.50,,172.50,,360.00,SBD
Christopher Leyva,1,Junior 18-19,M,Raw,CA,67.5,67.45,18,170.00,115.00,,210.00,,495.00,SBD
Rodrigo Manzo,1,Junior 20-23,M,Raw,CA,67.5,66.54,20,177.50,105.00,,217.50,,500.00,SBD
Robert Aguilar,1,Junior 16-17,M,Raw,CA,75,74.89,17,132.50,112.50,,142.50,,387.50,SBD
Nick Ramsey,DQ,Junior 20-23,M,Raw,CA,75,74.34,22,167.50,-115.00,,180.00,,,SBD
Tyler Cox,DQ,Junior 18-19,M,Raw,CA,82.5,76.43,19,190.00,140.00,,-190.00,,,SBD
Nicholas Massa,1,Junior 16-17,M,Raw,CA,90,87.09,17,205.00,137.50,,232.50,,575.00,SBD
Francisco Pacheco,1,Junior 13-15,M,Raw,CA,100,97.16,15,135.00,102.50,,152.50,,390.00,SBD
Francisco Gama,1,Junior 18-19,M,Raw,CA,100,98.47,18,110.00,102.50,,192.50,,405.00,SBD
Bobby Vang,1,Junior 16-17,M,Raw,CA,110,107.55,17,122.50,70.00,,172.50,,365.00,SBD
Rodrigo Manzo,1,Open,M,Raw,CA,67.5,66.54,20,177.50,105.00,,217.50,,500.00,SBD
Christopher Leyva,2,Open,M,Raw,CA,67.5,67.45,18,170.00,115.00,,210.00,,495.00,SBD
Robertson Yang,3,Open,M,Raw,CA,67.5,63.78,17,110.00,77.50,,172.50,,360.00,SBD
Emmanuel Adeagbo,1,Open,M,Raw,CA,82.5,80.60,27,207.50,142.50,,250.00,,600.00,SBD
Francisco Gama,1,Open,M,Raw,CA,100,98.47,18,110.00,102.50,,192.50,,405.00,SBD
Francisco Pacheco,2,Open,M,Raw,CA,100,97.16,15,135.00,102.50,,152.50,,390.00,SBD
Jerry Tremblay,1,Open,M,Raw,CA,110,107.64,51,245.00,155.00,,240.00,,640.00,SBD
Bobby Vang,2,Open,M,Raw,CA,110,107.55,17,122.50,70.00,,172.50,,365.00,SBD
Jerry Tremblay,1,Master 50-54,M,Raw,CA,110,107.64,51,245.00,155.00,,240.00,,640.00,SBD
Nisa Salazar,1,Junior 13-15,F,Wraps,CA,48,47.90,15,52.50,35.00,,92.50,,180.00,SBD
Chai Saefong,1,Junior 18-19,F,Wraps,CA,52,50.98,18,62.50,27.50,,67.50,75,157.50,SBD
Miranda Cooper,1,Junior 16-17,F,Wraps,CA,56,54.84,16,80.00,42.50,,100.00,,222.50,SBD
Mary Case,1,Master 60-64,F,Wraps,CA,75,71.44,60,112.50,80.00,,127.50,,320.00,SBD
Junior Senesomboun,1,Junior 16-17,M,Wraps,CA,60,59.33,17,155.00,107.50,,197.50,,460.00,SBD
Gerardo Checa,1,Junior 18-19,M,Wraps,CA,60,58.24,18,147.50,87.50,,192.50,,427.50,SBD
Michael Xiong,1,Junior 16-17,M,Wraps,CA,75,74.75,17,155.00,82.50,,175.00,,412.50,SBD
George Leyva,1,Junior 16-17,M,Wraps,CA,82.5,82.24,17,175.00,127.50,,215.00,,517.50,SBD
Matthew Perez,1,Junior 16-17,M,Wraps,CA,100,96.52,17,137.50,107.50,,160.00,,405.00,SBD
Alfredo Rubio,1,Junior 16-17,M,Wraps,CA,110,104.01,17,142.50,100.00,,177.50,,420.00,SBD
Lawrence Casso,1,Junior 16-17,M,Wraps,CA,125,122.15,17,185.00,82.50,,185.00,,452.50,SBD
Junior Senesomboun,1,Open,M,Wraps,CA,60,59.33,17,155.00,107.50,,197.50,,460.00,SBD
Gerardo Checa,2,Open,M,Wraps,CA,60,58.24,18,147.50,87.50,,192.50,,427.50,SBD
George Leyva,1,Open,M,Wraps,CA,82.5,82.24,17,175.00,127.50,,215.00,,517.50,SBD
Matt Olivares,2,Open,M,Wraps,CA,82.5,80.56,38,192.50,115.00,,200.00,,507.50,SBD
Alfredo Rubio,1,Open,M,Wraps,CA,110,104.01,17,142.50,100.00,,177.50,,420.00,SBD
David Case,2,Open,M,Wraps,CA,110,100.47,63,97.50,85.00,,155.00,,337.50,SBD
Bill McEwen,1,Open,M,Wraps,CA,125,116.30,60,155.00,120.00,,190.00,,465.00,SBD
Lawrence Casso,2,Open,M,Wraps,CA,125,122.15,17,185.00,82.50,,185.00,,452.50,SBD
Matt Olivares,1,Submaster 35-39,M,Wraps,CA,82.5,80.56,38,192.50,115.00,,200.00,,507.50,SBD
Frank Marenco,1,Master 60-64,M,Wraps,CA,90,88.54,63,142.50,80.00,,147.50,,370.00,SBD
David Case,1,Master 60-64,M,Wraps,CA,110,100.47,63,97.50,85.00,,155.00,,337.50,SBD
Bill McEwen,1,Master 60-64,M,Wraps,CA,125,116.30,60,155.00,120.00,,190.00,,465.00,SBD
Nathaniel Andrade,1,Junior 20-23,M,Raw,CA,75,73.89,20,,147.50,,,,147.50,B
Greg Jones,1,Junior 20-23,M,Raw,CA,125,120.25,23,,185.00,,,,185.00,B
Colt Carlson,1,Open,M,Raw,CA,110,104.78,29,,160.00,,,,160.00,B
Greg Jones,1,Open,M,Raw,CA,125,120.25,23,,185.00,,,,185.00,B
Bob Kehl,2,Open,M,Raw,CA,125,123.88,76,,150.00,,,,150.00,B
Dennis Cannataro,1,Master 55-59,M,Raw,CA,90,87.68,56,,132.50,,,,132.50,B
Bob Kehl,1,Master 75-79,M,Raw,CA,125,123.88,76,,150.00,,,,150.00,B
Marc White,1,Open,M,Single-ply,CA,110,104.78,42,,247.50,,,,247.50,B
Dennis Cannataro,1,Master 55-59,M,Single-ply,CA,90,87.68,56,,155.00,,,,155.00,B
Roger Kunz,1,Master 70-74,M,Single-ply,CA,100,93.17,73,,110.00,112.5,,,110.00,B
Marc White,1,Master 40-44,M,Single-ply,CA,110,104.78,42,,247.50,,,,247.50,B
Greg Jones,1,Junior 20-23,M,Raw,CA,125,120.25,23,,,,295.00,,295.00,D
Colt Carlson,1,Open,M,Raw,CA,110,104.78,29,,,,225.00,,225.00,D
Pedro Tapia,1,Open,M,Single-ply,CA,90,88.41,44,,,,245.00,,245.00,D
Marc White,1,Open,M,Single-ply,CA,110,104.78,42,,,,290.00,,290.00,D
Pedro Tapia,1,Master 40-44,M,Single-ply,CA,90,88.41,44,,,,245.00,,245.00,D
Marc White,1,Master 40-44,M,Single-ply,CA,110,104.78,42,,,,290.00,,290.00,D
