Place,Name,State,WeightClassKg,BodyweightKg,Age,Best3SquatKg,Best3BenchKg,Best3DeadliftKg,TotalKg,Sex,Division,Equipment,Event,Tested,Squat4Kg,Bench4Kg,Deadlift4Kg
1,Dakota Hanson,OR,75,68,21,90,57.5,120,267.5,F,Junior 20-23,Raw,SBD,Yes,,,125
1,Angel Snyder,OR,60,58.3,31,120,62.5,140,322.5,F,Open,Raw,SBD,Yes,122.5,,
2,Heather Mcconnell,OR,60,59.5,36,92.5,57.5,117.5,267.5,F,Open,Raw,SBD,Yes,,,
1,Amber Collins,OR,67.5,65.6,24,122.5,50,127.5,300,F,Open,Raw,SBD,Yes,,,
2,Erin Olson,OR,67.5,62.4,24,72.5,42.5,117.5,232.5,F,Open,Raw,SBD,Yes,,,
DQ,Lacey Hunter,OR,67.5,66.7,36,,,,,F,Open,Raw,SBD,Yes,,,
1,Laurie Fish,OR,75,71.2,39,115,72.5,127.5,315,F,Open,Raw,SBD,Yes,,,
2,Neldyn Cochran,NV,75,70.6,28,92.5,45,102.5,240,F,Open,Raw,SBD,Yes,,,
1,Mollie Filipe,OR,82.5,80.4,32,137.5,72.5,172.5,382.5,F,Open,Raw,SBD,Yes,,,
2,Beth Brewer,OR,82.5,79,40,75,55,125,255,F,Open,Raw,SBD,Yes,,,
1,Autumn Howells,OR,90,85.9,37,142.5,70,142.5,355,F,Open,Raw,SBD,Yes,,,
1,Tarissa Richardson,OR,90+,127.3,32,117.5,87.5,162.5,367.5,F,Open,Raw,SBD,Yes,,,
2,Lauren Crees,OR,90+,97.6,27,125,70,167.5,362.5,F,Open,Raw,SBD,Yes,,,
3,Tracy Richardson,OR,90+,104,45,107.5,62.5,137.5,307.5,F,Open,Raw,SBD,Yes,,,
4,Linsey Gerber,OR,90+,92.2,27,112.5,60,120,292.5,F,Open,Raw,SBD,Yes,,,
DQ,Lacey Hunter,OR,67.5,66.7,36,,,,,F,Submaster 35-39,Raw,SBD,Yes,,,
1,Autumn Howells,OR,90,85.9,37,142.5,70,142.5,355,F,Submaster 35-39,Raw,SBD,Yes,,,
1,Kimberly Perry,OR,56,53.1,53,95,55,105,255,F,Master 50-54,Raw,SBD,Yes,,,
1,Melissa McCart,OR,67.5,67.3,42,117.5,60,131,308.5,F,Master 40-44,Raw,SBD,Yes,,,
2,Jun-Nicole Matsushita,OR,67.5,67.2,43,102.5,52.5,130,285,F,Master 40-44,Raw,SBD,Yes,108,,130.5
1,Beth Brewer,OR,82.5,79,40,75,55,125,255,F,Master 40-44,Raw,SBD,Yes,,,
1,Debbie Brow,OR,82.5,80.6,61,55,42.5,117.5,215,F,Master 60-64,Raw,SBD,Yes,,,
1,Tracy Richardson,OR,90+,104,45,107.5,62.5,137.5,307.5,F,Master 45-49,Raw,SBD,Yes,,,
1,Hudson Kemnitz,OR,90,87.3,16,142.5,105,175,422.5,M,Junior 16-17,Raw,SBD,Yes,,,
1,Ryan Pollard,OR,90,88.6,20,167.5,110,232.5,510,M,Junior 20-23,Raw,SBD,Yes,,,
1,Brian Johnson,OR,75,75,34,127.5,82.5,165,375,M,Open,Raw,SBD,Yes,,,
1,Chris Cipriani,TX,82.5,81.5,23,182.5,120,232.5,535,M,Open,Raw,SBD,Yes,,,
2,Bryan Ayala,OR,82.5,80.2,21,122.5,67.5,122.5,312.5,M,Open,Raw,SBD,Yes,,,
1,Thomas Pfahler,OR,90,89,33,140,110,167.5,417.5,M,Open,Raw,SBD,Yes,,,
1,Justin Muller,WA,100,98.7,34,200,120,227.5,547.5,M,Open,Raw,SBD,Yes,,,
1,Ian Sharp,WA,110,100.7,24,165,105,222.5,492.5,M,Open,Raw,SBD,Yes,,,
2,Brad Shellman,OR,110,108.3,34,132.5,85,142.5,360,M,Open,Raw,SBD,Yes,,,
1,Tom Anderson,OR,125,123.2,25,265,175,285,725,M,Open,Raw,SBD,Yes,,,
1,Bradley Suchanek,OR,90,88.4,39,195,127.5,215,537.5,M,Submaster 35-39,Raw,SBD,Yes,,,
1,Robert Cochran,OR,100,93.4,36,187.5,142.5,232.5,562.5,M,Submaster 35-39,Raw,SBD,Yes,,,
1,Jared Orum,NV,125,125,35,197.5,117.5,210,525,M,Submaster 35-39,Raw,SBD,Yes,,,
DQ,Bryan Hartman,CA,90,89.8,52,157.5,,165,,M,Master 50-54,Raw,SBD,Yes,,,
1,Zorahgail Balino,OR,60,60,36,157.5,65,157.5,380,F,Open,Wraps,SBD,Yes,,,
1,Chad Pinney,OR,75,74.3,18,197.5,112.5,210,520,M,Junior 18-19,Wraps,SBD,Yes,,,
1,Daniel Best,OR,100,98.8,22,197.5,137.5,190,525,M,Junior 20-23,Wraps,SBD,Yes,,140,
1,Chad Pinney,OR,75,74.3,18,197.5,112.5,210,520,M,Open,Wraps,SBD,Yes,,,
DQ,Rush Boorey,OR,90,89.9,25,200,137.5,,,M,Open,Wraps,SBD,Yes,,,
1,Joseph Beck,OR,82.5,81.5,46,185,110,200,495,M,Master 45-49,Wraps,SBD,Yes,,,
1,Mark Ross,OR,90,88.9,55,160,120,193.5,473.5,M,Master 55-59,Wraps,SBD,Yes,,,
1,Shad Beck,OR,125,123.2,49,187.5,180,202.5,570,M,Master 45-49,Wraps,SBD,Yes,,,
1,Mollie Filipe,OR,82.5,80.4,32,,72.5,,72.5,F,Open,Raw,B,Yes,,,
1,Michelle Price,OR,90+,110.2,44,,87.5,,87.5,F,Open,Raw,B,Yes,,,
1,Kimberly Perry,OR,56,53.1,53,,55,,55,F,Master 50-54,Raw,B,Yes,,,
1,Michelle Price,OR,90+,110.2,44,,87.5,,87.5,F,Master 40-44,Raw,B,Yes,,,
1,Anysia Derora,OR,90+,107.7,47,,55,,55,F,Master 45-49,Raw,B,Yes,,,
DQ,Bryan Hartman,CA,90,89.8,52,,,,,M,Master 50-54,Raw,B,Yes,,,
1,George Merrill,OR,110,107.9,51,,185,,185,M,Open,Single-ply,B,Yes,,,
1,Joe Beteta,OR,90,85.3,73,,147.5,,147.5,M,Master 70-74,Single-ply,B,Yes,,152.5,
1,George Merrill,OR,110,107.9,51,,185,,185,M,Master 50-54,Single-ply,B,Yes,,,
1,Randy Ellis,OR,125,117.6,58,,162.5,,162.5,M,Master 55-59,Single-ply,B,Yes,,,
1,Ryan Kimball,OR,140+,152.6,38,,200,,200,M,Submaster 35-39,Multi-ply,B,Yes,,,
1,Tarissa Richardson,OR,90+,127.3,32,,,162.5,162.5,F,Open,Raw,D,Yes,,,
1,Anysia Derora,OR,90+,107.7,47,,,105,105,F,Master 45-49,Raw,D,Yes,,,
1,Dakota Kantor,OR,100,97.2,17,,,227.5,227.5,M,Junior 16-17,Raw,D,Yes,,,
1,Richard Hallowell,OR,60,59.4,70,,,95,95,M,Master 70-74,Raw,D,Yes,,,
1,Joseph Beck,OR,82.5,81.5,46,,,200,200,M,Master 45-49,Raw,D,Yes,,,
1,Bryan Hartman,CA,90,89.8,52,,,165,165,M,Master 50-54,Raw,D,Yes,,,
1,Zach Childers,OR,75,74.4,28,,102.5,182.5,285,M,Open,Raw,BD,Yes,,,
