Name,Team,Sex,Division,BodyweightKg,WeightClassKg,Best3SquatKg,Best3BenchKg,Best3DeadliftKg,TotalKg,Place,Event,Equipment
Kym Murray,,F,F-O,44,47,87.5,50,100,237.5,1,SBD,Raw
Laura O'Riordan,ABS,F,F-O,55.6,57,127.5,67.5,145,340,1,SBD,Raw
Medb Murtagh,ABS,F,F-O,56.6,57,125,70,145,340,2,SBD,Raw
Sarah Flynn,ABS,F,F-O,55.8,57,117.5,55,147.5,320,3,SBD,Raw
April Dardis,APC,F,F-O,56.2,57,107.5,57.5,122.5,287.5,4,SBD,Raw
Amy Hanley,KJP,F,F-O,55.6,57,100,55,125,280,5,SBD,Raw
Rachael Stewart,,F,F-O,56.6,57,100,45,120,265,6,SBD,Raw
Karen McDonnell,,F,F-O,56.2,57,92.5,42.5,112.5,247.5,7,SBD,Raw
Martina Hanniffy,APC,F,F-O,55.6,57,85,40,105,230,8,SBD,Raw
Vivienne Glynn,CGL,F,F-O,56.6,57,80,42.5,105,227.5,9,SBD,Raw
Tara Maguire,ST1,F,F-O,62.4,63,130,65,140,335,1,SBD,Raw
Laura Hanley,KJP,F,F-O,63,63,112.5,60,147.5,320,2,SBD,Raw
Carol Lennon,APC,F,F-O,61.8,63,115,47.5,127.5,290,3,SBD,Raw
Emma Keyes,ST1,F,F-O,61.8,63,105,47.5,130,282.5,4,SBD,Raw
Sinéad Heffernan,,F,F-O,60.2,63,100,57.5,120,277.5,5,SBD,Raw
Orla O'Shea,ABS,F,F-O,59.6,63,90,52.5,132.5,275,6,SBD,Raw
Nicola Phelan,CGL,F,F-O,59.8,63,60,42.5,107.5,210,7,SBD,Raw
Tara Conlon,ABS,F,F-O,62.2,63,60,42.5,92.5,195,8,SBD,Raw
Bonnie Shortall,,F,F-O,69.8,72,127.5,55,155,337.5,1,SBD,Raw
Eleanor McShortall,PBD,F,F-O,71.4,72,120,67.5,150,337.5,2,SBD,Raw
Fiona Walshe,APC,F,F-O,71.2,72,120,60,150,330,3,SBD,Raw
Joanne Greene,APC,F,F-O,69.8,72,115,62.5,135,312.5,4,SBD,Raw
Lisa Towell,ST1,F,F-O,68,72,107.5,55,130,292.5,5,SBD,Raw
Siobhan O Connell,KJP,F,F-O,64.8,72,80,47.5,150,277.5,6,SBD,Raw
Nicole Craig,KJP,F,F-O,83.6,84,120,65,177.5,362.5,1,SBD,Raw
Leigh Porter,,F,F-O,77.2,84,137.5,57.5,152.5,347.5,2,SBD,Raw
Aimee McQuillan,TFS,F,F-O,79.4,84,120,62.5,140,322.5,3,SBD,Raw
Mairéad O'Donoghue,CGL,F,F-O,76.6,84,110,55,130,295,4,SBD,Raw
Triona Ryan,,F,F-O,75.4,84,95,55,117.5,267.5,5,SBD,Raw
Fiona Boyle,STM,F,F-O,77,84,80,45,110,235,6,SBD,Raw
Alex Slye,KJP,F,F-O,81,84,72.5,45,115,232.5,7,SBD,Raw
Tracey Kelly,UCC,F,F-O,109.4,84+,130,62.5,155,347.5,1,SBD,Raw
Megan Dunlea-O'Brien,KJP,F,F-O,115.2,84+,112.5,52.5,132.5,297.5,2,SBD,Raw
Lota Leinberga,DPC,F,F-G,57.2,63,120,62.5,135,317.5,G,SBD,Raw
Yvonne Sinclair O'Riordan,BSC,F,F-G,66.2,72,85,52.5,127.5,265,G,SBD,Raw
Deirdre Fenlon,CGL,F,F-G,84.4,84+,187.5,85,197.5,470,G,SBD,Raw
Conor Donohoe,CGL,M,M-O,65,66,90,80,135,305,1,SBD,Raw
Josh Foyle,,M,M-O,73.2,74,200,127.5,245,572.5,1,SBD,Raw
Matthew Walsh,APC,M,M-O,73.4,74,190,110,205,505,2,SBD,Raw
Tristan McDonagh,APC,M,M-O,71.4,74,175,107.5,217.5,500,3,SBD,Raw
Alex Cremins,CGL,M,M-O,71.2,74,167.5,107.5,215,490,4,SBD,Raw
Jack Peters,ABS,M,M-O,73,74,170,110,200,480,5,SBD,Raw
Harry Keeley,,M,M-O,74,74,165,100,182.5,447.5,6,SBD,Raw
Chris Kong,,M,M-O,72.8,74,147.5,102.5,195,445,7,SBD,Raw
Craig McDermott,,M,M-O,71.6,74,160,92.5,175,427.5,8,SBD,Raw
James Kelly,CGL,M,M-O,72.6,74,160,82.5,185,427.5,9,SBD,Raw
Stuart Brown,PBD,M,M-O,72.4,74,125,80,175,380,10,SBD,Raw
Nathan Breslin,APC,M,M-O,72.2,74,145,72.5,160,377.5,11,SBD,Raw
Brian Lynch,,M,M-O,71.8,74,130,82.5,160,372.5,12,SBD,Raw
Damian Nam,CGL,M,M-O,82.6,83,260,157.5,282.5,700,1,SBD,Raw
Benny Gilligan,APC,M,M-O,80.6,83,210,130,230,570,2,SBD,Raw
Alan Flanagan,RTS,M,M-O,82.8,83,190,125,250,565,3,SBD,Raw
John Donovan,,M,M-O,77.2,83,190,115,227.5,532.5,4,SBD,Raw
Darragh Hynes,CGL,M,M-O,81.2,83,187.5,110,220,517.5,5,SBD,Raw
Jack Kelly,,M,M-O,81.8,83,185,125,207.5,517.5,6,SBD,Raw
Roberto Prior,,M,M-O,82.2,83,160,105,207.5,472.5,7,SBD,Raw
Jamie Donnelly,,M,M-O,83,83,157.5,107.5,190,455,8,SBD,Raw
Neil Colfer,TSC,M,M-O,82.2,83,155,92.5,190,437.5,9,SBD,Raw
David Gagnon,CCP,M,M-O,91.6,93,230,152.5,250,632.5,1,SBD,Raw
Adam Santorelli,,M,M-O,86.2,93,215,167.5,242.5,625,2,SBD,Raw
Brian Madden,ABS,M,M-O,90.8,93,210,125,272.5,607.5,3,SBD,Raw
Christopher Dean,CGL,M,M-O,90.8,93,230,115,260,605,4,SBD,Raw
Gar Benn,CGL,M,M-O,92,93,225,130,250,605,5,SBD,Raw
David Nolan,CGL,M,M-O,92.6,93,215,132.5,235,582.5,6,SBD,Raw
Brendan O'Rourke,SEP,M,M-O,88.6,93,207.5,142.5,230,580,7,SBD,Raw
Dan Hurley,ABS,M,M-O,91.8,93,205,120,250,575,8,SBD,Raw
Tomasz Dolatowski,SEP,M,M-O,90.6,93,210,137.5,217.5,565,9,SBD,Raw
Gary O'Connor,,M,M-O,92.2,93,210,120,227.5,557.5,10,SBD,Raw
Eoghan Carroll,,M,M-O,92,93,185,117.5,252.5,555,11,SBD,Raw
Darren Horgan,,M,M-O,84.4,93,187.5,125,240,552.5,12,SBD,Raw
Dominic Phelan,,M,M-O,88.6,93,175,130,200,505,13,SBD,Raw
Cian Linehan,CGL,M,M-O,90.2,93,145,102.5,195,442.5,14,SBD,Raw
John Arnott,KJP,M,M-O,84.2,93,140,100,160,400,15,SBD,Raw
Adam Kalivoda,,M,M-O,102.4,105,260,135,285,680,1,SBD,Raw
Stephen Manning,TGL,M,M-O,99.6,105,200,125,260,585,2,SBD,Raw
Darragh Cusse,,M,M-O,103,105,212.5,137.5,230,580,3,SBD,Raw
Darren Bennett,PEA,M,M-O,97.6,105,202.5,117.5,250,570,4,SBD,Raw
Steven McGuire,,M,M-O,96,105,210,135,222.5,567.5,5,SBD,Raw
Joseph Doheny,TPF,M,M-O,103.6,105,200,140,212.5,552.5,6,SBD,Raw
Luca Bartoloni,,M,M-O,102.4,105,190,130,222.5,542.5,7,SBD,Raw
Brad Spicer,CGL,M,M-O,99.6,105,180,127.5,220,527.5,8,SBD,Raw
Michael Twomey,KJP,M,M-O,99.2,105,140,110,180,430,9,SBD,Raw
Jason Kavanagh,KJP,M,M-O,119.8,120,250,145,277.5,672.5,1,SBD,Raw
Dave Worrall,ABS,M,M-O,116,120,245,162.5,262.5,670,2,SBD,Raw
Eoin O'Leary,ABS,M,M-O,117.6,120,245,162.5,262.5,670,3,SBD,Raw
David Walsh,CGL,M,M-O,109.2,120,232.5,155,257.5,645,4,SBD,Raw
Dylan McDonagh,APC,M,M-O,113,120,207.5,117.5,205,530,5,SBD,Raw
Mark Duff,KJP,M,M-O,115.8,120,105,60,140,305,6,SBD,Raw
Gavin Butler,THF,M,M-G,81.6,83,170,100,230,500,G,SBD,Raw
Trevor Walshe,APC,M,M-G,84.2,93,130,110,170,410,G,SBD,Raw
