Place,Name,Sex,Event,Division,WeightClassKg,Equipment,BirthYear,State,BodyweightKg,Squat1Kg,Squat2Kg,Squat3Kg,Best3SquatKg,Bench1Kg,Bench2Kg,Bench3Kg,Best3BenchKg,Deadlift1Kg,Deadlift2Kg,Deadlift3Kg,Best3DeadliftKg,TotalKg
1,Greg Hulin,M,D,R-M2a,120,Raw,1966,ID,120,,,,,,,,,142.9,158.8,183.7,183.7,183.7
1,Crystal Paul,F,SBD,R-O,84,Raw,1982,ID,80.3,83.9,-102.1,-106.6,83.9,47.6,-56.7,-56.7,47.6,102.1,124.7,-142.9,124.7,256.3
1,Tyler Johnson,M,SBD,R-JR,93,Raw,1998,ID,90.6,206.4,215.5,222.3,222.3,122.5,-127,127,127,206.4,217.7,233.6,233.6,582.9
2,John Hulin,M,SBD,R-JR,93,Raw,1995,ID,84.9,-165.6,-167.8,167.8,167.8,93,97.5,-102.1,97.5,174.6,183.7,195,195,460.4
1,John Terragni,M,SBD,R-M4a,74,Raw,1947,ID,70.5,120.2,127,131.5,131.5,-99.8,106.6,-111.1,106.6,-140.6,149.7,-161,149.7,387.8
1,Tyler Johnson,M,SBD,R-O,93,Raw,1998,ID,90.6,206.4,215.5,222.3,222.3,122.5,-127,127,127,206.4,217.7,233.6,233.6,582.9
2,John Hulin,M,SBD,R-O,93,Raw,1995,ID,84.9,-165.6,-167.8,167.8,167.8,93,97.5,-102.1,97.5,174.6,183.7,195,195,460.4
1,Jonathan Webb,M,SBD,R-T2,83,Raw,2002,TX,82.3,113.4,124.7,-133.8,124.7,88.5,97.5,104.3,104.3,136.1,149.7,-158.8,149.7,378.8
1,Uriah Whitney,M,SBD,R-Y1,48,Raw,2009,ID,44.8,-20.4,-22.7,25,25,15.9,18.1,-20.4,18.1,34,38.6,45.4,45.4,88.5
