Division,WeightClassKg,Place,Name,Team,BodyweightKg,Best3SquatKg,Best3BenchKg,Best3DeadliftKg,TotalKg,Equipment,Event,Sex
Boys,52,1,Noah Duvall,Springtown,51.35,106.59,65.77,117.93,290.3,Single-ply,SBD,M
Boys,52,2,Andres Hernandez,Springtown,51.62,102.06,68.04,113.4,283.5,Single-ply,SBD,M
Boys,56,1,Brandon Balderrama,Saginaw,55.34,117.93,65.77,122.47,306.17,Single-ply,SBD,M
Boys,56,2,Joel Rayos,Springtown,55.7,92.99,58.97,115.67,267.62,Single-ply,SBD,M
Boys,56,3,Zunair Waseem,Saginaw,55.79,56.7,40.82,90.72,188.24,Single-ply,SBD,M
Boys,60,1,Holden Fry,Springtown,59.24,124.74,70.31,142.88,337.93,Single-ply,SBD,M
Boys,60,2,Koltin Bear,White Settlement Brewer,59.87,108.86,79.38,113.4,301.64,Single-ply,SBD,M
Boys,67.5,1,Michael Jones-Bradley,Saginaw,64.41,108.86,58.97,117.93,285.76,Single-ply,SBD,M
Boys,75,1,Kyle Dodson,White Settlement Brewer,72.48,154.22,99.79,161.03,415.04,Single-ply,SBD,M
Boys,75,2,Logan Terrell,Springtown,73.84,158.76,83.91,167.83,410.5,Single-ply,SBD,M
Boys,75,3,Jaylen Herod,White Settlement Brewer,74.84,154.22,81.65,170.1,405.97,Single-ply,SBD,M
Boys,75,4,Curtis Taylor,White Settlement Brewer,74.84,136.08,102.06,165.56,403.7,Single-ply,SBD,M
Boys,75,5,Adam Aguirre,Springtown,70.49,158.76,74.84,151.95,385.55,Single-ply,SBD,M
Boys,75,6,Bradey Rhodes,Springtown,72.8,145.15,83.91,154.22,383.29,Single-ply,SBD,M
Boys,75,7,Dakota Brooks,Springtown,68.9,138.35,83.91,149.69,371.95,Single-ply,SBD,M
Boys,75,8,Justin Davis,White Settlement Brewer,73.3,136.08,92.99,136.08,365.14,Single-ply,SBD,M
Boys,75,9,Desmond Lewis,Saginaw,74.84,124.74,81.65,131.54,337.93,Single-ply,SBD,M
Boys,75,10,Tavish McCain,White Settlement Brewer,72.67,102.06,92.99,131.54,326.59,Single-ply,SBD,M
Boys,75,11,Frank Davis,White Settlement Brewer,69.13,124.74,74.84,117.93,317.51,Single-ply,SBD,M
Boys,82.5,1,Tshitoko Richedi,Saginaw,82.1,195.04,102.06,206.38,503.49,Single-ply,SBD,M
Boys,82.5,2,Orozco Dom,Saginaw,80.74,163.29,108.86,206.38,478.54,Single-ply,SBD,M
Boys,82.5,3,Ezekiel Plata,Saginaw,80.29,156.49,106.59,183.7,446.79,Single-ply,SBD,M
Boys,82.5,4,Zach Watson,Springtown,77.88,151.95,90.72,163.29,405.97,Single-ply,SBD,M
Boys,82.5,5,Cameron Rickett,Springtown,78.11,158.76,74.84,161.03,394.63,Single-ply,SBD,M
Boys,82.5,6,Carson Ingram,White Settlement Brewer,78.24,156.49,81.65,142.88,381.02,Single-ply,SBD,M
Boys,82.5,7,Brent Rose,Springtown,81.19,142.88,77.11,142.88,362.87,Single-ply,SBD,M
Boys,82.5,8,Marcel Paige,White Settlement Brewer,82.1,124.74,83.91,149.69,358.34,Single-ply,SBD,M
Boys,82.5,9,Kenneth Manzano-Perez,Saginaw,80.29,136.08,68.04,147.42,351.53,Single-ply,SBD,M
Boys,82.5,10,Jaquan Cummings,Springtown,78.65,120.2,,158.76,278.96,Single-ply,SD,M
Boys,82.5,11,Jayden Cartwright,White Settlement Brewer,81.83,113.4,,142.88,256.28,Single-ply,SD,M
Boys,90,1,Guillermo Pando,Springtown,87.23,190.51,115.67,201.85,508.02,Single-ply,SBD,M
Boys,90,2,Rhea Griffin,Saginaw,83.91,172.37,115.67,188.24,476.27,Single-ply,SBD,M
Boys,90,3,Hayes Patrick,Saginaw,86.18,154.22,108.86,183.7,446.79,Single-ply,SBD,M
Boys,90,4,Keondre Vassar,Saginaw,87.09,142.88,86.18,165.56,394.63,Single-ply,SBD,M
Boys,90,5,Seth Thompson,White Settlement Brewer,89.81,156.49,,154.22,310.71,Single-ply,SD,M
Boys,90,6,Preston Young,White Settlement Brewer,89.72,149.69,,158.76,308.44,Single-ply,SD,M
Boys,100,1,Munoz Derrick,Saginaw,99.34,199.58,127.01,206.38,532.97,Single-ply,SBD,M
Boys,100,2,Ignacio Gonzalez,Saginaw,99.79,188.24,124.74,195.04,508.02,Single-ply,SBD,M
Boys,100,3,Dejion Cash,Saginaw,99.34,181.44,120.2,158.76,460.4,Single-ply,SBD,M
Boys,100,4,Landon Rhoades,Saginaw,98.43,185.97,,192.78,378.75,Single-ply,SD,M
Boys,100,5,Mason Case,Saginaw,98.43,108.86,70.31,136.08,315.25,Single-ply,SBD,M
Boys,110,1,Ryan Scruggs,White Settlement Brewer,108.86,204.12,113.4,199.58,517.1,Single-ply,SBD,M
Boys,110,2,Coleton Reinhardt,Saginaw,109.77,185.97,124.74,204.12,514.83,Single-ply,SBD,M
Boys,110,3,Keyvon White,White Settlement Brewer,107.23,147.42,106.59,156.49,410.5,Single-ply,SBD,M
Boys,110,4,Fernando Torres,Saginaw,102.97,142.88,97.52,167.83,408.23,Single-ply,SBD,M
Boys,110,5,Isaac Lindsey,Saginaw,102.51,142.88,81.65,142.88,367.41,Single-ply,SBD,M
Boys,110,6,Tyler Allison,Springtown,109.09,113.4,65.77,142.88,322.05,Single-ply,SBD,M
Boys,110,DQ,Johnathan Lumpkins,Springtown,102.87,,,,,Single-ply,SBD,M
Boys,125,1,Gilbert Cortinas,Saginaw,124.74,154.22,111.13,183.7,449.06,Single-ply,SBD,M
Boys,125,2,Brian McWhorter,Springtown,117.44,158.76,83.91,185.97,428.64,Single-ply,SBD,M
Boys,125,DQ,Alexander Frithiof,Springtown,110.81,,,,,Single-ply,SBD,M
Boys,125+,1,Jesse Springfield,Springtown,131.59,258.55,147.42,240.4,646.37,Single-ply,SBD,M
Boys,125+,2,Christian Ramirez,White Settlement Brewer,132.36,149.69,86.18,167.83,403.7,Single-ply,SBD,M
Boys,125+,3,Jacob Tinsley,White Settlement Brewer,132.9,149.69,,161.03,310.71,Single-ply,SD,M
