Place,WeightClassKg,Name,Equipment,Team,BodyweightKg,Squat1Kg,Squat2Kg,Squat3Kg,Best3SquatKg,Bench1Kg,Bench2Kg,Bench3Kg,Best3BenchKg,Deadlift1Kg,Deadlift2Kg,Deadlift3Kg,Best3DeadliftKg,TotalKg,Division,Sex,Event
1,84+,Hildeborg Juvet Hugdal,Raw,Sauda IL,128.30,160,170,180,180.0,85,95,100,100.0,160,170,180,180.0,460,Open,F,SBD
1,83,Jo Steffen Knudsen,Raw,Sandnes AK,79.80,,,,,122.5,130,140,140.0,,,,,140,Open,M,B
1,83,Bjørn-Andre Egerdahl,Raw,Sandnes AK,76.15,,,,,135,140,-145,140.0,,,,,140,Master 40-49,M,B
1,93,Helge Sviland,Raw,Sandnes AK,87.95,,,,,120,130,140,140.0,,,,,140,Master 40-49,M,B
1,105,Henning Tornes,Raw,Sandnes AK,104.95,,,,,140,145,,145.0,,,,,145,Master 40-49,M,B
1,93,Sigve Valentinsen,Raw,Sandnes AK,83.40,,,,,100,130,150,150.0,,,,,150,Master 50-59,M,B
2,93,Stig Rune Nielsen,Raw,Sandnes AK,93.00,,,,,100,110,120,120.0,,,,,120,Master 50-59,M,B
1,105,Arve Rønnekleiv,Raw,Sandnes AK,104.20,160,170,-172.5,170.0,75,-82.5,-82.5,75.0,200,220,235,235.0,480,Master 50-59,M,SBD
1,74,Arild Bomark,Raw,Sandnes AK,73.55,,,,,85,90,-92.5,90.0,,,,,90,Master 60-69,M,B
