Name,Division,Equipment,WeightClassKg,BodyweightKg,Event,Best3SquatKg,Best3BenchKg,Best3DeadliftKg,TotalKg,Sex,Place
Nicole Parrish,Sub-Masters,Wraps,60,59.87,SBD,106.59,65.77,140.61,312.98,F,1
Casey Webb,Open,Wraps,75,72.48,SBD,138.35,65.77,151.95,356.07,F,1
Austin Newton,Teenage 13-15,Raw,75,73.48,B,,142.88,,142.88,M,1
Austin Newton,Teenage 13-15,Raw,75,73.48,D,,,204.12,204.12,M,1
Austin Newton,Teenage 13-15,Wraps,75,73.48,SBD,183.7,142.88,204.12,530.7,M,1
William Postlethwait,Sub-Masters,Wraps,125,121.56,SBD,215.46,170.1,249.48,635.03,M,1
Jordan Smith,Open,Wraps,110,109.32,SBD,317.51,188.24,297.1,802.86,M,1
Cameron Bright,Open,Wraps,140,132.45,SBD,206.38,147.42,244.94,598.74,M,1
Rusty Williford,Masters 40-44,Raw,110,103.87,D,,,238.14,238.14,M,1
