Event,Sex,Name,State,BodyweightKg,WeightClassKg,Division,Best3BenchKg,TotalKg,Equipment,Place
B,M,Jamie Emberley,NF,80.6,82.5,Junior,132.5,132.5,Single-ply,1
B,M,Robin Hillier,NF,66.8,67.5,Junior,122.5,122.5,Single-ply,1
B,M,John Pound,NS,53.8,56,Junior,100,100,Single-ply,1
B,F,Annie Bigaouette,QU,51.5,52,Junior,60,60,Single-ply,1
B,M,Les Kiss,ON,100.3,110,Junior,172.5,172.5,Single-ply,1
B,F,Marie-Helene Chisholm,QU,66.5,67.5,Junior,77.5,77.5,Single-ply,1
