Sex,Equipment,Division,WeightClassKg,Name,BodyweightKg,Best3SquatKg,Best3BenchKg,Best3DeadliftKg,TotalKg,Event,Place
F,Raw,Amateur Teen 14-15,44,Layla Merkh,41.46,47.63,20.41,68.04,136.08,SBD,1
F,Raw,Amateur Junior 20-23,48,Denise Fernandez,45.36,81.65,36.29,88.45,206.38,SBD,1
F,Raw,Amateur Open,52,Nicole Sandomenico,51.53,86.18,47.63,117.93,251.74,SBD,1
F,Raw,Amateur Open,52,Lindsey Cormack,50.8,77.11,43.09,102.06,222.26,SBD,2
F,Raw,Amateur Open,52,Garrett Wood,50.98,70.31,45.36,92.99,208.65,SBD,3
F,Raw,Amateur Submaster 33-39,52,Nicole Sandomenico,51.53,86.18,47.63,117.93,251.74,SBD,1
F,Wraps,Amateur Master 40-44,52,Joya Shaw,51.71,74.84,43.09,97.52,215.46,SBD,1
F,Single-ply,Amateur Teen 14-15,52,Kira Russell,49.9,74.84,38.56,95.25,208.65,SBD,1
F,Raw,Amateur Open,60,Irene Ginnis,59.6,83.91,47.63,117.93,249.48,SBD,1
F,Wraps,Amateur Open,56,Danielle Cahanap,54.61,106.59,43.09,129.27,278.96,SBD,1
F,Raw,Amateur Master 70-74,60,Audrey Donellan,58.88,83.91,,,,SBD,DQ
F,Wraps,Amateur Open,60,Nicole Balkau,58.69,124.74,49.9,124.74,299.37,SBD,1
F,Wraps,Amateur Teen 18-19,60,Lindsay Carroll,58.15,102.06,56.7,115.67,274.42,SBD,1
F,Raw,Amateur Junior 20-23,67.5,Sienna Chu,65.68,83.91,49.9,108.86,242.67,SBD,1
F,Raw,Amateur Open,67.5,Juliana Stephan,66.41,86.18,52.16,108.86,247.21,SBD,1
F,Raw,Amateur Open,67.5,Marie Munoz,66.32,,,,,SBD,DQ
F,Raw,Amateur Submaster 33-39,67.5,Heather Wolak,66.68,95.25,58.97,131.54,285.76,SBD,1
F,Wraps,Amateur Junior 20-23,67.5,Maria Fraschilla,65.59,92.99,45.36,104.33,242.67,SBD,1
F,Wraps,Amateur Open,67.5,Hannah Peterson,64.95,140.61,74.84,133.81,349.27,SBD,1
F,Wraps,Amateur Open,67.5,Karen Johnson,63.68,124.74,61.23,158.76,344.73,SBD,2
F,Wraps,Amateur Open,67.5,Colleen Mason,64.86,97.52,52.16,120.2,269.89,SBD,3
F,Wraps,Amateur Open,67.5,Brittany Di Virgilio,66.77,92.99,47.63,124.74,265.35,SBD,4
F,Wraps,Amateur Teen 14-15,67.5,Gianni Garman,62.41,104.33,52.16,113.4,269.89,SBD,1
F,Raw,Amateur Open,75,Martha Connaughton,71.21,79.38,65.77,129.27,274.42,SBD,1
F,Raw,Amateur Open,75,Wendy Chinchilla,72.3,99.79,36.29,99.79,235.87,SBD,2
F,Raw,Amateur Open,75,Veronica Greenan,72.48,68.04,45.36,102.06,215.46,SBD,3
F,Raw,Amateur Teen 16-17,75,Amy Renne,71.58,,,,,SBD,DQ
F,Wraps,Amateur Master 40-44,75,Lisa Burke,70.4,113.4,70.31,161.03,344.73,SBD,1
F,Wraps,Amateur Master 40-44,75,Beth Zellen,74.39,95.25,65.77,140.61,301.64,SBD,2
F,Wraps,Amateur Open,75,Victoria Frace,72.03,115.67,63.5,161.03,340.19,SBD,1
F,Wraps,Amateur Open,75,Patricia D Bugg,71.76,145.15,54.43,136.08,335.66,SBD,2
F,Wraps,Amateur Open,75,Cara Gibson,74.93,117.93,49.9,147.42,315.25,SBD,3
F,Wraps,Amateur Master 50-54,90,Barbara Williams,84.55,86.18,58.97,97.52,242.67,SBD,1
F,Wraps,Amateur Open,90,Janelle Fox,83.55,90.72,49.9,106.59,247.21,SBD,1
F,Wraps,Amateur Submaster 33-39,90,Janelle Fox,83.55,90.72,49.9,106.59,247.21,SBD,1
F,Raw,Amateur Open,100,Renee-Rose Garcia,98.61,151.95,74.84,172.37,399.16,SBD,1
F,Single-ply,Amateur Teen 14-15,100,Alyssa Wilson,95.98,142.88,79.38,174.63,396.89,SBD,1
F,Raw,Amateur Master 45-49,75,Kimberly Wolfe,71.58,,79.38,,79.38,B,1
F,Raw,Amateur Master 50-54,67.5,Lesley Loeb,65.5,,52.16,106.59,158.76,BD,1
M,Single-ply,Amateur Open,52,Roy Mubiru,,163.29,,,,SBD,DQ
M,Single-ply,Amateur Teen 16-17,56,Jordan Garman,55.97,142.88,95.25,165.56,403.7,SBD,1
M,Raw,Amateur Teen 18-19,60,Akif Rahman,58.88,120.2,77.11,158.76,356.07,SBD,1
F,Wraps,Amateur Open,60,Frankie Camera,58.79,163.29,72.57,199.58,435.45,SBD,1
M,Raw,Pro Junior 20-23,60,Jordan Syatt,59.06,172.37,104.33,240.4,517.1,SBD,1
M,Raw,Amateur Open,67.5,Howard Arabelo,65.5,147.42,108.86,154.22,410.5,SBD,1
M,Raw,Amateur Submaster 33-39,67.5,Howard Arabelo,65.5,147.42,108.86,154.22,410.5,SBD,1
M,Wraps,Amateur Open,67.5,Marion Francisco,65.05,138.35,74.84,183.7,396.89,SBD,1
M,Wraps,Amateur Teen 16-17,67.5,Jack Sandomierski,66.5,102.06,58.97,147.42,308.44,SBD,1
M,Raw,Amateur Junior 20-23,75,Chris Lee,70.49,156.49,88.45,188.24,433.18,SBD,1
M,Raw,Amateur Junior 20-23,75,Joshua Kraskin,74.3,124.74,108.86,183.7,417.3,SBD,2
M,Raw,Amateur Junior 20-23,75,Luciano Olmedo,71.3,113.4,70.31,183.7,367.41,SBD,3
M,Raw,Amateur Master 50-54,75,Mike Kenney,73.21,147.42,95.25,183.7,426.38,SBD,1
M,Raw,Amateur Open,75,Will Perrelli,72.03,192.78,138.35,231.33,562.45,SBD,1
M,Raw,Amateur Open,75,Corey Morenz,74.48,183.7,117.93,210.92,512.56,SBD,2
M,Raw,Amateur Open,75,Richard Wong,74.12,165.56,102.06,226.8,494.42,SBD,3
M,Raw,Amateur Open,75,Joshua Hidalgo,72.48,149.69,129.27,192.78,471.74,SBD,4
M,Raw,Amateur Open,75,Alex Cooksey,73.94,158.76,102.06,179.17,439.98,SBD,5
M,Raw,Amateur Submaster 33-39,75,Steve Kuan Yu Lai,73.12,136.08,108.86,183.7,428.64,SBD,1
M,Wraps,Amateur Junior 20-23,75,Anthony Creatura,73.48,188.24,117.93,233.6,539.77,SBD,1
M,Wraps,Amateur Junior 20-23,75,Eric Orellana,73.57,174.63,113.4,181.44,469.47,SBD,2
M,Wraps,Amateur Junior 20-23,75,Donald Beliveau Jr,73.66,133.81,92.99,195.04,421.84,SBD,3
M,Wraps,Amateur Master 55-59,75,Joe Romano,73.12,185.97,104.33,204.12,494.42,SBD,1
M,Wraps,Amateur Open,75,Jeffrey Correia,71.4,204.12,111.13,240.4,555.65,SBD,1
M,Wraps,Amateur Teen 14-15,75,Ezekiel Azzaretti,73.48,124.74,70.31,161.03,356.07,SBD,1
M,Wraps,Amateur Teen 16-17,75,Mike Quigley,72.48,111.13,61.23,142.88,315.25,SBD,1
M,Single-ply,Amateur Teen 16-17,75,Giovanni Fevola,70.49,161.03,106.59,195.04,462.66,SBD,1
M,Single-ply,Amateur Teen 18-19,75,Matt Kurtanick,72.21,163.29,115.67,183.7,462.66,SBD,1
M,Single-ply,Amateur Teen 18-19,75,Garret Fitzgerald,74.57,142.88,92.99,185.97,421.84,SBD,2
M,Single-ply,Amateur Open,75,Lee B. Gruensfelder,74.12,183.7,120.2,215.46,519.36,SBD,1
M,Raw,Elite Open,75,Johnathan McCarthy,71.76,172.37,136.08,231.33,539.77,SBD,1
M,Wraps,Pro Open,75,Sandy Tepper,74.84,219.99,147.42,254.01,621.42,SBD,1
M,Raw,Amateur Junior 20-23,82.5,Stephen Levine,79.11,158.76,124.74,226.8,510.29,SBD,1
M,Raw,Amateur Open,82.5,Mark Luehring-Jones,81.83,185.97,122.47,260.82,569.26,SBD,1
M,Raw,Amateur Open,82.5,Charles Coraggio,79.74,176.9,154.22,235.87,566.99,SBD,2
M,Raw,Amateur Open,82.5,Prashant Tirmal,81.01,192.78,104.33,240.4,537.51,SBD,4
M,Raw,Amateur Open,82.5,Andrew Gelber,77.2,206.38,124.74,206.38,537.51,SBD,3
M,Wraps,Amateur Junior 20-23,82.5,Joe Serpe,80.01,183.7,113.4,204.12,501.22,SBD,1
M,Wraps,Amateur Open,82.5,Marlon Taduran,82.01,213.19,149.69,283.5,646.37,SBD,1
M,Wraps,Amateur Open,82.5,James Colleary,81.74,204.12,156.49,240.4,601.01,SBD,2
M,Wraps,Amateur Open,82.5,Chris Guzman,79.38,181.44,129.27,206.38,517.1,SBD,3
M,Wraps,Amateur Open,82.5,Roy Somers,77.47,188.24,95.25,226.8,510.29,SBD,4
M,Wraps,Amateur Teen 18-19,82.5,Tom Kelly,80.2,213.19,83.91,213.19,510.29,SBD,1
M,Raw,Amateur Junior 20-23,90,Jodi Tolomieri,88.99,226.8,170.1,265.35,662.24,SBD,1
M,Raw,Amateur Master 40-44,90,Omar F. Bejarano,87.36,174.63,117.93,204.12,496.68,SBD,1
M,Raw,Amateur Open,90,Daniel Salazar,89.72,185.97,151.95,240.4,578.33,SBD,1
M,Raw,Amateur Submaster 33-39,90,Daniel Salazar,89.72,185.97,151.95,240.4,578.33,SBD,1
M,Wraps,Amateur Junior 20-23,90,Brandon Provenzano,88.99,201.85,163.29,217.72,582.87,SBD,1
M,Wraps,Amateur Junior 20-23,90,Michael Cronin,84.91,197.31,136.08,238.14,571.53,SBD,2
M,Wraps,Amateur Junior 20-23,90,Nick Lacava,87.91,204.12,122.47,244.94,571.53,SBD,3
M,Wraps,Amateur Master 45-49,90,Matt Kovacs,83.55,201.85,156.49,215.46,573.79,SBD,1
M,Wraps,Amateur Open,90,James Lauer,89.99,256.28,158.76,265.35,680.39,SBD,1
M,Wraps,Amateur Open,90,Andrew F. Rivera,89.99,226.8,181.44,249.48,657.71,SBD,2
M,Wraps,Amateur Open,90,Christopher Ortega,88.99,231.33,161.03,263.08,655.44,SBD,3
M,Wraps,Amateur Open,90,Curtis Miller #1,89.09,238.14,133.81,276.69,648.64,SBD,4
M,Wraps,Amateur Open,90,Jordan Marcus,86.36,249.48,129.27,260.82,639.57,SBD,5
M,Wraps,Amateur Open,90,Mahmoud Ahmed,87.91,226.8,149.69,231.33,607.81,SBD,6
M,Wraps,Amateur Open,90,Michael Kelderman,84.91,210.92,120.2,254.01,585.13,SBD,7
M,Wraps,Amateur Open,90,Ryan Perreault,88.99,192.78,138.35,244.94,576.06,SBD,8
M,Wraps,Amateur Open,90,John Alex Vespa,84.1,195.04,138.35,240.4,573.79,SBD,9
M,Wraps,Amateur Open,90,Brian Berg,88.81,204.12,120.2,233.6,557.92,SBD,10
M,Wraps,Amateur Open,90,Michael David Secora,88.36,183.7,104.33,201.85,489.88,SBD,11
M,Wraps,Amateur Submaster 33-39,90,Michael David Secora,88.36,183.7,104.33,201.85,489.88,SBD,1
M,Wraps,Amateur Teen 18-19,90,Michael J. Abbott,86.82,179.17,133.81,183.7,496.68,SBD,1
M,Wraps,Amateur Teen 18-19,90,David Salvatore,84.1,161.03,106.59,190.51,458.13,SBD,2
M,Single-ply,Amateur Teen 16-17,90,Hunter MacPherson,88.54,197.31,122.47,226.8,546.58,SBD,1
M,Wraps,Military Amateur Open,90,Richard Rogers,88.54,,,,,SBD,DQ
M,Wraps,Police Amateur Open,90,Christopher Ortega,88.99,231.33,161.03,263.08,655.44,SBD,1
M,Raw,Pro Open,90,Mike Loncharich,87,256.28,192.78,306.17,755.23,SBD,1
M,Wraps,Pro Master 60-64,90,Leonard Balacco,88,117.93,129.27,210.92,458.13,SBD,1
M,Wraps,Amateur Open,100,Chris Kelly,95.35,263.08,190.51,274.42,728.02,SBD,1
M,Raw,Amateur Master 40-44,100,Jonathan Shluker,96.8,170.1,161.03,213.19,544.31,SBD,1
M,Raw,Amateur Open,100,Viet Vo,96.43,215.46,213.19,258.55,687.19,SBD,1
M,Raw,Amateur Open,100,Ryan Smith,97.34,206.38,172.37,249.48,628.23,SBD,2
M,Raw,Amateur Open,100,Andrew Obergfell,99.7,183.7,140.61,229.06,553.38,SBD,3
M,Raw,Amateur Submaster 33-39,100,Thomas Magill,99.06,174.63,161.03,199.58,535.24,SBD,1
M,Wraps,Amateur Master 55-59,100,Pedro Diaz,99.06,154.22,111.13,226.8,492.15,SBD,1
M,Wraps,Amateur Open,100,Raymond Kwok,93.71,247.21,174.63,240.4,662.24,SBD,2
M,Wraps,Amateur Open,100,Keron Wilson,93.17,204.12,174.63,233.6,612.35,SBD,3
M,Wraps,Amateur Open,100,Clinton O'Malley,99.61,215.46,147.42,215.46,578.33,SBD,4
M,Wraps,Amateur Open,100,Douglas Clinton,96.89,195.04,124.74,238.14,557.92,SBD,5
M,Wraps,Amateur Open,100,Erik Bonini,99.7,192.78,117.93,204.12,514.83,SBD,6
M,Wraps,Amateur Open,100,David Vieira,98.07,272.16,136.08,,,SBD,DQ
M,Wraps,Amateur Submaster 33-39,100,Erik Bonini,99.7,192.78,117.93,204.12,514.83,SBD,1
M,Wraps,Amateur Teen 16-17,100,Vinny Bilardo,90.72,170.1,136.08,219.99,526.17,SBD,1
M,Wraps,Amateur Teen 18-19,100,Jason J Wilson,98.25,206.38,138.35,226.8,571.53,SBD,1
M,Wraps,Amateur Teen 18-19,100,Issac Kim,98.07,210.92,122.47,233.6,566.99,SBD,2
M,Single-ply,Amateur Teen 14-15,100,Hunter Calvetto,96.52,142.88,102.06,179.17,424.11,SBD,1
M,Single-ply,Amateur Teen 16-17,100,Nyeem Calhoun,95.16,192.78,170.1,231.33,594.21,SBD,1
M,Single-ply,Amateur Teen 18-19,100,Alex Zalepa,97.07,210.92,179.17,233.6,623.69,SBD,1
M,Wraps,Pro Junior 20-23,100,Jonathan Chaisson,90.17,201.85,142.88,231.33,576.06,SBD,1
M,Wraps,Military Pro Open,100,Jonathan Chaisson,90.17,201.85,142.88,231.33,576.06,SBD,1
M,Wraps,Pro Junior 20-23,100,Nick Bonavito,96.25,297.1,185.97,260.82,743.89,SBD,1
M,Wraps,Pro Open,100,Bob Merkh,99.97,340.19,210.92,276.69,827.81,SBD,1
M,Single-ply,Pro Open,100,John Paluk,99.16,340.19,290.3,276.69,907.18,SBD,1
M,Raw,Amateur Open,110,Chris Orzechowski,108.95,229.06,161.03,260.82,650.91,SBD,1
M,Raw,Amateur Open,110,Lasalle A. McDonald,109.41,192.78,136.08,274.42,603.28,SBD,2
M,Wraps,Amateur Junior 20-23,110,Christopher Cardoni,108.32,224.53,,,,SBD,DQ
M,Wraps,Amateur Open,110,Patrick McCarthy,107.86,192.78,129.27,233.6,555.65,SBD,1
M,Wraps,Amateur Open,110,Jesse Jeffers,101.42,235.87,,,,SBD,DQ
M,Wraps,Amateur Submaster 33-39,110,Peter Lembesis,108.32,219.99,149.69,238.14,607.81,SBD,1
M,Single-ply,Amateur Master 50-54,110,Mark Williams,102.78,181.44,158.76,192.78,532.97,SBD,1
M,Multi-ply,Pro Open,110,Anthony Ditillo,108.95,385.55,292.57,290.3,968.42,SBD,1
M,Multi-ply,Pro Open,110,Chuck Brightbill,106.5,381.02,206.38,331.12,918.52,SBD,2
M,Raw,Pro Master 40-44,110,Louis Christopher,109.13,215.46,185.97,226.8,628.23,SBD,1
M,Raw,Pro Open,110,Allen Collins,106.5,195.04,167.83,238.14,601.01,SBD,1
M,Raw,Pro Submaster 33-39,110,Scott Lasher,109.04,229.06,181.44,281.23,691.73,SBD,1
M,Wraps,Pro Open,110,Eric Prush,106.14,274.42,165.56,319.78,759.77,SBD,1
M,Wraps,Pro Open,110,Nate Tamura,103.15,265.35,156.49,244.94,666.78,SBD,2
M,Wraps,Pro Open,110,Andrew Sasso,103.78,183.7,124.74,215.46,523.9,SBD,3
M,Raw,Amateur Junior 20-23,125,Robert Parisi,116.66,290.3,156.49,254.01,700.8,SBD,1
M,Raw,Amateur Junior 20-23,125,Andrew Wary,122.11,226.8,147.42,272.16,646.37,SBD,2
M,Raw,Amateur Junior 20-23,125,Robert DeNofio,120.75,226.8,142.88,272.16,641.83,SBD,3
M,Raw,Amateur Master 50-54,125,Mark Morthier,114.76,206.38,127.01,240.4,573.79,SBD,1
M,Raw,Amateur Master 60-64,125,Chris Gardner,115.67,145.15,136.08,172.37,453.59,SBD,1
M,Raw,Amateur Open,125,Robert Parisi,116.66,290.3,156.49,254.01,700.8,SBD,1
M,Raw,Amateur Open,110,G. Santarsiero,108.95,233.6,170.1,242.67,646.37,SBD,2
M,Raw,Amateur Open,125,Allen Malhotra,121.29,204.12,131.54,256.28,591.94,SBD,3
M,Raw,Amateur Open,125,Brian Robinson,124.83,158.76,136.08,208.65,503.49,SBD,4
M,Multi-ply,Pro Submaster 33-39,125,Russ Smith,123.92,331.12,233.6,274.42,839.15,SBD,1
M,Wraps,Amateur Open,140,Matthew Yannuzzi,135.44,204.12,181.44,201.85,587.4,SBD,1
M,Wraps,Amateur Submaster 33-39,140,Peter Orsita,129.55,224.53,142.88,231.33,598.74,SBD,1
M,Wraps,Pro Open,140,Isaac Zeng,131.36,362.87,213.19,331.12,907.18,SBD,1
M,Wraps,Pro Open,140,Tyler Bledsoe,135.26,303.91,215.46,308.44,827.81,SBD,2
M,Raw,Amateur Master 70-74,90,Artie Miller,88.9,102.06,,,102.06,S,1
M,Raw,Pro Open,82.5,Daniel Perrone,81.56,,157.62,,157.62,B,1
M,Raw,Pro Submaster 33-39,82.5,Daniel Perrone,81.56,,157.62,,157.62,B,1
M,Raw,Amateur Master 45-49,90,Charlie Miriello,89.81,,145.15,,145.15,B,1
M,Raw,Pro Master 40-44,100,Michael Juliano,97.52,,158.76,,158.76,B,1
M,Raw,Amateur Master 45-49,110,Fred Klein,103.51,,183.7,,183.7,B,1
M,Raw,Pro Submaster 33-39,110,Ryan Palazza,108.59,,185.97,,185.97,B,1
M,Multi-ply,Amateur Submaster 33-39,125,Joseph Rybaruk Jr,120.2,,256.28,,256.28,B,1
M,Single-ply,Amateur Open,125,Joseph Rybaruk Jr,120.2,,256.28,,256.28,B,1
M,Raw,Amateur Teen 16-17,90,Thomas Burke,89.45,,79.38,172.37,251.74,BD,1
M,Raw,Pro Junior 20-23,90,Nate Miriello,89.36,,158.76,240.4,399.16,BD,1
M,Raw,Amateur Submaster 33-39,110,Jamal Sneed,105.6,,151.95,219.99,371.95,BD,1
M,Raw,Amateur Master 60-64,125,Willie J Foster,119.2,,140.61,229.06,369.68,BD,1
M,Raw,Pro Open,125,Christopher Lentino,120.2,,226.8,306.17,532.97,BD,1
M,Single-ply,Pro Master 40-44,140,Tony Lukosius,128.46,,217.72,272.16,489.88,BD,1
M,Single-ply,Pro Open,140,Tony Lukosius,128.46,,217.72,272.16,489.88,BD,1
M,Raw,Amateur Master 70-74,90,Artie Miller,88.9,,,149.69,149.69,D,1
M,Raw,Pro Open,125,Michael Selmon,119.66,,,317.51,317.51,D,1
M,Raw,Pro Junior 20-23,140,Corey Bannister,133.81,,,306.17,306.17,D,1
