Place,Sex,Name,Event,Division,WeightClassKg,Equipment,BirthYear,State,BodyweightKg,Squat1Kg,Squat2Kg,Squat3Kg,Best3SquatKg,Bench1Kg,Bench2Kg,Bench3Kg,Best3BenchKg,Deadlift1Kg,Deadlift2Kg,Deadlift3Kg,Best3DeadliftKg,TotalKg
1,F,Lourdes Vigueria-Butterfield,B,R-M1B,84+,Raw,1970,TX,124.4,,,,,57.5,65,67.5,67.5,,,,,67.5
1,F,Melissa Jarvis,B,R-O,84,Raw,1981,TX,81.6,,,,,57.5,62.5,-67.5,62.5,,,,,62.5
1,M,Taskin Amin,SBD,R-JR,59,Raw,1993,TX,57.9,172.5,182.5,-187.5,182.5,102.5,107.5,110,110,-220,220,-225,220,512.5
1,M,Kody Brodwater,SBD,R-JR,66,Raw,1995,TX,65.4,-140,150,160,160,92.5,97.5,100,100,170,190,205,205,465
2,M,Jeffrey Ordonez,SBD,R-JR,66,Raw,1994,TX,65.4,147.5,-152.5,155,155,112.5,115,120,120,160,167.5,172.5,172.5,447.5
3,M,Erik Torres,SBD,R-JR,66,Raw,1997,TX,64.9,125,145,152.5,152.5,102.5,-112.5,-115,102.5,175,185,-197.5,185,440
1,M,Marcellus Williams,SBD,R-JR,74,Raw,1994,TX,73.8,185,195,205,205,142.5,-157.5,-157.5,142.5,205,227.5,-242.5,227.5,575
2,M,Xavier Lopez,SBD,R-JR,74,Raw,1995,TX,69.6,150,-165,-172.5,150,102.5,107.5,110,110,190,205,212.5,212.5,472.5
3,M,Jacob Carter,SBD,R-JR,74,Raw,1997,TX,71.4,125,130,-137.5,130,90,95,100,100,175,182.5,200,200,430
1,M,Sameeer Shukla,SBD,R-JR,83,Raw,1993,TX,79.6,170,182.5,190,190,110,117.5,122.5,122.5,212.5,225,-237.5,225,537.5
2,M,Ivan Filipovic,SBD,R-JR,83,Raw,1994,TX,82.4,-175,-182.5,182.5,182.5,115,-117.5,117.5,117.5,217.5,222.5,227.5,227.5,527.5
3,M,Erik Rodriguez,SBD,R-JR,83,Raw,1994,TX,81.5,145,160,185,185,97.5,110,120,120,185,217.5,-230,217.5,522.5
1,M,Branson Brown,SBD,R-JR,93,Raw,1996,TX,90.2,180,187.5,200,200,127.5,135,-142.5,135,202.5,215,232.5,232.5,567.5
2,M,Luis Canchola,SBD,R-JR,93,Raw,1994,TX,90.7,172.5,187.5,197.5,197.5,-117.5,125,132.5,132.5,200,-217.5,222.5,222.5,552.5
3,M,Andrew Hernandez,SBD,R-JR,93,Raw,1993,TX,85.9,140,152.5,-157.5,152.5,95,105,110,110,185,200,215,215,477.5
1,M,Randy Pocowatchit,SBD,R-M1a,105,Raw,1973,TX,99.7,160,172.5,182.5,182.5,112.5,-117.5,-122.5,112.5,177.5,-190,205,205,500
1,M,Dennis Affinati,SBD,R-M2a,93,Raw,1963,PA,90.7,150,165,175,175,115,120,122.5,122.5,180,185,190,190,487.5
1,M,Donald Williams,SBD,R-M2a,105,Raw,1967,TX,94.7,-200,200,212.5,212.5,162.5,170,-172.5,170,217.5,230,-235,230,612.5
1,M,Thomas Demer,SBD,R-M2B,105,Raw,1958,TX,99.6,142.5,152.5,162.5,162.5,110,115,120,120,212.5,230,235,235,517.5
1,M,Taskin Amin,SBD,R-O,59,Raw,1993,TX,57.9,172.5,182.5,-187.5,182.5,102.5,107.5,110,110,-220,220,-225,220,512.5
1,M,Jacob Stein,SBD,R-O,74,Raw,1992,TX,73.3,-165,172.5,-177.5,172.5,127.5,130,135,135,210,230,245,245,552.5
2,M,Miika Gregg,SBD,R-O,74,Raw,1988,TX,73.2,137.5,150,157.5,157.5,92.5,100,-105,100,170,185,195,195,452.5
3,M,Charles Fulton,SBD,R-O,74,Raw,1994,TX,73.4,135,160,170,170,95,-110,-110,95,160,180,-195,180,445
4,M,Francisco Garibaldi,SBD,R-O,74,Raw,1979,TX,71.8,137.5,-142.5,142.5,142.5,-102.5,105,-112.5,105,147.5,160,175,175,422.5
1,M,Christopher Tran,SBD,R-O,83,Raw,1988,TX,74.7,185,195,-205,195,152.5,162.5,170,170,212.5,230,245,245,610
2,M,Vincent Velasco,SBD,R-O,83,Raw,1990,TX,82.8,-190,190,210,210,145,155,160,160,200,220,232.5,232.5,602.5
3,M,Matthew Palmieri,SBD,R-O,83,Raw,1986,TX,80.3,182.5,187.5,,187.5,132.5,140,-145,140,210,222.5,230,230,557.5
4,M,David Garcia,SBD,R-O,83,Raw,1995,TX,81.5,182.5,187.5,195,195,105,110,117.5,117.5,215,222.5,227.5,227.5,540
5,M,Sameeer Shukla,SBD,R-O,83,Raw,1993,TX,79.6,170,182.5,190,190,110,117.5,122.5,122.5,212.5,225,-237.5,225,537.5
6,M,Clayton Collins,SBD,R-O,83,Raw,1989,TX,81.4,157.5,167.5,172.5,172.5,132.5,142.5,-147.5,142.5,202.5,212.5,217.5,217.5,532.5
7,M,Anthony Hurst,SBD,R-O,83,Raw,1981,TX,81.4,165,175,185,185,120,127.5,132.5,132.5,185,190,210,210,527.5
8,M,Wayne Wright,SBD,R-O,83,Raw,1982,TX,81.5,130,140,145,145,100,105,110,110,175,190,205,205,460
9,M,Peter Sourygnavong,SBD,R-O,83,Raw,1987,TX,79.4,152.5,-157.5,157.5,157.5,-97.5,102.5,-110,102.5,175,185,187.5,187.5,447.5
10,M,Joshua Campos,SBD,R-O,83,Raw,1990,TX,81.3,-145,155,160,160,92.5,-97.5,97.5,97.5,160,170,182.5,182.5,440
11,M,Brad Daugirda,SBD,R-O,83,Raw,1978,TX,81.3,140,147.5,-157.5,147.5,102.5,-105,-105,102.5,185,-197.5,-197.5,185,435
DQ,M,Leith Waithe,SBD,R-O,83,Raw,1992,TX,80,-192.5,-195,-195,,122.5,-125,-125,122.5,230,242.5,-255,242.5,
1,M,Casey Meharg,SBD,R-O,93,Raw,1983,TX,92.3,210,220,227.5,227.5,-137.5,142.5,-147.5,142.5,205,220,227.5,227.5,597.5
2,M,Tres Cadena,SBD,R-O,93,Raw,1981,TX,86.9,190,197.5,-205,197.5,167.5,-177.5,-177.5,167.5,227.5,-237.5,-237.5,227.5,592.5
3,M,Robert Alexander,SBD,R-O,93,Raw,1991,TX,89.2,200,207.5,-212.5,207.5,125,130,132.5,132.5,250,-255,-255,250,590
4,M,Chase Brooks,SBD,R-O,93,Raw,1990,TX,90.9,192.5,200,210,210,150,152.5,-157.5,152.5,197.5,-212.5,212.5,212.5,575
5,M,Dominique Toney,SBD,R-O,93,Raw,1990,TX,92,165,177.5,185,185,145,152.5,-155,152.5,210,222.5,232.5,232.5,570
6,M,Mike Keane,SBD,R-O,93,Raw,1984,OK,90.6,165,172.5,-180,172.5,117.5,125,-130,125,215,220,222.5,222.5,520
7,M,Austin Wilson,SBD,R-O,93,Raw,1994,TX,89.2,140,150,160,160,125,130,-140,130,185,200,210,210,500
8,M,Justin Hamby,SBD,R-O,93,Raw,1986,TX,86.9,130,140,145,145,95,100,-102.5,100,165,180,190,190,435
DD,M,William Wragge,SBD,R-O,105,Raw,1984,TX,103.2,-227.5,240,-252.5,240,175,185,-195,185,285,-295,-295,285,
1,M,Joel Melendez,SBD,R-O,105,Raw,1987,TX,99.4,225,242.5,-257.5,242.5,150,160,172.5,172.5,225,240,265,265,680
2,M,Andrew Hill,SBD,R-O,105,Raw,1991,TX,102.8,225,-242.5,-242.5,225,160,-165,-165,160,255,-272.5,,255,640
3,M,Marvin Polanco,SBD,R-O,105,Raw,1990,TX,102.5,167.5,177.5,185,185,120,125,132.5,132.5,190,205,227.5,227.5,545
4,M,Ben Liniger,SBD,R-O,105,Raw,1979,TX,98.3,175,185,190,190,-127.5,137.5,-142.5,137.5,192.5,205,-220,205,532.5
DQ,M,Michael Fuller,SBD,R-O,105,Raw,1984,TX,101,-182.5,-200,205,205,-130,-135,-135,,192.5,200,210,210,
DQ,M,Bobby Miller,SBD,R-O,105,Raw,1980,TX,104.2,-220,-220,-220,,-150,-150,-150,,-265,265,-275,265,
1,M,Aaron Rieger,SBD,R-O,120,Raw,1987,TX,110.5,197.5,217.5,227.5,227.5,127.5,137.5,145,145,215,232.5,-245,232.5,605
2,M,Sam Klever,SBD,R-O,120,Raw,1988,TX,118.7,182.5,202.5,220,220,-142.5,145,-157.5,145,220,-237.5,237.5,237.5,602.5
1,M,Paul Allen,SBD,R-O,120+,Raw,1986,TX,121.5,272.5,-285,-285,272.5,187.5,-192.5,-192.5,187.5,287.5,302.5,-310,302.5,762.5
2,M,Randall Harris,SBD,R-O,120+,Raw,1979,TX,139,225,262.5,272.5,272.5,185,210,-227.5,210,230,255,277.5,277.5,760
1,M,Matthew Nguyen,SBD,R-T2,59,Raw,1999,TX,58.1,142.5,150,-155,150,90,92.5,,92.5,180,187.5,190,190,432.5
1,M,Garrett Ramirez,SBD,R-T2,83,Raw,2000,TX,82.5,140,152.5,165,165,80,87.5,95,95,200,215,227.5,227.5,487.5
1,M,Hunter Boyd,SBD,R-T2,105,Raw,1999,TX,93.3,125,137.5,142.5,142.5,75,82.5,-85,82.5,170,180,187.5,187.5,412.5
1,M,Jonathan Rosario,SBD,R-T3,74,Raw,1997,TX,72.6,127.5,137.5,145,145,90,95,102.5,102.5,177.5,190,200,200,447.5
1,M,Tyson Ramirez,SBD,R-T3,93,Raw,1998,TX,84,155,165,177.5,177.5,-110,117.5,125,125,190,210,220,220,522.5
1,M,John Vasquez,SBD,R-T3,105,Raw,1998,TX,103.5,265,290,295,295,145,165,-170,165,225,247.5,-257.5,247.5,707.5
2,M,Christopher Reyes,SBD,R-T3,105,Raw,1998,TX,105,192.5,202.5,215,215,152.5,162.5,172.5,172.5,245,257.5,267.5,267.5,655
1,F,Jessica Jimenez,SBD,R-JR,72,Raw,1996,OK,65.2,70,75,82.5,82.5,37.5,42.5,45,45,92.5,95,105,105,232.5
1,F,Hannah Bryan,SBD,R-JR,84,Raw,1996,TX,81.2,100,115,130,130,60,70,-80,70,125,140,150,150,350
1,F,Carrie Reel,SBD,R-M1a,72,Raw,1974,TX,70.6,-115,122.5,132.5,132.5,40,42.5,47.5,47.5,125,132.5,142.5,142.5,322.5
1,F,Sheri Jones,SBD,R-M1a,84+,Raw,1974,TX,102.9,107.5,117.5,-125,117.5,55,-57.5,-57.5,55,100,110,115,115,287.5
2,F,Janna Johnson,SBD,R-M1a,84+,Raw,1973,TX,95.7,-82.5,90,97.5,97.5,37.5,45,-50,45,92.5,97.5,-105,97.5,240
1,F,Fay Morgan,SBD,R-M1B,84,Raw,1970,TX,80.4,90,95,100,100,45,-52.5,52.5,52.5,125,130,135,135,287.5
1,F,Lilyan Jackson,SBD,R-M1B,84+,Raw,1970,TX,161.7,130,137.5,145,145,90,95,100,100,150,157.5,165,165,410
1,F,Kandice Collins,SBD,R-O,52,Raw,1991,TX,51.9,70,-75,-80,70,35,-40,-40,35,80,85,90,90,195
1,F,Elisa Zaiceva,SBD,R-O,57,Raw,1990,TX,56.3,92.5,105,110,110,47.5,55,-57.5,55,130,150,152.5,152.5,317.5
DQ,F,Mariha Elwell,SBD,R-O,57,Raw,1987,KS,55.8,65,75,80,80,-47.5,-47.5,-47.5,,95,102.5,110,110,
1,F,Tania Espinosa,SBD,R-O,63,Raw,1994,TX,62.3,100,107.5,112.5,112.5,52.5,55,-57.5,55,112.5,120,125,125,292.5
2,F,Rubi Resendiz,SBD,R-O,63,Raw,1990,TX,62,90,100,-110,100,50,55,-57.5,55,100,105,115,115,270
3,F,Stacey Cummings,SBD,R-O,63,Raw,1974,TX,60.6,82.5,87.5,95,95,52.5,-57.5,-57.5,52.5,102.5,107.5,112.5,112.5,260
4,F,Denicia Miller,SBD,R-O,63,Raw,1991,TX,60.9,87.5,92.5,100,100,40,-45,-45,40,105,110,117.5,117.5,257.5
DQ,F,Lisa Cheng,SBD,R-O,63,Raw,1979,TX,60.8,90,100,105,105,-57.5,-70,-70,,107.5,115,125,125,
1,F,Kaili Herr,SBD,R-O,72,Raw,1989,TX,71.1,117.5,125,127.5,127.5,72.5,77.5,-80,77.5,135,145,152.5,152.5,357.5
2,F,Anastasia Jones,SBD,R-O,72,Raw,1992,TX,71.4,117.5,127.5,135,135,-52.5,52.5,55,55,150,160,167.5,167.5,357.5
3,F,Britney Penermon,SBD,R-O,72,Raw,1987,TX,65.8,100,107.5,112.5,112.5,80,-87.5,-87.5,80,155,162.5,-167.5,162.5,355
4,F,Benita Moreno,SBD,R-O,72,Raw,1981,TX,69.8,112.5,120,125,125,57.5,62.5,65,65,120,130,137.5,137.5,327.5
5,F,Rachele Lehmann,SBD,R-O,72,Raw,1988,TX,70.7,102.5,115,120,120,55,60,-62.5,60,132.5,145,-165,145,325
6,F,Maggie Holmes,SBD,R-O,72,Raw,1989,TX,69.1,107.5,112.5,117.5,117.5,65,-70,-70,65,130,135,140,140,322.5
7,F,Rebecca Blubaugh,SBD,R-O,72,Raw,1992,TX,63.9,97.5,105,112.5,112.5,42.5,47.5,50,50,122.5,130,135,135,297.5
8,F,Jessica Jimenez,SBD,R-O,72,Raw,1996,TX,65.2,70,75,82.5,82.5,37.5,42.5,45,45,92.5,95,105,105,232.5
1,F,Shannaa Bradley,SBD,R-O,84,Raw,1986,TX,83,125,-135,-140,125,55,60,65,65,137.5,160,170,170,360
2,F,Yolanda Darlington,SBD,R-O,84,Raw,1980,TX,73.7,100,107.5,115,115,65,70,-77.5,70,112.5,125,132.5,132.5,317.5
3,F,Lisbeth Valdez,SBD,R-O,84,Raw,1991,TX,81.7,107.5,115,125,125,45,50,55,55,105,120,132.5,132.5,312.5
4,F,Isabel Wei,SBD,R-O,84,Raw,1986,TX,81.9,75,-85,92.5,92.5,52.5,57.5,-62.5,57.5,92.5,102.5,115,115,265
5,F,Emily Williams,SBD,R-O,84,Raw,1987,TX,72.9,65,-75,82.5,82.5,42.5,45,47.5,47.5,80,-95,97.5,97.5,227.5
1,F,Lilyan Jackson,SBD,R-O,84+,Raw,1970,TX,161.7,130,137.5,145,145,90,95,100,100,150,157.5,165,165,410
2,F,April Murphy,SBD,R-O,84+,Raw,1985,TX,103.4,117.5,127.5,-137.5,127.5,65,-67.5,-67.5,65,140,147.5,157.5,157.5,350
3,F,Devon Daugirda,SBD,R-O,84+,Raw,1982,TX,93.4,102.5,112.5,117.5,117.5,57.5,65,-72.5,65,130,137.5,145,145,327.5
4,F,Andrea Neumann,SBD,R-O,84+,Raw,1983,TX,145.3,102.5,110,125,125,52.5,65,-75,65,110,125,137.5,137.5,327.5
5,F,Kate Lawler,SBD,R-O,84+,Raw,1984,TX,109.8,100,110,120,120,55,60,-67.5,60,120,135,142.5,142.5,322.5
6,F,Vanessa Guerrero,SBD,R-O,84+,Raw,1992,TX,132.1,102.5,110,120,120,52.5,57.5,65,65,110,125,137.5,137.5,322.5
7,F,Kelli Vincent,SBD,R-O,84+,Raw,1981,TX,139.2,117.5,122.5,127.5,127.5,-52.5,55,57.5,57.5,120,125,137.5,137.5,322.5
8,F,Renita Garrett,SBD,R-O,84+,Raw,1981,TX,99.1,95,102.5,110,110,55,60,67.5,67.5,110,125,137.5,137.5,315
9,F,Samantha Flannery,SBD,R-O,84+,Raw,1994,TX,101.4,-117.5,117.5,122.5,122.5,50,-52.5,52.5,52.5,122.5,127.5,135,135,310
10,F,Danielle Crain,SBD,R-O,84+,Raw,1987,TX,107.6,77.5,87.5,92.5,92.5,65,67.5,-70,67.5,107.5,122.5,137.5,137.5,297.5
11,F,Nix Nguyen,SBD,R-O,84+,Raw,1983,TX,88.3,80,85,92.5,92.5,55,60,-62.5,60,102.5,112.5,122.5,122.5,275
DQ,F,Corrinne Monroe,SBD,R-O,84+,Raw,1982,TX,123.9,-72.5,-72.5,-72.5,,-40,-40,40,40,107.5,112.5,117.5,117.5,
1,M,Bart Karber,BD,R-M1a,93,Raw,1976,TX,90.9,,,,,130,-142.5,-142.5,130,197.5,205,215,215,345
1,M,Don Waltz,B,R-M2B,93,Raw,1962,TX,91.4,,,,,110,-115,-115,110,,,,,110
1,M,Bart Karber,BD,R-O,93,Raw,1976,TX,90.9,,,,,130,-142.5,-142.5,130,197.5,205,215,215,345
