Event,Sex,Name,State,BodyweightKg,WeightClassKg,Division,Best3SquatKg,Best3BenchKg,Best3DeadliftKg,TotalKg,Equipment,Place
B,M,Jean-Sébastien Rhéaume,QU,65.7,67.5,Open,,122.5,,122.5,Single-ply,1
B,M,Eric Beaulieu,QU,105,110,Open,,155.0,,155.0,Single-ply,2
B,M,Daniel Royer,QU,106,110,Open,,200.0,,200.0,Single-ply,1
B,M,Steve St-Pierre,QU,97.9,100,Open,,210.0,,210.0,Single-ply,1
B,M,Steve Carrier,QU,95.4,100,Open,,145.0,,145.0,Single-ply,3
B,M,Daniel Dionne,QU,94.4,100,Open,,187.5,,187.5,Single-ply,2
B,M,Réjean Talon,QU,71,75,Master 1,,160.0,,160.0,Single-ply,1
B,M,Daniel Mercier,QU,86.4,90,Junior,,130.0,,130.0,Single-ply,1
B,M,Steve Rousseau,QU,64.3,67.5,Junior,,117.5,,117.5,Single-ply,1
