Division,WeightClassKg,Place,Name,Team,BodyweightKg,Best3SquatKg,Best3BenchKg,Best3DeadliftKg,TotalKg,Equipment,Event,Sex
Boys,52,1,Raymond Garza,Clute Brazoswood,51.35,149.69,68.04,145.15,362.87,Single-ply,SBD,M
Boys,52,2,Steve Melgar,Hitchcock,44.27,142.88,61.23,142.88,347,Single-ply,SBD,M
Boys,52,3,Nathan Acosta,Pearland Dawson,50.35,120.2,54.43,124.74,299.37,Single-ply,SBD,M
Boys,52,4,Dylan Deulschlander,Clute Brazoswood,48.81,83.91,47.63,99.79,231.33,Single-ply,SBD,M
Boys,52,DQ,Royshon Godley,Texas City,51.71,,,,,Single-ply,SBD,M
Boys,56,1,Blake Gamez,La Porte,55.7,181.44,106.59,199.58,487.61,Single-ply,SBD,M
Boys,56,2,Marcus Mayorga,Pearland,54.43,124.74,77.11,133.81,335.66,Single-ply,SBD,M
Boys,56,3,Wyatt Dudley,Santa Fe,53.8,133.81,52.16,147.42,333.39,Single-ply,SBD,M
Boys,56,DQ,Jason Lu,Pasadena Dobie,55.79,,,,,Single-ply,SBD,M
Boys,60,1,Chien Phan,Dickinson,59.78,197.31,106.59,181.44,485.34,Single-ply,SBD,M
Boys,60,2,Tommy Phan,Dickinson,59.69,147.42,90.72,156.49,394.63,Single-ply,SBD,M
Boys,60,3,Phong Nguyen,Clute Brazoswood,58.33,127.01,70.31,145.15,342.46,Single-ply,SBD,M
Boys,60,5,Devin West,Clute Brazoswood,58.97,136.08,61.23,138.35,335.66,Single-ply,SBD,M
Boys,67.5,1,Jim Tran,Dickinson,66.32,217.72,124.74,210.92,553.38,Single-ply,SBD,M
Boys,67.5,2,Cameron Guillen,Clute Brazoswood,64.32,204.12,99.79,197.31,501.22,Single-ply,SBD,M
Boys,67.5,3,Santiago Hernandez,Texas City,61.33,158.76,106.59,154.22,419.57,Single-ply,SBD,M
Boys,67.5,4,Chacho Garcia,Texas City,66.22,138.35,86.18,158.76,383.29,Single-ply,SBD,M
Boys,67.5,4,Devin Coronado,Clute Brazoswood,60.06,127.01,70.31,145.15,342.46,Single-ply,SBD,M
Boys,67.5,5,Ricky Hampton,Hitchcock,65.14,147.42,65.77,158.76,371.95,Single-ply,SBD,M
Boys,67.5,6,Daniel Cantu,Clute Brazoswood,65.77,133.81,72.57,161.03,367.41,Single-ply,SBD,M
Boys,75,1,Jared Hernandez,Texas City,74.3,215.46,145.15,229.06,589.67,Single-ply,SBD,M
Boys,75,2,Luis Garza,La Porte,74.21,199.58,90.72,219.99,510.29,Single-ply,SBD,M
Boys,75,3,Beau Ramos,Texas City,73.39,192.78,122.47,192.78,508.02,Single-ply,SBD,M
Boys,75,4,Shawn Anderson,Pearland,74.84,197.31,108.86,195.04,501.22,Single-ply,SBD,M
Boys,75,5,Randy Williams,Hitchcock,72.94,190.51,102.06,195.04,487.61,Single-ply,SBD,M
Boys,75,6,Evan Kukuk,Santa Fe,74.57,181.44,97.52,174.63,453.59,Single-ply,SBD,M
Boys,75,7,Eric Singleton,Pearland,74.84,170.1,92.99,183.7,446.79,Single-ply,SBD,M
Boys,75,8,Blane Marcantel,Santa Fe,71.12,165.56,102.06,165.56,433.18,Single-ply,SBD,M
Boys,75,9,Nick Bell,Texas City,72.85,136.08,86.18,163.29,385.55,Single-ply,SBD,M
Boys,75,DQ,Chris Marquez,Pasadena Dobie,74.84,,,,,Single-ply,SBD,M
Boys,82.5,1,Cournelious Vaughans,Dickinson,80.56,258.55,165.56,226.8,650.91,Single-ply,SBD,M
Boys,82.5,2,Josh Troupe,La Porte,80.38,206.38,136.08,226.8,569.26,Single-ply,SBD,M
Boys,82.5,3,Richard Kiffer,La Porte,80.29,192.78,129.27,215.46,537.51,Single-ply,SBD,M
Boys,82.5,4,Dane Rendon,Hitchcock,80.74,204.12,111.13,188.24,503.49,Single-ply,SBD,M
Boys,82.5,5,Lorenzo Munoz-Nievez,Pearland Dawson,78.65,161.03,102.06,161.03,424.11,Single-ply,SBD,M
Boys,82.5,6,John Micheal Wilson,Santa Fe,81.65,151.95,113.4,158.76,424.11,Single-ply,SBD,M
Boys,82.5,7,Efrain Gloria,Pasadena Dobie,81.37,142.88,83.91,165.56,392.36,Single-ply,SBD,M
Boys,82.5,8,Wade Perkins,Santa Fe,80.01,142.88,102.06,142.88,387.82,Single-ply,SBD,M
Boys,82.5,9,Latonio Dansby,Pasadena Dobie,79.83,127.01,81.65,145.15,353.8,Single-ply,SBD,M
Boys,82.5,DQ,Exavier Simpson,Texas City,82.1,,,,,Single-ply,SBD,M
Boys,90,1,Zane Gonzales,Pearland,89.81,233.6,140.61,215.46,589.67,Single-ply,SBD,M
Boys,90,2,Demontre Bell,Texas City,87.36,219.99,113.4,240.4,573.79,Single-ply,SBD,M
Boys,90,4,Trevor Anderson,Dickinson,88.63,204.12,120.2,215.46,539.77,Single-ply,SBD,M
Boys,90,5,Anthony Gonzales,Hitchcock,85.09,156.49,90.72,165.56,412.77,Single-ply,SBD,M
Boys,90,6,Ramiro Esparza,Pasadena Dobie,83.01,140.61,104.33,161.03,405.97,Single-ply,SBD,M
Boys,90,7,Zack Smith,Texas City,86.73,151.95,92.99,156.49,401.43,Single-ply,SBD,M
Boys,90,8,Gage Slaughter,Santa Fe,87.27,149.69,92.99,154.22,396.89,Single-ply,SBD,M
Boys,90,9,MIcheal McVay,Santa Fe,83.01,124.74,95.25,165.56,385.55,Single-ply,SBD,M
Boys,90,DQ,Tristian Sanchez,Pasadena Dobie,89.81,,,,,Single-ply,SBD,M
Boys,90,DQ,Reese Thompson,La Porte,89.81,,,,,Single-ply,SBD,M
Boys,90,DQ,Logan Nichols,La Porte,89.81,,,,,Single-ply,SBD,M
Boys,100,1,Tristan Anderson,Dickinson,98.34,240.4,131.54,244.94,616.89,Single-ply,SBD,M
Boys,100,2,Hunter Thiem,Hitchcock,92.44,208.65,129.27,210.92,548.85,Single-ply,SBD,M
Boys,100,3,Terrell Bernard,La Porte,92.62,192.78,142.88,210.92,546.58,Single-ply,SBD,M
Boys,100,3,Jaquiron Venzant,Texas City,89.9,204.12,136.08,204.12,544.31,Single-ply,SBD,M
Boys,100,4,Brent Smith,Hitchcock,95.71,217.72,115.67,204.12,537.51,Single-ply,SBD,M
Boys,100,5,Elfonso Muniz-Vargas,Clute Brazoswood,96.98,204.12,124.74,195.04,523.9,Single-ply,SBD,M
Boys,100,6,Tyler Ray,Santa Fe,94.35,204.12,106.59,192.78,503.49,Single-ply,SBD,M
Boys,100,7,Luis Perez,Santa Fe,99.25,206.38,106.59,185.97,498.95,Single-ply,SBD,M
Boys,100,8,Pierce Tupa,Pearland,99.79,179.17,138.35,181.44,498.95,Single-ply,SBD,M
Boys,100,9,John Rinehart,Texas City,94.89,183.7,97.52,158.76,439.98,Single-ply,SBD,M
Boys,100,10,Cervantis Pounds,Pasadena Dobie,91.53,142.88,90.72,127.01,360.61,Single-ply,SBD,M
Boys,100,DQ,Kevin Nguyen,Friendswood Clear Brook,99.79,,,,,Single-ply,SBD,M
Boys,100,DQ,Misonn Wallace,Pasadena Dobie,99.79,,,,,Single-ply,SBD,M
Boys,100,DQ,Jeffery McCall,Pasadena Dobie,99.79,,,,,Single-ply,SBD,M
Boys,100,DQ,Spencer Wells,Pearland Dawson,99.79,,,,,Single-ply,SBD,M
Boys,100,DQ,John Gutierrez,Hitchcock,99.79,,,,,Single-ply,SBD,M
Boys,100,DQ,Ravion Haynes,Texas City,99.79,,,,,Single-ply,SBD,M
Boys,100,DQ,Alan Millspaugh,Pearland Dawson,99.79,,,,,Single-ply,SBD,M
Boys,100,DQ,Issiah Sweed,Texas City,94.26,199.58,,,,Single-ply,SBD,M
Boys,110,1,Kaylond North,Dickinson,108.86,351.53,208.65,294.84,855.02,Single-ply,SBD,M
Boys,110,2,Jared Reedy,Dickinson,109.5,294.84,165.56,240.4,700.8,Single-ply,SBD,M
Boys,110,3,Xavian Hampton,Hitchcock,109.77,294.84,120.2,263.08,678.12,Single-ply,SBD,M
Boys,110,4,Derek Parish,Pearland,109.77,249.48,158.76,233.6,641.83,Single-ply,SBD,M
Boys,110,5,Livan Lopez,Dickinson,108.41,226.8,147.42,235.87,610.08,Single-ply,SBD,M
Boys,110,6,Niko Afuhaamango,Pearland,107.77,231.33,142.88,233.6,607.81,Single-ply,SBD,M
Boys,110,7,Tyler Danford,Clute Brazoswood,106.96,242.67,97.52,204.12,544.31,Single-ply,SBD,M
Boys,110,8,Jared Mancuso,Hitchcock,109.77,215.46,92.99,188.24,496.68,Single-ply,SBD,M
Boys,110,9,Dustin Powell,Santa Fe,101.24,183.7,113.4,192.78,489.88,Single-ply,SBD,M
Boys,110,10,Trey Poskey,Pasadena Dobie,104.51,167.83,124.74,192.78,485.34,Single-ply,SBD,M
Boys,110,11,Tyler Williams,Pearland Dawson,109.77,188.24,90.72,206.38,485.34,Single-ply,SBD,M
Boys,110,12,Christian Hunter,Pasadena Dobie,104.42,181.44,90.72,188.24,460.4,Single-ply,SBD,M
Boys,110,13,Payne Hebert,Pearland Dawson,108.5,165.56,106.59,188.24,460.4,Single-ply,SBD,M
Boys,110,14,Caleb Speasmaker,Pearland Dawson,108.41,179.17,92.99,161.03,433.18,Single-ply,SBD,M
Boys,110,15,Omar Rodela,Pasadena Dobie,101.33,174.63,86.18,165.56,426.38,Single-ply,SBD,M
Boys,110,16,Jaret Porterfield,Pearland,101.15,142.88,81.65,165.56,390.09,Single-ply,SBD,M
Boys,110,17,Anthony Nixon,Texas City,108.14,226.8,129.27,,356.07,Single-ply,SB,M
Boys,110,DQ,Pat Howell,Pearland Dawson,109.77,,,,,Single-ply,SBD,M
Boys,110,DQ,Tony Tran,Pasadena Dobie,109.77,,,,,Single-ply,SBD,M
Boys,110,DQ,Izaah Washington,La Porte,109.77,,,,,Single-ply,SBD,M
Boys,110,DQ,Mike Williams,Pearland Dawson,102.06,,102.06,,,Single-ply,SBD,M
Boys,125,1,Anietie Etuk,Dickinson,124.56,310.71,183.7,297.1,791.52,Single-ply,SBD,M
Boys,125,2,Dante Hayes,Texas City,124.56,281.23,151.95,263.08,696.26,Single-ply,SBD,M
Boys,125,3,Kyler Gentry,Santa Fe,122.56,272.16,170.1,249.48,691.73,Single-ply,SBD,M
Boys,125,4,Gino Cortez,Pearland,120.66,242.67,163.29,251.74,657.71,Single-ply,SBD,M
Boys,125,5,Santos Lazos,Clute Brazoswood,123.1,238.14,142.88,217.72,598.74,Single-ply,SBD,M
Boys,125,6,Joey Williams,Pearland,115.21,226.8,142.88,215.46,585.13,Single-ply,SBD,M
Boys,125,7,Victor Esquivel,Clute Brazoswood,121.29,231.33,138.35,208.65,578.33,Single-ply,SBD,M
Boys,125,8,Lathan Chambers,Pearland,119.29,204.12,156.49,210.92,571.53,Single-ply,SBD,M
Boys,125,9,Jaden McConnell,La Porte,119.2,192.78,124.74,226.8,544.31,Single-ply,SBD,M
Boys,125,10,Peyton Evans,Pearland Dawson,113.4,183.7,106.59,181.44,471.74,Single-ply,SBD,M
Boys,125,11,Ruben Gamboa,Pearland Dawson,117.48,170.1,115.67,170.1,455.86,Single-ply,SBD,M
Boys,125,12,Elijah Mason,Hitchcock,120.11,181.44,97.52,165.56,444.52,Single-ply,SBD,M
Boys,125+,1,Chance Harmanson,Dickinson,148.87,331.12,206.38,267.62,805.13,Single-ply,SBD,M
Boys,125+,2,Bayden Pethtel,Texas City,132.18,258.55,179.17,219.99,657.71,Single-ply,SBD,M
Boys,125+,3,Parker Corriea,Pearland Dawson,150.14,269.89,124.74,254.01,648.64,Single-ply,SBD,M
Boys,125+,4,Coy Combs,La Porte,127.37,272.16,133.81,240.4,646.37,Single-ply,SBD,M
Boys,125+,5,Chris Sampson,Texas City,141.34,272.16,142.88,222.26,637.3,Single-ply,SBD,M
Boys,125+,6,Bryan Hayes,La Porte,159.3,240.4,167.83,226.8,635.03,Single-ply,SBD,M
Boys,125+,7,Tevin Martin,Pearland,126.28,215.46,136.08,226.8,578.33,Single-ply,SBD,M
Boys,125+,8,Jacob Ford,Clute Brazoswood,129.82,226.8,113.4,233.6,573.79,Single-ply,SBD,M
Boys,125+,9,Max Casas,Pearland Dawson,135.62,226.8,117.93,204.12,548.85,Single-ply,SBD,M
Boys,125+,10,Lane Morris,Santa Fe,127.73,226.8,106.59,204.12,537.51,Single-ply,SBD,M
